what,kind,bundleId,bundleVersion,description,time
started,bundle,org.eclipse.jface,3.6.1.M20100825-0800,"org.eclipse.jface",1309341299531
started,bundle,org.eclipse.jst.ws.jaxws.utils,1.0.0.v201004171919,"org.eclipse.jst.ws.jaxws.utils",1309341299567
started,bundle,org.eclipse.ltk.core.refactoring,3.5.100.v20100526-0800,"org.eclipse.ltk.core.refactoring",1309341299570
started,bundle,org.eclipse.ltk.ui.refactoring,3.5.0.v20100526-0800,"org.eclipse.ltk.ui.refactoring",1309341299572
started,bundle,org.eclipse.mylyn.commons.net,3.4.1.v20100625-2100-e3x,"org.eclipse.mylyn.commons.net",1309341299575
started,bundle,org.eclipse.mylyn.monitor.ui,3.4.0.v20100608-0100-e3x,"org.eclipse.mylyn.monitor.ui",1309341299576
started,bundle,org.eclipse.pde,3.6.1.v201009090800,"org.eclipse.pde",1309341299577
started,bundle,org.eclipse.pde.core,3.6.1.v20100902_r361,"org.eclipse.pde.core",1309341299579
started,bundle,org.eclipse.team.core,3.5.100.R36x_v20100825-0800,"org.eclipse.team.core",1309341299605
started,bundle,org.eclipse.ui,3.6.1.M20100826-1330,"org.eclipse.ui",1309341299633
started,bundle,org.eclipse.ui.editors,3.6.1.r361_v20100825-0800,"org.eclipse.ui.editors",1309341299633
started,bundle,org.eclipse.ui.ide,3.6.1.M20100825-0800,"org.eclipse.ui.ide",1309341299636
started,bundle,org.eclipse.ui.net,1.2.100.I20100505-1245,"org.eclipse.ui.net",1309341299652
started,bundle,org.eclipse.ui.views,3.5.0.I20100527-0800,"org.eclipse.ui.views",1309341299679
started,bundle,org.eclipse.ui.workbench,3.6.1.M20100826-1330,"org.eclipse.ui.workbench",1309341299683
started,bundle,org.eclipse.ui.workbench.texteditor,3.6.1.r361_v20100714-0800,"org.eclipse.ui.workbench.texteditor",1309341299701
started,bundle,org.eclipse.wst.common.project.facet.core,1.4.102.v201008170019,"org.eclipse.wst.common.project.facet.core",1309341299738
started,bundle,org.eclipse.wst.web,1.1.401.v201007151900,"org.eclipse.wst.web",1309341299748
started,bundle,com.instantiations.common.core,6.0.0.r36x201009131414,"com.instantiations.common.core",1309341299766
started,bundle,com.instantiations.designer.core,8.0.0.r36x201009160631,"com.instantiations.designer.core",1309341299768
started,bundle,com.instantiations.designer.core.databinding,8.0.0.r36x201009160631,"com.instantiations.designer.core.databinding",1309341299776
started,bundle,com.instantiations.designer.core.lib,8.0.0.r36x201009160631,"com.instantiations.designer.core.lib",1309341299794
started,bundle,com.instantiations.designer.gwt,8.0.0.r36x201009160831,"com.instantiations.designer.gwt",1309341299797
started,bundle,com.instantiations.designer.gxt.databinding,8.0.0.r36x201009160831,"com.instantiations.designer.gxt.databinding",1309341299798
started,bundle,com.instantiations.designer.rcp.databinding,8.0.0.r36x201009160649,"com.instantiations.designer.rcp.databinding",1309341299800
started,bundle,com.instantiations.designer.swing.databinding,8.0.0.r36x201009160643,"com.instantiations.designer.swing.databinding",1309341299803
started,bundle,com.instantiations.eclipse.ui,8.0.0.r36x201009131432,"com.instantiations.eclipse.ui",1309341299819
os,sysinfo,,,"win32",1309341299824
arch,sysinfo,,,"x86",1309341299825
ws,sysinfo,,,"win32",1309341299825
locale,sysinfo,,,"en_US",1309341299825
processors,sysinfo,,,"2",1309341299825
java.runtime.name,sysinfo,,,"Java(TM) SE Runtime Environment",1309341299825
java.runtime.version,sysinfo,,,"1.6.0_24-b07",1309341299825
java.specification.name,sysinfo,,,"Java Platform API Specification",1309341299825
java.specification.vendor,sysinfo,,,"Sun Microsystems Inc.",1309341299825
java.specification.version,sysinfo,,,"1.6",1309341299825
java.vendor,sysinfo,,,"Sun Microsystems Inc.",1309341299825
java.version,sysinfo,,,"1.6.0_24",1309341299825
java.vm.info,sysinfo,,,"mixed mode, sharing",1309341299825
java.vm.name,sysinfo,,,"Java HotSpot(TM) Client VM",1309341299825
java.vm.specification.name,sysinfo,,,"Java Virtual Machine Specification",1309341299825
java.vm.specification.vendor,sysinfo,,,"Sun Microsystems Inc.",1309341299825
java.vm.specification.version,sysinfo,,,"1.0",1309341299825
java.vm.vendor,sysinfo,,,"Sun Microsystems Inc.",1309341299825
java.vm.version,sysinfo,,,"19.1-b02",1309341299825
started,bundle,org.eclipse.emf.ecore.xmi,2.5.0.v20100521-1846,"org.eclipse.emf.ecore.xmi",1309341299948
started,bundle,org.eclipse.mylyn.bugzilla.core,3.4.2.v20100902-0100-e3x,"org.eclipse.mylyn.bugzilla.core",1309341300064
started,bundle,org.eclipse.mylyn.bugzilla.ui,3.4.2.v20100909-0100-e3x,"org.eclipse.mylyn.bugzilla.ui",1309341300183
started,bundle,org.eclipse.jst.common.project.facet.core,1.4.102.v201008182136,"org.eclipse.jst.common.project.facet.core",1309341300274
started,bundle,org.eclipse.jst.ws.jaxrs.core,1.0.200.v201008201800,"org.eclipse.jst.ws.jaxrs.core",1309341300396
started,bundle,org.eclipse.ui.forms,3.5.2.r36_v20100702,"org.eclipse.ui.forms",1309341300453
started,bundle,org.eclipse.mylyn.context.core,3.4.1.v20100909-0100-e3x,"org.eclipse.mylyn.context.core",1309341300502
started,bundle,org.eclipse.mylyn.context.ui,3.4.1.v20100909-0100-e3x,"org.eclipse.mylyn.context.ui",1309341300531
started,bundle,org.eclipse.mylyn.tasks.ui,3.4.2.v20100902-0100-e3x,"org.eclipse.mylyn.tasks.ui",1309341300764
started,bundle,org.eclipse.mylyn.team.ui,3.4.2.v20100909-0100-e3x,"org.eclipse.mylyn.team.ui",1309341300776
started,bundle,org.eclipse.update.scheduler,3.2.300.v20100512,"org.eclipse.update.scheduler",1309341300802
started,bundle,org.eclipse.update.configurator,3.3.100.v20100512,"org.eclipse.update.configurator",1309341301328
started,bundle,org.eclipse.update.core,3.2.402.R36x_v20100629,"org.eclipse.update.core",1309341301396
started,bundle,com.instantiations.designer.rcp,8.0.0.r36x201009160649,"com.instantiations.designer.rcp",1309341301987
started,bundle,com.instantiations.designer.swt,8.0.0.r36x201009160641,"com.instantiations.designer.swt",1309341302028
started,bundle,com.instantiations.designer.swing,8.0.0.r36x201009160643,"com.instantiations.designer.swing",1309341302040
started,bundle,com.instantiations.designer.core.xml,8.0.0.r36x201009160634,"com.instantiations.designer.core.xml",1309341302493
started,bundle,com.instantiations.designer.gwt.ExtGWT,8.0.0.r36x201009160831,"com.instantiations.designer.gwt.ExtGWT",1309341302836
started,bundle,com.instantiations.designer.gwt.SmartGWT,8.0.0.r36x201009160831,"com.instantiations.designer.gwt.SmartGWT",1309341302854
started,bundle,com.instantiations.designer.gwt.UiBinder,8.0.0.r36x201009160831,"com.instantiations.designer.gwt.UiBinder",1309341302861
started,bundle,com.instantiations.eclipse.debug,6.0.0.r36x201009131414,"com.instantiations.eclipse.debug",1309341303470
started,bundle,com.instantiations.eclipse.util,6.0.0.r36x201009131414,"com.instantiations.eclipse.util",1309341303887
started,bundle,com.instantiations.eclipse.startup,6.0.0.r36x201009131414,"com.instantiations.eclipse.startup",1309341303889
started,bundle,org.eclipse.jsch.core,1.1.200.I20100505-1245,"org.eclipse.jsch.core",1309341304398
started,bundle,org.eclipse.team.cvs.core,3.3.300.I20100526-0800,"org.eclipse.team.cvs.core",1309341304505
started,bundle,com.instantiations.eclipse.usageprofiler,6.0.0.r36x201009131414,"com.instantiations.eclipse.usageprofiler",1309341304507
started,bundle,org.eclipse.team.ui,3.5.101.R36x_v20100825-0800,"org.eclipse.team.ui",1309341305271
started,bundle,com.instantiations.eclipse.usageprofiler.ui,6.0.0.r36x201009131414,"com.instantiations.eclipse.usageprofiler.ui",1309341305671
started,bundle,com.instantiations.j2ee,8.0.0.r36x201009140724,"com.instantiations.j2ee",1309341305679
started,bundle,org.eclipse.ui.console,3.5.0.v20100526,"org.eclipse.ui.console",1309341305710
started,bundle,org.eclipse.team.cvs.ui,3.3.301.R36x_v20100825-0800,"org.eclipse.team.cvs.ui",1309341306755
deactivated,workbench,org.eclipse.ui.workbench,3.6.1.M20100826-1330,"",1309341350692
activated,workbench,org.eclipse.ui.workbench,3.6.1.M20100826-1330,"",1309341416975
opened,editor,org.eclipse.jdt.ui,3.6.1.r361_v20100825-0800,"org.eclipse.jdt.ui.CompilationUnitEditor",1309341421324
started,bundle,com.instantiations.designer.xwt,8.0.0.r36x201009160656,"com.instantiations.designer.xwt",1309341421580
activated,editor,org.eclipse.jdt.ui,3.6.1.r361_v20100825-0800,"org.eclipse.jdt.ui.CompilationUnitEditor",1309341421620
started,bundle,org.eclipse.wst.server.core,1.1.204.v20100908,"org.eclipse.wst.server.core",1309341423406
started,bundle,org.eclipse.wst.server.ui,1.1.205.v20100908,"org.eclipse.wst.server.ui",1309341423455
started,bundle,org.eclipse.wst.jsdt.debug.ui,1.0.1.v201008170101,"org.eclipse.wst.jsdt.debug.ui",1309341423535
opened,editor,org.eclipse.jdt.ui,3.6.1.r361_v20100825-0800,"org.eclipse.jdt.ui.CompilationUnitEditor",1309341423716
activated,editor,org.eclipse.jdt.ui,3.6.1.r361_v20100825-0800,"org.eclipse.jdt.ui.CompilationUnitEditor",1309341423777
started,bundle,org.eclipse.jdt.junit,3.6.1.r361_v20100825-0800,"org.eclipse.jdt.junit",1309341423955
opened,editor,com.instantiations.designer.core,8.0.0.r36x201009160631,"com.instantiations.designer.core.guiEditor",1309341424763
activated,editor,com.instantiations.designer.core,8.0.0.r36x201009160631,"com.instantiations.designer.core.guiEditor",1309341424875
deactivated,workbench,org.eclipse.ui.workbench,3.6.1.M20100826-1330,"",1309341443970
started,bundle,com.instantiations.designer.runtime.lib,8.0.0.r36x201009160631,"com.instantiations.designer.runtime.lib",1309341444743
started,bundle,com.instantiations.designer.gwt.GWTExt,8.0.0.r36x201009160831,"com.instantiations.designer.gwt.GWTExt",1309341444935
started,bundle,com.instantiations.designer.rcp.nebula,8.0.0.r36x201009160649,"com.instantiations.designer.rcp.nebula",1309341444943
started,bundle,com.instantiations.designer.swing.FormLayout,8.0.0.r36x201009160643,"com.instantiations.designer.swing.FormLayout",1309341444955
started,bundle,com.instantiations.designer.swing.hc,8.0.0.r36x201009160643,"com.instantiations.designer.swing.hc",1309341444959
started,bundle,com.instantiations.designer.core.api,8.0.0.r36x201009160631,"com.instantiations.designer.core.api",1309341445298
started,bundle,com.instantiations.designer.core.apiImpl,8.0.0.r36x201009160631,"com.instantiations.designer.core.apiImpl",1309341445830
started,bundle,com.instantiations.designer.os,8.0.0.r36x201009160631,"com.instantiations.designer.os",1309341447312
started,bundle,com.instantiations.designer.rcp.databinding.emf,8.0.0.r36x201009160649,"com.instantiations.designer.rcp.databinding.emf",1309341449253
started,bundle,org.eclipse.pde.launching,3.6.0.v20100601,"org.eclipse.pde.launching",1309341449679
started,bundle,org.eclipse.ui.views.log,1.0.100.v20100423,"org.eclipse.ui.views.log",1309341449698
started,bundle,org.eclipse.pde.ui,3.6.1.v20100810_r361,"org.eclipse.pde.ui",1309341449735
started,bundle,com.instantiations.designer.os.win32,8.0.0.r36x201009160631,"com.instantiations.designer.os.win32",1309341450162
started,bundle,com.instantiations.designer.rcp.GroupLayout,8.0.0.r36x201009160649,"com.instantiations.designer.rcp.GroupLayout",1309341451434
started,bundle,com.instantiations.designer.layout.group,8.0.0.r36x201009160635,"com.instantiations.designer.layout.group",1309341451437
started,bundle,com.instantiations.designer.rcp.swing2swt,8.0.0.r36x201009160649,"com.instantiations.designer.rcp.swing2swt",1309341451441
started,bundle,com.instantiations.designer.swing.MigLayout.lib,8.0.0.r36x201009160643,"com.instantiations.designer.swing.MigLayout.lib",1309341451459
started,bundle,com.instantiations.designer.swing.MigLayout,8.0.0.r36x201009160643,"com.instantiations.designer.swing.MigLayout",1309341451462
started,bundle,com.instantiations.designer.swing.java6,8.0.0.r36x201009160643,"com.instantiations.designer.swing.java6",1309341451466
started,bundle,com.instantiations.designer.rcp.SWT_AWT,8.0.0.r36x201009160651,"com.instantiations.designer.rcp.SWT_AWT",1309341451827
activated,workbench,org.eclipse.ui.workbench,3.6.1.M20100826-1330,"",1309341452180
started,bundle,com.instantiations.designer.swing.ams,8.0.0.r36x201009160643,"com.instantiations.designer.swing.ams",1309341463556
executed,command,org.eclipse.ui,3.6.1.M20100826-1330,"org.eclipse.ui.edit.copy",1309341474553
started,bundle,org.eclipse.mylyn.java.tasks,3.4.0.v20100608-0100-e3x,"org.eclipse.mylyn.java.tasks",1309341474945
executed,command,org.eclipse.ui,3.6.1.M20100826-1330,"org.eclipse.ui.edit.copy",1309341474956
executed,command,org.eclipse.ui,3.6.1.M20100826-1330,"org.eclipse.ui.edit.copy",1309341474979
executed,command,org.eclipse.ui,3.6.1.M20100826-1330,"org.eclipse.ui.edit.copy",1309341475227
executed,command,org.eclipse.ui,3.6.1.M20100826-1330,"org.eclipse.ui.edit.copy",1309341475507
executed,command,org.eclipse.ui,3.6.1.M20100826-1330,"org.eclipse.ui.edit.copy",1309341475721
deactivated,workbench,org.eclipse.ui.workbench,3.6.1.M20100826-1330,"",1309341478676
activated,workbench,org.eclipse.ui.workbench,3.6.1.M20100826-1330,"",1309342149176
deactivated,workbench,org.eclipse.ui.workbench,3.6.1.M20100826-1330,"",1309342150307
activated,workbench,org.eclipse.ui.workbench,3.6.1.M20100826-1330,"",1309342469255
deactivated,workbench,org.eclipse.ui.workbench,3.6.1.M20100826-1330,"",1309342486223
activated,perspective,org.eclipse.debug.ui,,"org.eclipse.debug.ui.DebugPerspective",1309353873548
started,bundle,org.eclipse.osgi,3.6.1.R36x_v20100806,"org.eclipse.osgi",1309353873552
started,bundle,org.eclipse.equinox.simpleconfigurator,1.0.200.v20100503,"org.eclipse.equinox.simpleconfigurator",1309353873594
started,bundle,com.ibm.icu,4.2.1.v20100412,"com.ibm.icu",1309353873657
started,bundle,org.eclipse.compare.core,3.5.100.I20100526-0800,"org.eclipse.compare.core",1309353873741
started,bundle,org.eclipse.core.contenttype,3.4.100.v20100505-1235,"org.eclipse.core.contenttype",1309353873810
started,bundle,org.eclipse.core.databinding.observable,1.3.0.I20100601-0800,"org.eclipse.core.databinding.observable",1309353873849
started,bundle,org.eclipse.core.expressions,3.4.200.v20100505,"org.eclipse.core.expressions",1309353873924
started,bundle,org.eclipse.core.filebuffers,3.5.100.v20100520-0800,"org.eclipse.core.filebuffers",1309353873981
started,bundle,org.eclipse.core.filesystem,1.3.1.R36x_v20100727-0745,"org.eclipse.core.filesystem",1309353874098
started,bundle,org.eclipse.core.jobs,3.5.1.R36x_v20100824,"org.eclipse.core.jobs",1309353874137
started,bundle,org.eclipse.core.net,1.2.100.I20100511-0800,"org.eclipse.core.net",1309353874235
started,bundle,org.eclipse.core.resources,3.6.0.R36x_v20100825-0600,"org.eclipse.core.resources",1309353874341
started,bundle,org.eclipse.core.runtime,3.6.0.v20100505,"org.eclipse.core.runtime",1309353874924
started,bundle,org.eclipse.core.runtime.compatibility,3.2.100.v20100505,"org.eclipse.core.runtime.compatibility",1309353874989
started,bundle,org.eclipse.core.runtime.compatibility.auth,3.2.200.v20100517,"org.eclipse.core.runtime.compatibility.auth",1309353875049
started,bundle,org.eclipse.core.variables,3.2.400.v20100505,"org.eclipse.core.variables",1309353875136
started,bundle,org.eclipse.debug.core,3.6.0.v20100519,"org.eclipse.debug.core",1309353875160
started,bundle,org.eclipse.debug.ui,3.6.1.v20100901_r361,"org.eclipse.debug.ui",1309353875245
started,bundle,org.eclipse.epp.usagedata.gathering,1.3.0.R201005261100,"org.eclipse.epp.usagedata.gathering",1309353875347
started,bundle,org.eclipse.epp.usagedata.recording,1.3.0.R201005261100,"org.eclipse.epp.usagedata.recording",1309353875443
started,bundle,org.eclipse.equinox.app,1.3.1.R36x_v20100803,"org.eclipse.equinox.app",1309353875520
started,bundle,org.eclipse.equinox.common,3.6.0.v20100503,"org.eclipse.equinox.common",1309353875555
started,bundle,org.eclipse.equinox.ds,1.2.1.R36x_v20100803,"org.eclipse.equinox.ds",1309353875601
started,bundle,org.eclipse.equinox.event,1.2.0.v20100503,"org.eclipse.equinox.event",1309353875634
started,bundle,org.eclipse.equinox.frameworkadmin,2.0.0.v20100503,"org.eclipse.equinox.frameworkadmin",1309353875682
started,bundle,org.eclipse.equinox.p2.core,2.0.2.R36x_v20100804,"org.eclipse.equinox.p2.core",1309353875720
started,bundle,org.eclipse.equinox.p2.directorywatcher,1.0.202.R36x_v20100727,"org.eclipse.equinox.p2.directorywatcher",1309353875737
started,bundle,org.eclipse.equinox.p2.engine,2.0.0.v20100606,"org.eclipse.equinox.p2.engine",1309353875822
started,bundle,org.eclipse.equinox.p2.metadata,2.0.0.v20100601,"org.eclipse.equinox.p2.metadata",1309353875897
started,bundle,org.eclipse.equinox.p2.metadata.repository,1.1.0.v20100513,"org.eclipse.equinox.p2.metadata.repository",1309353875974
started,bundle,org.eclipse.equinox.p2.operations,2.0.0.v20100510,"org.eclipse.equinox.p2.operations",1309353876036
started,bundle,org.eclipse.equinox.p2.reconciler.dropins,1.1.0.v20100525,"org.eclipse.equinox.p2.reconciler.dropins",1309353876096
started,bundle,org.eclipse.equinox.p2.repository,2.0.1.R36x_v20100823,"org.eclipse.equinox.p2.repository",1309353876181
started,bundle,org.eclipse.equinox.p2.ui.sdk.scheduler,1.0.0.v20100507-1815,"org.eclipse.equinox.p2.ui.sdk.scheduler",1309353876215
started,bundle,org.eclipse.equinox.p2.updatechecker,1.1.101.R36x_v20100823,"org.eclipse.equinox.p2.updatechecker",1309353876250
started,bundle,org.eclipse.equinox.preferences,3.3.0.v20100503,"org.eclipse.equinox.preferences",1309353876269
started,bundle,org.eclipse.equinox.registry,3.5.0.v20100503,"org.eclipse.equinox.registry",1309353876316
started,bundle,org.eclipse.equinox.security,1.0.200.v20100503,"org.eclipse.equinox.security",1309353876339
started,bundle,org.eclipse.equinox.simpleconfigurator.manipulator,2.0.0.v20100503,"org.eclipse.equinox.simpleconfigurator.manipulator",1309353876357
started,bundle,org.eclipse.equinox.util,1.0.200.v20100503,"org.eclipse.equinox.util",1309353876414
started,bundle,org.eclipse.help,3.5.0.v20100524,"org.eclipse.help",1309353876456
started,bundle,org.eclipse.jdt.apt.core,3.3.401.R36_v20100727-0110,"org.eclipse.jdt.apt.core",1309353876544
started,bundle,org.eclipse.jdt.apt.pluggable.core,1.0.301.R36_v20100727-0110,"org.eclipse.jdt.apt.pluggable.core",1309353876643
started,bundle,org.eclipse.jdt.core,3.6.1.v_A68_R36x,"org.eclipse.jdt.core",1309353876678
started,bundle,org.eclipse.jdt.core.manipulation,1.3.0.v20100520-0800,"org.eclipse.jdt.core.manipulation",1309353876698
started,bundle,org.eclipse.jdt.debug,3.6.1.v20100715_r361,"org.eclipse.jdt.debug",1309353876729
started,bundle,org.eclipse.jdt.debug.ui,3.5.0.v20100602-0830,"org.eclipse.jdt.debug.ui",1309353876729
started,bundle,org.eclipse.jdt.launching,3.5.100.v20100526,"org.eclipse.jdt.launching",1309353876749
started,bundle,org.eclipse.jdt.ui,3.6.1.r361_v20100825-0800,"org.eclipse.jdt.ui",1309353876749
started,bundle,org.eclipse.jface,3.6.1.M20100825-0800,"org.eclipse.jface",1309353876787
started,bundle,org.eclipse.ltk.core.refactoring,3.5.100.v20100526-0800,"org.eclipse.ltk.core.refactoring",1309353876811
started,bundle,org.eclipse.ltk.ui.refactoring,3.5.0.v20100526-0800,"org.eclipse.ltk.ui.refactoring",1309353876894
started,bundle,org.eclipse.pde,3.6.1.v201009090800,"org.eclipse.pde",1309353876926
started,bundle,org.eclipse.pde.core,3.6.1.v20100902_r361,"org.eclipse.pde.core",1309353877027
started,bundle,org.eclipse.team.core,3.5.100.R36x_v20100825-0800,"org.eclipse.team.core",1309353877054
started,bundle,org.eclipse.ui,3.6.1.M20100826-1330,"org.eclipse.ui",1309353877077
started,bundle,org.eclipse.ui.editors,3.6.1.r361_v20100825-0800,"org.eclipse.ui.editors",1309353877077
started,bundle,org.eclipse.ui.ide,3.6.1.M20100825-0800,"org.eclipse.ui.ide",1309353877128
started,bundle,org.eclipse.ui.net,1.2.100.I20100505-1245,"org.eclipse.ui.net",1309353877153
started,bundle,org.eclipse.ui.views,3.5.0.I20100527-0800,"org.eclipse.ui.views",1309353877165
started,bundle,org.eclipse.ui.workbench,3.6.1.M20100826-1330,"org.eclipse.ui.workbench",1309353877178
started,bundle,org.eclipse.ui.workbench.texteditor,3.6.1.r361_v20100714-0800,"org.eclipse.ui.workbench.texteditor",1309353877213
started,bundle,org.eclipse.wst.common.project.facet.core,1.4.102.v201008170019,"org.eclipse.wst.common.project.facet.core",1309353877299
started,bundle,org.eclipse.wst.web,1.1.401.v201007151900,"org.eclipse.wst.web",1309353877311
started,bundle,com.instantiations.common.core,6.0.0.r36x201009131414,"com.instantiations.common.core",1309353877330
started,bundle,com.instantiations.designer.core,8.0.0.r36x201009160631,"com.instantiations.designer.core",1309353877330
started,bundle,com.instantiations.designer.core.databinding,8.0.0.r36x201009160631,"com.instantiations.designer.core.databinding",1309353877332
started,bundle,com.instantiations.designer.core.lib,8.0.0.r36x201009160631,"com.instantiations.designer.core.lib",1309353877379
started,bundle,com.instantiations.designer.gwt,8.0.0.r36x201009160831,"com.instantiations.designer.gwt",1309353877424
started,bundle,com.instantiations.designer.gxt.databinding,8.0.0.r36x201009160831,"com.instantiations.designer.gxt.databinding",1309353877448
started,bundle,com.instantiations.designer.rcp.databinding,8.0.0.r36x201009160649,"com.instantiations.designer.rcp.databinding",1309353877494
started,bundle,com.instantiations.designer.swing.databinding,8.0.0.r36x201009160643,"com.instantiations.designer.swing.databinding",1309353877561
started,bundle,com.instantiations.eclipse.debug,6.0.0.r36x201009131414,"com.instantiations.eclipse.debug",1309353877563
started,bundle,com.instantiations.eclipse.ui,8.0.0.r36x201009131432,"com.instantiations.eclipse.ui",1309353877596
started,bundle,com.instantiations.eclipse.util,6.0.0.r36x201009131414,"com.instantiations.eclipse.util",1309353877598
os,sysinfo,,,"win32",1309353877606
arch,sysinfo,,,"x86",1309353877606
ws,sysinfo,,,"win32",1309353877606
locale,sysinfo,,,"en_US",1309353877606
processors,sysinfo,,,"2",1309353877606
java.runtime.name,sysinfo,,,"Java(TM) SE Runtime Environment",1309353877606
java.runtime.version,sysinfo,,,"1.6.0_24-b07",1309353877606
java.specification.name,sysinfo,,,"Java Platform API Specification",1309353877606
java.specification.vendor,sysinfo,,,"Sun Microsystems Inc.",1309353877606
java.specification.version,sysinfo,,,"1.6",1309353877606
java.vendor,sysinfo,,,"Sun Microsystems Inc.",1309353877606
java.version,sysinfo,,,"1.6.0_24",1309353877606
java.vm.info,sysinfo,,,"mixed mode, sharing",1309353877606
java.vm.name,sysinfo,,,"Java HotSpot(TM) Client VM",1309353877606
java.vm.specification.name,sysinfo,,,"Java Virtual Machine Specification",1309353877606
java.vm.specification.vendor,sysinfo,,,"Sun Microsystems Inc.",1309353877606
java.vm.specification.version,sysinfo,,,"1.0",1309353877606
java.vm.vendor,sysinfo,,,"Sun Microsystems Inc.",1309353877606
java.vm.version,sysinfo,,,"19.1-b02",1309353877606
started,bundle,org.eclipse.emf.ecore,2.6.1.v20100914-1218,"org.eclipse.emf.ecore",1309353878088
started,bundle,org.eclipse.mylyn.commons.ui,3.4.0.v20100608-0100-e3x,"org.eclipse.mylyn.commons.ui",1309353878124
started,bundle,org.eclipse.mylyn.bugzilla.core,3.4.2.v20100902-0100-e3x,"org.eclipse.mylyn.bugzilla.core",1309353878437
started,bundle,org.eclipse.mylyn.bugzilla.ui,3.4.2.v20100909-0100-e3x,"org.eclipse.mylyn.bugzilla.ui",1309353878572
started,bundle,org.eclipse.emf.ecore.xmi,2.5.0.v20100521-1846,"org.eclipse.emf.ecore.xmi",1309353878838
started,bundle,org.eclipse.ui.forms,3.5.2.r36_v20100702,"org.eclipse.ui.forms",1309353878848
started,bundle,org.eclipse.mylyn.context.core,3.4.1.v20100909-0100-e3x,"org.eclipse.mylyn.context.core",1309353879037
started,bundle,org.eclipse.mylyn.context.ui,3.4.1.v20100909-0100-e3x,"org.eclipse.mylyn.context.ui",1309353879093
started,bundle,org.eclipse.update.configurator,3.3.100.v20100512,"org.eclipse.update.configurator",1309353879169
started,bundle,org.eclipse.update.core,3.2.402.R36x_v20100629,"org.eclipse.update.core",1309353879252
started,bundle,org.eclipse.mylyn.tasks.ui,3.4.2.v20100902-0100-e3x,"org.eclipse.mylyn.tasks.ui",1309353880135
started,bundle,org.eclipse.jst.common.project.facet.core,1.4.102.v201008182136,"org.eclipse.jst.common.project.facet.core",1309353880161
started,bundle,org.eclipse.mylyn.team.ui,3.4.2.v20100909-0100-e3x,"org.eclipse.mylyn.team.ui",1309353880170
started,bundle,org.eclipse.jst.ws.jaxrs.core,1.0.200.v201008201800,"org.eclipse.jst.ws.jaxrs.core",1309353880187
started,bundle,org.eclipse.update.scheduler,3.2.300.v20100512,"org.eclipse.update.scheduler",1309353880211
started,bundle,com.instantiations.designer.rcp,8.0.0.r36x201009160649,"com.instantiations.designer.rcp",1309353880665
started,bundle,com.instantiations.designer.swt,8.0.0.r36x201009160641,"com.instantiations.designer.swt",1309353880744
started,bundle,com.instantiations.designer.swing,8.0.0.r36x201009160643,"com.instantiations.designer.swing",1309353881249
started,bundle,com.instantiations.designer.core.xml,8.0.0.r36x201009160634,"com.instantiations.designer.core.xml",1309353882226
started,bundle,com.instantiations.designer.gwt.ExtGWT,8.0.0.r36x201009160831,"com.instantiations.designer.gwt.ExtGWT",1309353882368
started,bundle,com.instantiations.designer.gwt.SmartGWT,8.0.0.r36x201009160831,"com.instantiations.designer.gwt.SmartGWT",1309353882424
started,bundle,com.instantiations.designer.gwt.UiBinder,8.0.0.r36x201009160831,"com.instantiations.designer.gwt.UiBinder",1309353882480
started,bundle,com.instantiations.eclipse.startup,6.0.0.r36x201009131414,"com.instantiations.eclipse.startup",1309353882765
started,bundle,com.instantiations.eclipse.usageprofiler,6.0.0.r36x201009131414,"com.instantiations.eclipse.usageprofiler",1309353882946
started,bundle,com.instantiations.eclipse.usageprofiler.ui,6.0.0.r36x201009131414,"com.instantiations.eclipse.usageprofiler.ui",1309353884616
started,bundle,com.instantiations.j2ee,8.0.0.r36x201009140724,"com.instantiations.j2ee",1309353884777
started,bundle,org.eclipse.jsch.core,1.1.200.I20100505-1245,"org.eclipse.jsch.core",1309353884797
started,bundle,org.eclipse.team.cvs.core,3.3.300.I20100526-0800,"org.eclipse.team.cvs.core",1309353884828
started,bundle,org.eclipse.team.ui,3.5.101.R36x_v20100825-0800,"org.eclipse.team.ui",1309353885170
started,bundle,org.eclipse.ui.console,3.5.0.v20100526,"org.eclipse.ui.console",1309353885240
