what,kind,bundleId,bundleVersion,description,time
started,bundle,org.eclipse.wst.common.emfworkbench.integration,1.2.2.v201008242000,"org.eclipse.wst.common.emfworkbench.integration",1309442833843
started,bundle,org.eclipse.wst.common.core,1.2.0.v200908252030,"org.eclipse.wst.common.core",1309442833879
started,bundle,org.eclipse.wst.common.modulecore,1.2.3.v201008242000,"org.eclipse.wst.common.modulecore",1309442833885
started,bundle,org.eclipse.jst.j2ee.core,1.2.2.v201008120100,"org.eclipse.jst.j2ee.core",1309442833894
started,bundle,org.eclipse.jem,2.0.400.v201005110200,"org.eclipse.jem",1309442833915
started,bundle,org.eclipse.wst.common.frameworks.ui,1.2.0.v201004080500,"org.eclipse.wst.common.frameworks.ui",1309442833949
started,bundle,org.eclipse.wst.xml.core,1.1.502.v201009010342,"org.eclipse.wst.xml.core",1309442833954
started,bundle,org.eclipse.wst.validation,1.2.200.v201005271900,"org.eclipse.wst.validation",1309442833971
started,bundle,org.eclipse.jst.j2ee,1.1.402.v201009151730,"org.eclipse.jst.j2ee",1309442834007
started,bundle,org.eclipse.wst.jsdt.manipulation,1.0.200.v201004150600,"org.eclipse.wst.jsdt.manipulation",1309442834289
started,bundle,org.eclipse.wst.jsdt.core,1.1.2.v201009011528,"org.eclipse.wst.jsdt.core",1309442835247
started,bundle,org.eclipse.wst.jsdt.ui,1.1.2.v201009010353,"org.eclipse.wst.jsdt.ui",1309442835463
closed,editor,com.instantiations.designer.core,8.0.0.r36x201009160631,"com.instantiations.designer.core.guiEditor",1309442835886
activated,workbench,org.eclipse.ui.workbench,3.6.1.M20100826-1330,"",1309442836008
executed,command,org.eclipse.ui,3.6.1.M20100826-1330,"org.eclipse.ui.edit.delete",1309442836053
deactivated,workbench,org.eclipse.ui.workbench,3.6.1.M20100826-1330,"",1309442856924
activated,workbench,org.eclipse.ui.workbench,3.6.1.M20100826-1330,"",1309442866837
executed,command,org.eclipse.ui,3.6.1.M20100826-1330,"org.eclipse.ui.newWizard",1309442866865
deactivated,workbench,org.eclipse.ui.workbench,3.6.1.M20100826-1330,"",1309442872015
activated,workbench,org.eclipse.ui.workbench,3.6.1.M20100826-1330,"",1309442895869
executed,command,org.eclipse.ui,3.6.1.M20100826-1330,"org.eclipse.ui.newWizard",1309442895891
deactivated,workbench,org.eclipse.ui.workbench,3.6.1.M20100826-1330,"",1309442904413
activated,workbench,org.eclipse.ui.workbench,3.6.1.M20100826-1330,"",1309442924813
executed,command,org.eclipse.ui,3.6.1.M20100826-1330,"org.eclipse.ui.newWizard",1309442924857
deactivated,workbench,org.eclipse.ui.workbench,3.6.1.M20100826-1330,"",1309442928033
activated,workbench,org.eclipse.ui.workbench,3.6.1.M20100826-1330,"",1309442929679
deactivated,workbench,org.eclipse.ui.workbench,3.6.1.M20100826-1330,"",1309442938823
activated,workbench,org.eclipse.ui.workbench,3.6.1.M20100826-1330,"",1309442940239
executed,command,org.eclipse.ui,3.6.1.M20100826-1330,"org.eclipse.ui.edit.delete",1309442940253
deactivated,workbench,org.eclipse.ui.workbench,3.6.1.M20100826-1330,"",1309442945223
activated,workbench,org.eclipse.ui.workbench,3.6.1.M20100826-1330,"",1309442965689
executed,command,org.eclipse.ui,3.6.1.M20100826-1330,"org.eclipse.ui.newWizard",1309442965705
deactivated,workbench,org.eclipse.ui.workbench,3.6.1.M20100826-1330,"",1309442978029
activated,workbench,org.eclipse.ui.workbench,3.6.1.M20100826-1330,"",1309442990110
executed,command,org.eclipse.ui,3.6.1.M20100826-1330,"org.eclipse.ui.newWizard",1309442990123
deactivated,workbench,org.eclipse.ui.workbench,3.6.1.M20100826-1330,"",1309443003016
activated,workbench,org.eclipse.ui.workbench,3.6.1.M20100826-1330,"",1309443013571
executed,command,org.eclipse.ui,3.6.1.M20100826-1330,"org.eclipse.ui.newWizard",1309443013586
deactivated,workbench,org.eclipse.ui.workbench,3.6.1.M20100826-1330,"",1309443020114
activated,workbench,org.eclipse.ui.workbench,3.6.1.M20100826-1330,"",1309443028822
executed,command,org.eclipse.ui,3.6.1.M20100826-1330,"org.eclipse.ui.newWizard",1309443028842
activated,editor,org.eclipse.pde.ui,3.6.1.v20100810_r361,"org.eclipse.pde.ui.manifestEditor",1309443044136
opened,editor,org.eclipse.jdt.ui,3.6.1.r361_v20100825-0800,"org.eclipse.jdt.ui.CompilationUnitEditor",1309443045447
activated,editor,org.eclipse.jdt.ui,3.6.1.r361_v20100825-0800,"org.eclipse.jdt.ui.CompilationUnitEditor",1309443045620
started,bundle,org.eclipse.jdt.junit,3.6.1.r361_v20100825-0800,"org.eclipse.jdt.junit",1309443045686
opened,editor,com.instantiations.designer.core,8.0.0.r36x201009160631,"com.instantiations.designer.core.guiEditor",1309443047481
activated,editor,com.instantiations.designer.core,8.0.0.r36x201009160631,"com.instantiations.designer.core.guiEditor",1309443047618
opened,editor,org.eclipse.jdt.ui,3.6.1.r361_v20100825-0800,"org.eclipse.jdt.ui.CompilationUnitEditor",1309443049448
activated,editor,org.eclipse.jdt.ui,3.6.1.r361_v20100825-0800,"org.eclipse.jdt.ui.CompilationUnitEditor",1309443049570
activated,editor,org.eclipse.pde.ui,3.6.1.v20100810_r361,"org.eclipse.pde.ui.manifestEditor",1309443053188
deactivated,workbench,org.eclipse.ui.workbench,3.6.1.M20100826-1330,"",1309443067553
opened,editor,com.instantiations.designer.core,8.0.0.r36x201009160631,"com.instantiations.designer.core.guiEditor",1309443122955
activated,editor,com.instantiations.designer.core,8.0.0.r36x201009160631,"com.instantiations.designer.core.guiEditor",1309443123003
activated,workbench,org.eclipse.ui.workbench,3.6.1.M20100826-1330,"",1309443123058
deactivated,workbench,org.eclipse.ui.workbench,3.6.1.M20100826-1330,"",1309443129141
activated,workbench,org.eclipse.ui.workbench,3.6.1.M20100826-1330,"",1309443130278
started,bundle,com.instantiations.designer.swing.ams,8.0.0.r36x201009160643,"com.instantiations.designer.swing.ams",1309443135497
started,bundle,org.eclipse.swt.widgets.baseline,1.1.0,"org.eclipse.swt.widgets.baseline",1309443140026
deactivated,workbench,org.eclipse.ui.workbench,3.6.1.M20100826-1330,"",1309443159865
activated,workbench,org.eclipse.ui.workbench,3.6.1.M20100826-1330,"",1309443159926
activated,editor,org.eclipse.pde.ui,3.6.1.v20100810_r361,"org.eclipse.pde.ui.manifestEditor",1309443161067
deactivated,workbench,org.eclipse.ui.workbench,3.6.1.M20100826-1330,"",1309443238114
activated,workbench,org.eclipse.ui.workbench,3.6.1.M20100826-1330,"",1309443443695
deactivated,workbench,org.eclipse.ui.workbench,3.6.1.M20100826-1330,"",1309443475646
activated,workbench,org.eclipse.ui.workbench,3.6.1.M20100826-1330,"",1309443480930
executed,command,org.eclipse.ui,3.6.1.M20100826-1330,"org.eclipse.ui.file.save",1309443489277
deactivated,workbench,org.eclipse.ui.workbench,3.6.1.M20100826-1330,"",1309443550189
activated,workbench,org.eclipse.ui.workbench,3.6.1.M20100826-1330,"",1309443554554
executed,command,org.eclipse.ui,3.6.1.M20100826-1330,"org.eclipse.ui.edit.copy",1309443580483
executed,command,org.eclipse.ui,3.6.1.M20100826-1330,"org.eclipse.ui.edit.copy",1309443580771
executed,command,org.eclipse.ui,3.6.1.M20100826-1330,"org.eclipse.ui.edit.copy",1309443580989
executed,command,org.eclipse.ui,3.6.1.M20100826-1330,"org.eclipse.ui.edit.copy",1309443581164
executed,command,org.eclipse.ui,3.6.1.M20100826-1330,"org.eclipse.ui.edit.paste",1309443583832
executed,command,org.eclipse.ui,3.6.1.M20100826-1330,"org.eclipse.ui.file.save",1309443587718
deactivated,workbench,org.eclipse.ui.workbench,3.6.1.M20100826-1330,"",1309443592937
activated,workbench,org.eclipse.ui.workbench,3.6.1.M20100826-1330,"",1309443597443
deactivated,workbench,org.eclipse.ui.workbench,3.6.1.M20100826-1330,"",1309443598873
activated,workbench,org.eclipse.ui.workbench,3.6.1.M20100826-1330,"",1309443601099
opened,editor,org.eclipse.jdt.ui,3.6.1.r361_v20100825-0800,"org.eclipse.jdt.ui.ClassFileEditor",1309443622193
activated,editor,org.eclipse.jdt.ui,3.6.1.r361_v20100825-0800,"org.eclipse.jdt.ui.ClassFileEditor",1309443622301
activated,editor,org.eclipse.pde.ui,3.6.1.v20100810_r361,"org.eclipse.pde.ui.manifestEditor",1309443624418
closed,editor,org.eclipse.jdt.ui,3.6.1.r361_v20100825-0800,"org.eclipse.jdt.ui.ClassFileEditor",1309443624419
activated,view,org.eclipse.jdt.ui,3.6.1.r361_v20100825-0800,"org.eclipse.jdt.ui.PackageExplorer",1309443628609
opened,editor,org.eclipse.jdt.ui,3.6.1.r361_v20100825-0800,"org.eclipse.jdt.ui.CompilationUnitEditor",1309443639445
activated,editor,org.eclipse.jdt.ui,3.6.1.r361_v20100825-0800,"org.eclipse.jdt.ui.CompilationUnitEditor",1309443639557
executed,command,org.eclipse.ui,3.6.1.M20100826-1330,"org.eclipse.ui.edit.copy",1309443647531
started,bundle,org.eclipse.mylyn.java.tasks,3.4.0.v20100608-0100-e3x,"org.eclipse.mylyn.java.tasks",1309443647683
executed,command,org.eclipse.ui,3.6.1.M20100826-1330,"org.eclipse.ui.edit.paste",1309443650751
deactivated,workbench,org.eclipse.ui.workbench,3.6.1.M20100826-1330,"",1309443654959
activated,workbench,org.eclipse.ui.workbench,3.6.1.M20100826-1330,"",1309443657087
deactivated,workbench,org.eclipse.ui.workbench,3.6.1.M20100826-1330,"",1309443659296
activated,workbench,org.eclipse.ui.workbench,3.6.1.M20100826-1330,"",1309443663983
activated,editor,org.eclipse.pde.ui,3.6.1.v20100810_r361,"org.eclipse.pde.ui.manifestEditor",1309443665819
executed,command,org.eclipse.ui,3.6.1.M20100826-1330,"org.eclipse.ui.file.save",1309443687634
executed,command,org.eclipse.ui,3.6.1.M20100826-1330,"org.eclipse.ui.edit.copy",1309443691832
executed,command,org.eclipse.ui,3.6.1.M20100826-1330,"org.eclipse.ui.edit.copy",1309443692042
executed,command,org.eclipse.ui,3.6.1.M20100826-1330,"org.eclipse.ui.edit.copy",1309443692217
executed,command,org.eclipse.ui,3.6.1.M20100826-1330,"org.eclipse.ui.edit.copy",1309443692396
deactivated,workbench,org.eclipse.ui.workbench,3.6.1.M20100826-1330,"",1309443694557
activated,workbench,org.eclipse.ui.workbench,3.6.1.M20100826-1330,"",1309443694710
deactivated,workbench,org.eclipse.ui.workbench,3.6.1.M20100826-1330,"",1309443695919
activated,workbench,org.eclipse.ui.workbench,3.6.1.M20100826-1330,"",1309443701146
activated,editor,org.eclipse.jdt.ui,3.6.1.r361_v20100825-0800,"org.eclipse.jdt.ui.CompilationUnitEditor",1309443703744
executed,command,org.eclipse.ui,3.6.1.M20100826-1330,"org.eclipse.ui.edit.copy",1309443709222
executed,command,org.eclipse.ui,3.6.1.M20100826-1330,"org.eclipse.ui.edit.paste",1309443711787
executed,command,org.eclipse.ui,3.6.1.M20100826-1330,"org.eclipse.ui.edit.paste",1309443714251
executed,command,org.eclipse.ui,3.6.1.M20100826-1330,"org.eclipse.ui.edit.undo",1309443716549
deactivated,workbench,org.eclipse.ui.workbench,3.6.1.M20100826-1330,"",1309443718702
activated,workbench,org.eclipse.ui.workbench,3.6.1.M20100826-1330,"",1309443720698
activated,editor,org.eclipse.pde.ui,3.6.1.v20100810_r361,"org.eclipse.pde.ui.manifestEditor",1309443722403
executed,command,org.eclipse.ui,3.6.1.M20100826-1330,"org.eclipse.ui.edit.copy",1309443725312
executed,command,org.eclipse.ui,3.6.1.M20100826-1330,"org.eclipse.ui.edit.copy",1309443725524
executed,command,org.eclipse.ui,3.6.1.M20100826-1330,"org.eclipse.ui.edit.copy",1309443725701
executed,command,org.eclipse.ui,3.6.1.M20100826-1330,"org.eclipse.ui.edit.copy",1309443725876
deactivated,workbench,org.eclipse.ui.workbench,3.6.1.M20100826-1330,"",1309443728749
activated,workbench,org.eclipse.ui.workbench,3.6.1.M20100826-1330,"",1309443732754
activated,editor,org.eclipse.jdt.ui,3.6.1.r361_v20100825-0800,"org.eclipse.jdt.ui.CompilationUnitEditor",1309443734979
executed,command,org.eclipse.ui,3.6.1.M20100826-1330,"org.eclipse.ui.edit.paste",1309443736626
deactivated,workbench,org.eclipse.ui.workbench,3.6.1.M20100826-1330,"",1309443742415
activated,workbench,org.eclipse.ui.workbench,3.6.1.M20100826-1330,"",1309443745574
activated,editor,org.eclipse.pde.ui,3.6.1.v20100810_r361,"org.eclipse.pde.ui.manifestEditor",1309443745860
executed,command,org.eclipse.ui,3.6.1.M20100826-1330,"org.eclipse.ui.edit.copy",1309443753480
executed,command,org.eclipse.ui,3.6.1.M20100826-1330,"org.eclipse.ui.edit.copy",1309443753693
executed,command,org.eclipse.ui,3.6.1.M20100826-1330,"org.eclipse.ui.edit.copy",1309443753903
executed,command,org.eclipse.ui,3.6.1.M20100826-1330,"org.eclipse.ui.edit.copy",1309443754080
executed,command,org.eclipse.ui,3.6.1.M20100826-1330,"org.eclipse.ui.edit.copy",1309443754293
executed,command,org.eclipse.ui,3.6.1.M20100826-1330,"org.eclipse.ui.edit.copy",1309443754466
deactivated,workbench,org.eclipse.ui.workbench,3.6.1.M20100826-1330,"",1309443758774
activated,workbench,org.eclipse.ui.workbench,3.6.1.M20100826-1330,"",1309443758924
activated,editor,org.eclipse.jdt.ui,3.6.1.r361_v20100825-0800,"org.eclipse.jdt.ui.CompilationUnitEditor",1309443761617
executed,command,org.eclipse.ui,3.6.1.M20100826-1330,"org.eclipse.ui.edit.paste",1309443763952
executed,command,org.eclipse.ui,3.6.1.M20100826-1330,"org.eclipse.ui.file.save",1309443765697
started,bundle,org.eclipse.wst.server.core,1.1.204.v20100908,"org.eclipse.wst.server.core",1309443775208
started,bundle,org.eclipse.wst.server.ui,1.1.205.v20100908,"org.eclipse.wst.server.ui",1309443775250
started,bundle,org.eclipse.jst.server.core,1.2.101.v20100421,"org.eclipse.jst.server.core",1309443775331
started,bundle,org.eclipse.jst.jee,1.0.301.v201007151900,"org.eclipse.jst.jee",1309443775339
started,bundle,org.eclipse.wst.jsdt.debug.ui,1.0.1.v201008170101,"org.eclipse.wst.jsdt.debug.ui",1309443775351
opened,view,org.eclipse.ui.console,3.5.0.v20100526,"org.eclipse.ui.console.ConsoleView",1309443780058
activated,view,org.eclipse.ui.console,3.5.0.v20100526,"org.eclipse.ui.console.ConsoleView",1309443780130
deactivated,workbench,org.eclipse.ui.workbench,3.6.1.M20100826-1330,"",1309443780722
started,bundle,org.eclipse.wst.xsl.debug.ui,1.0.100.v201004290328,"org.eclipse.wst.xsl.debug.ui",1309444058589
activated,workbench,org.eclipse.ui.workbench,3.6.1.M20100826-1330,"",1309444246358
activated,editor,org.eclipse.jdt.ui,3.6.1.r361_v20100825-0800,"org.eclipse.jdt.ui.CompilationUnitEditor",1309444251970
activated,editor,com.instantiations.designer.core,8.0.0.r36x201009160631,"com.instantiations.designer.core.guiEditor",1309444265838
executed,command,org.eclipse.ui,3.6.1.M20100826-1330,"org.eclipse.ui.edit.delete",1309444269485
deactivated,workbench,org.eclipse.ui.workbench,3.6.1.M20100826-1330,"",1309444303530
activated,workbench,org.eclipse.ui.workbench,3.6.1.M20100826-1330,"",1309444434035
deactivated,workbench,org.eclipse.ui.workbench,3.6.1.M20100826-1330,"",1309444480197
activated,workbench,org.eclipse.ui.workbench,3.6.1.M20100826-1330,"",1309444480249
executed,command,org.eclipse.ui,3.6.1.M20100826-1330,"org.eclipse.ui.edit.copy",1309444515344
executed,command,org.eclipse.ui,3.6.1.M20100826-1330,"org.eclipse.ui.edit.paste",1309444516090
executed,command,org.eclipse.ui,3.6.1.M20100826-1330,"org.eclipse.ui.edit.paste",1309444520857
executed,command,org.eclipse.ui,3.6.1.M20100826-1330,"org.eclipse.ui.edit.paste",1309444526895
executed,command,org.eclipse.ui,3.6.1.M20100826-1330,"org.eclipse.ui.file.save",1309444691525
executed,command,org.eclipse.ui,3.6.1.M20100826-1330,"org.eclipse.ui.edit.copy",1309444804757
executed,command,org.eclipse.ui,3.6.1.M20100826-1330,"org.eclipse.ui.edit.paste",1309444805935
executed,command,org.eclipse.ui,3.6.1.M20100826-1330,"org.eclipse.ui.edit.undo",1309444808389
deactivated,workbench,org.eclipse.ui.workbench,3.6.1.M20100826-1330,"",1309444808489
activated,workbench,org.eclipse.ui.workbench,3.6.1.M20100826-1330,"",1309444809067
executed,command,org.eclipse.ui,3.6.1.M20100826-1330,"org.eclipse.ui.edit.copy",1309444815963
executed,command,org.eclipse.ui,3.6.1.M20100826-1330,"org.eclipse.ui.edit.paste",1309444816915
executed,command,org.eclipse.ui,3.6.1.M20100826-1330,"org.eclipse.ui.edit.copy",1309444883895
executed,command,org.eclipse.ui,3.6.1.M20100826-1330,"org.eclipse.ui.edit.paste",1309444884780
executed,command,org.eclipse.ui,3.6.1.M20100826-1330,"org.eclipse.ui.edit.paste",1309444908815
executed,command,org.eclipse.ui,3.6.1.M20100826-1330,"org.eclipse.ui.edit.paste",1309444916186
deactivated,workbench,org.eclipse.ui.workbench,3.6.1.M20100826-1330,"",1309444924930
activated,workbench,org.eclipse.ui.workbench,3.6.1.M20100826-1330,"",1309444933099
deactivated,workbench,org.eclipse.ui.workbench,3.6.1.M20100826-1330,"",1309444943455
activated,workbench,org.eclipse.ui.workbench,3.6.1.M20100826-1330,"",1309444994741
executed,command,org.eclipse.ui,3.6.1.M20100826-1330,"org.eclipse.ui.edit.copy",1309445004853
executed,command,org.eclipse.ui,3.6.1.M20100826-1330,"org.eclipse.ui.edit.paste",1309445005587
deactivated,workbench,org.eclipse.ui.workbench,3.6.1.M20100826-1330,"",1309445061359
activated,workbench,org.eclipse.ui.workbench,3.6.1.M20100826-1330,"",1309445069192
executed,command,org.eclipse.ui,3.6.1.M20100826-1330,"org.eclipse.ui.edit.copy",1309445139552
executed,command,org.eclipse.ui,3.6.1.M20100826-1330,"org.eclipse.ui.edit.paste",1309445140639
executed,command,org.eclipse.ui,3.6.1.M20100826-1330,"org.eclipse.ui.edit.paste",1309445148687
executed,command,org.eclipse.ui,3.6.1.M20100826-1330,"org.eclipse.ui.edit.paste",1309445153968
deactivated,workbench,org.eclipse.ui.workbench,3.6.1.M20100826-1330,"",1309445158622
activated,workbench,org.eclipse.ui.workbench,3.6.1.M20100826-1330,"",1309445172018
deactivated,workbench,org.eclipse.ui.workbench,3.6.1.M20100826-1330,"",1309445180453
activated,workbench,org.eclipse.ui.workbench,3.6.1.M20100826-1330,"",1309445192813
deactivated,workbench,org.eclipse.ui.workbench,3.6.1.M20100826-1330,"",1309445192956
activated,workbench,org.eclipse.ui.workbench,3.6.1.M20100826-1330,"",1309445196162
deactivated,workbench,org.eclipse.ui.workbench,3.6.1.M20100826-1330,"",1309445216893
activated,workbench,org.eclipse.ui.workbench,3.6.1.M20100826-1330,"",1309445246311
deactivated,workbench,org.eclipse.ui.workbench,3.6.1.M20100826-1330,"",1309445268637
activated,workbench,org.eclipse.ui.workbench,3.6.1.M20100826-1330,"",1309445276359
deactivated,workbench,org.eclipse.ui.workbench,3.6.1.M20100826-1330,"",1309445330003
activated,workbench,org.eclipse.ui.workbench,3.6.1.M20100826-1330,"",1309445332693
no handler,command,org.eclipse.ui,3.6.1.M20100826-1330,"org.eclipse.ui.edit.undo",1309445336503
no handler,command,org.eclipse.ui,3.6.1.M20100826-1330,"org.eclipse.ui.edit.undo",1309445394589
executed,command,org.eclipse.ui,3.6.1.M20100826-1330,"org.eclipse.ui.edit.delete",1309445525107
executed,command,org.eclipse.ui,3.6.1.M20100826-1330,"org.eclipse.ui.edit.delete",1309445527005
executed,command,org.eclipse.ui,3.6.1.M20100826-1330,"org.eclipse.ui.edit.delete",1309445595527
executed,command,org.eclipse.ui,3.6.1.M20100826-1330,"org.eclipse.ui.edit.copy",1309445633483
executed,command,org.eclipse.ui,3.6.1.M20100826-1330,"org.eclipse.ui.edit.paste",1309445634389
deactivated,workbench,org.eclipse.ui.workbench,3.6.1.M20100826-1330,"",1309445648357
activated,workbench,org.eclipse.ui.workbench,3.6.1.M20100826-1330,"",1309445671277
deactivated,workbench,org.eclipse.ui.workbench,3.6.1.M20100826-1330,"",1309445680583
activated,workbench,org.eclipse.ui.workbench,3.6.1.M20100826-1330,"",1309445707788
deactivated,workbench,org.eclipse.ui.workbench,3.6.1.M20100826-1330,"",1309445712413
activated,workbench,org.eclipse.ui.workbench,3.6.1.M20100826-1330,"",1309445716508
deactivated,workbench,org.eclipse.ui.workbench,3.6.1.M20100826-1330,"",1309445718023
activated,workbench,org.eclipse.ui.workbench,3.6.1.M20100826-1330,"",1309445724790
activated,view,org.eclipse.ui.console,3.5.0.v20100526,"org.eclipse.ui.console.ConsoleView",1309445729728
deactivated,workbench,org.eclipse.ui.workbench,3.6.1.M20100826-1330,"",1309445730232
activated,workbench,org.eclipse.ui.workbench,3.6.1.M20100826-1330,"",1309445753002
activated,editor,com.instantiations.designer.core,8.0.0.r36x201009160631,"com.instantiations.designer.core.guiEditor",1309445754557
deactivated,workbench,org.eclipse.ui.workbench,3.6.1.M20100826-1330,"",1309445821527
activated,workbench,org.eclipse.ui.workbench,3.6.1.M20100826-1330,"",1309445831763
deactivated,workbench,org.eclipse.ui.workbench,3.6.1.M20100826-1330,"",1309445836817
activated,workbench,org.eclipse.ui.workbench,3.6.1.M20100826-1330,"",1309445841850
deactivated,workbench,org.eclipse.ui.workbench,3.6.1.M20100826-1330,"",1309445877434
activated,workbench,org.eclipse.ui.workbench,3.6.1.M20100826-1330,"",1309445939248
deactivated,workbench,org.eclipse.ui.workbench,3.6.1.M20100826-1330,"",1309445954454
activated,workbench,org.eclipse.ui.workbench,3.6.1.M20100826-1330,"",1309446128116
deactivated,workbench,org.eclipse.ui.workbench,3.6.1.M20100826-1330,"",1309446136218
activated,workbench,org.eclipse.ui.workbench,3.6.1.M20100826-1330,"",1309446137235
started,bundle,org.eclipse.mylyn.ide.ui,3.4.0.v20100608-0100-e3x,"org.eclipse.mylyn.ide.ui",1309446183685
started,bundle,org.eclipse.jst.ws.jaxws.ui,1.0.1.v201008232129,"org.eclipse.jst.ws.jaxws.ui",1309446183728
started,bundle,org.eclipse.mylyn.java.ui,3.4.0.v20100608-0100-e3x,"org.eclipse.mylyn.java.ui",1309446183753
started,bundle,org.eclipse.pde.api.tools,1.0.202.v20100820_r361,"org.eclipse.pde.api.tools",1309446183931
started,bundle,org.eclipse.pde.api.tools.ui,1.0.201.v20100820_r361,"org.eclipse.pde.api.tools.ui",1309446183946
executed,command,org.eclipse.ui,3.6.1.M20100826-1330,"org.eclipse.ui.edit.text.contentAssist.proposals",1309446184366
executed,command,org.eclipse.ui.workbench.texteditor,3.6.1.r361_v20100714-0800,"org.eclipse.ui.edit.text.goto.lineEnd",1309446198982
executed,command,org.eclipse.ui.workbench.texteditor,3.6.1.r361_v20100714-0800,"org.eclipse.ui.edit.text.goto.lineEnd",1309446201640
executed,command,org.eclipse.ui,3.6.1.M20100826-1330,"org.eclipse.ui.edit.text.contentAssist.proposals",1309446209273
executed,command,org.eclipse.ui.workbench.texteditor,3.6.1.r361_v20100714-0800,"org.eclipse.ui.edit.text.goto.lineEnd",1309446218822
executed,command,org.eclipse.ui.workbench.texteditor,3.6.1.r361_v20100714-0800,"org.eclipse.ui.edit.text.goto.lineEnd",1309446220869
executed,command,org.eclipse.ui,3.6.1.M20100826-1330,"org.eclipse.ui.edit.text.contentAssist.proposals",1309446225480
executed,command,org.eclipse.ui.workbench.texteditor,3.6.1.r361_v20100714-0800,"org.eclipse.ui.edit.text.goto.lineEnd",1309446231878
executed,command,org.eclipse.ui,3.6.1.M20100826-1330,"org.eclipse.ui.file.save",1309446238983
activated,view,org.eclipse.ui.console,3.5.0.v20100526,"org.eclipse.ui.console.ConsoleView",1309446244821
deactivated,workbench,org.eclipse.ui.workbench,3.6.1.M20100826-1330,"",1309446245346
activated,workbench,org.eclipse.ui.workbench,3.6.1.M20100826-1330,"",1309446256154
activated,editor,com.instantiations.designer.core,8.0.0.r36x201009160631,"com.instantiations.designer.core.guiEditor",1309446257887
executed,command,org.eclipse.ui,3.6.1.M20100826-1330,"org.eclipse.ui.edit.delete",1309446261226
executed,command,org.eclipse.ui,3.6.1.M20100826-1330,"org.eclipse.ui.file.save",1309446262780
deactivated,workbench,org.eclipse.ui.workbench,3.6.1.M20100826-1330,"",1309446264080
activated,workbench,org.eclipse.ui.workbench,3.6.1.M20100826-1330,"",1309446265042
deactivated,workbench,org.eclipse.ui.workbench,3.6.1.M20100826-1330,"",1309446278025
activated,workbench,org.eclipse.ui.workbench,3.6.1.M20100826-1330,"",1309446286906
deactivated,workbench,org.eclipse.ui.workbench,3.6.1.M20100826-1330,"",1309446288605
activated,workbench,org.eclipse.ui.workbench,3.6.1.M20100826-1330,"",1309446304260
executed,command,org.eclipse.jdt.ui,3.6.1.r361_v20100825-0800,"org.eclipse.jdt.ui.edit.text.java.toggle.comment",1309446312567
executed,command,org.eclipse.ui,3.6.1.M20100826-1330,"org.eclipse.ui.file.save",1309446314135
activated,view,org.eclipse.ui.console,3.5.0.v20100526,"org.eclipse.ui.console.ConsoleView",1309446319525
deactivated,workbench,org.eclipse.ui.workbench,3.6.1.M20100826-1330,"",1309446320008
activated,workbench,org.eclipse.ui.workbench,3.6.1.M20100826-1330,"",1309446330598
activated,editor,com.instantiations.designer.core,8.0.0.r36x201009160631,"com.instantiations.designer.core.guiEditor",1309446332128
deactivated,workbench,org.eclipse.ui.workbench,3.6.1.M20100826-1330,"",1309446336123
activated,workbench,org.eclipse.ui.workbench,3.6.1.M20100826-1330,"",1309446337074
deactivated,workbench,org.eclipse.ui.workbench,3.6.1.M20100826-1330,"",1309446340208
activated,workbench,org.eclipse.ui.workbench,3.6.1.M20100826-1330,"",1309446347133
executed,command,org.eclipse.ui,3.6.1.M20100826-1330,"org.eclipse.ui.file.save",1309446352428
activated,view,org.eclipse.ui.console,3.5.0.v20100526,"org.eclipse.ui.console.ConsoleView",1309446360256
deactivated,workbench,org.eclipse.ui.workbench,3.6.1.M20100826-1330,"",1309446360805
activated,workbench,org.eclipse.ui.workbench,3.6.1.M20100826-1330,"",1309446366172
activated,editor,com.instantiations.designer.core,8.0.0.r36x201009160631,"com.instantiations.designer.core.guiEditor",1309446367630
executed,command,org.eclipse.ui,3.6.1.M20100826-1330,"org.eclipse.ui.edit.text.contentAssist.proposals",1309446382140
executed,command,org.eclipse.ui,3.6.1.M20100826-1330,"org.eclipse.ui.edit.text.contentAssist.proposals",1309446393350
executed,command,org.eclipse.ui.workbench.texteditor,3.6.1.r361_v20100714-0800,"org.eclipse.ui.edit.text.goto.lineEnd",1309446423709
executed,command,org.eclipse.ui.workbench.texteditor,3.6.1.r361_v20100714-0800,"org.eclipse.ui.edit.text.goto.lineEnd",1309446425988
executed,command,org.eclipse.ui,3.6.1.M20100826-1330,"org.eclipse.ui.file.save",1309446429508
executed,command,org.eclipse.ui,3.6.1.M20100826-1330,"org.eclipse.ui.file.save",1309446432601
deactivated,workbench,org.eclipse.ui.workbench,3.6.1.M20100826-1330,"",1309446434031
activated,workbench,org.eclipse.ui.workbench,3.6.1.M20100826-1330,"",1309446434978
activated,view,org.eclipse.ui.console,3.5.0.v20100526,"org.eclipse.ui.console.ConsoleView",1309446437209
deactivated,workbench,org.eclipse.ui.workbench,3.6.1.M20100826-1330,"",1309446437720
activated,workbench,org.eclipse.ui.workbench,3.6.1.M20100826-1330,"",1309446448225
activated,editor,com.instantiations.designer.core,8.0.0.r36x201009160631,"com.instantiations.designer.core.guiEditor",1309446450520
activated,editor,com.instantiations.designer.core,8.0.0.r36x201009160631,"com.instantiations.designer.core.guiEditor",1309446454660
deactivated,workbench,org.eclipse.ui.workbench,3.6.1.M20100826-1330,"",1309446462709
executed,command,org.eclipse.ui,3.6.1.M20100826-1330,"org.eclipse.ui.edit.findReplace",1309446462744
activated,workbench,org.eclipse.ui.workbench,3.6.1.M20100826-1330,"",1309446478770
