what,kind,bundleId,bundleVersion,description,time
activated,editor,com.instantiations.designer.core,8.0.0.r36x201009160631,"com.instantiations.designer.core.guiEditor",1309264923307
opened,editor,org.eclipse.jdt.ui,3.6.1.r361_v20100825-0800,"org.eclipse.jdt.ui.CompilationUnitEditor",1309264927181
activated,editor,org.eclipse.jdt.ui,3.6.1.r361_v20100825-0800,"org.eclipse.jdt.ui.CompilationUnitEditor",1309264927287
executed,command,org.eclipse.ui,3.6.1.M20100826-1330,"org.eclipse.ui.edit.copy",1309264943145
executed,command,org.eclipse.ui,3.6.1.M20100826-1330,"org.eclipse.ui.edit.copy",1309264943437
executed,command,org.eclipse.ui,3.6.1.M20100826-1330,"org.eclipse.ui.edit.copy",1309264943655
activated,editor,org.eclipse.jdt.ui,3.6.1.r361_v20100825-0800,"org.eclipse.jdt.ui.CompilationUnitEditor",1309264945046
executed,command,org.eclipse.ui,3.6.1.M20100826-1330,"org.eclipse.ui.edit.paste",1309264951197
activated,editor,com.instantiations.designer.core,8.0.0.r36x201009160631,"com.instantiations.designer.core.guiEditor",1309264956894
executed,command,org.eclipse.ui,3.6.1.M20100826-1330,"org.eclipse.ui.edit.copy",1309264959788
activated,editor,org.eclipse.jdt.ui,3.6.1.r361_v20100825-0800,"org.eclipse.jdt.ui.CompilationUnitEditor",1309264961764
executed,command,org.eclipse.ui,3.6.1.M20100826-1330,"org.eclipse.ui.edit.paste",1309264963769
deactivated,workbench,org.eclipse.ui.workbench,3.6.1.M20100826-1330,"",1309264970929
activated,workbench,org.eclipse.ui.workbench,3.6.1.M20100826-1330,"",1309265068991
executed,command,org.eclipse.ui,3.6.1.M20100826-1330,"org.eclipse.ui.edit.copy",1309265085027
executed,command,org.eclipse.ui,3.6.1.M20100826-1330,"org.eclipse.ui.edit.paste",1309265087518
deactivated,workbench,org.eclipse.ui.workbench,3.6.1.M20100826-1330,"",1309265090134
activated,workbench,org.eclipse.ui.workbench,3.6.1.M20100826-1330,"",1309265094347
deactivated,workbench,org.eclipse.ui.workbench,3.6.1.M20100826-1330,"",1309265106373
activated,workbench,org.eclipse.ui.workbench,3.6.1.M20100826-1330,"",1309265110952
deactivated,workbench,org.eclipse.ui.workbench,3.6.1.M20100826-1330,"",1309265128679
activated,workbench,org.eclipse.ui.workbench,3.6.1.M20100826-1330,"",1309265142029
executed,command,org.eclipse.ui,3.6.1.M20100826-1330,"org.eclipse.ui.edit.paste",1309265143583
executed,command,org.eclipse.ui,3.6.1.M20100826-1330,"org.eclipse.ui.file.save",1309265145680
executed,command,org.eclipse.ui,3.6.1.M20100826-1330,"org.eclipse.ui.file.saveAll",1309265168157
activated,editor,com.instantiations.designer.core,8.0.0.r36x201009160631,"com.instantiations.designer.core.guiEditor",1309265170588
executed,command,org.eclipse.ui,3.6.1.M20100826-1330,"org.eclipse.ui.edit.text.contentAssist.proposals",1309265179893
executed,command,org.eclipse.ui,3.6.1.M20100826-1330,"org.eclipse.ui.edit.text.contentAssist.proposals",1309265186519
executed,command,org.eclipse.ui,3.6.1.M20100826-1330,"org.eclipse.ui.edit.delete",1309265192616
executed,command,org.eclipse.ui,3.6.1.M20100826-1330,"org.eclipse.ui.edit.delete",1309265192953
executed,command,org.eclipse.ui,3.6.1.M20100826-1330,"org.eclipse.ui.file.save",1309265195390
activated,editor,com.instantiations.designer.core,8.0.0.r36x201009160631,"com.instantiations.designer.core.guiEditor",1309265202340
deactivated,workbench,org.eclipse.ui.workbench,3.6.1.M20100826-1330,"",1309265206984
activated,workbench,org.eclipse.ui.workbench,3.6.1.M20100826-1330,"",1309265209183
activated,editor,org.eclipse.jdt.ui,3.6.1.r361_v20100825-0800,"org.eclipse.jdt.ui.CompilationUnitEditor",1309265235691
activated,editor,com.instantiations.designer.core,8.0.0.r36x201009160631,"com.instantiations.designer.core.guiEditor",1309265242691
deactivated,workbench,org.eclipse.ui.workbench,3.6.1.M20100826-1330,"",1309265245022
activated,workbench,org.eclipse.ui.workbench,3.6.1.M20100826-1330,"",1309265246228
activated,editor,com.instantiations.designer.core,8.0.0.r36x201009160631,"com.instantiations.designer.core.guiEditor",1309265281519
deactivated,workbench,org.eclipse.ui.workbench,3.6.1.M20100826-1330,"",1309265307700
activated,workbench,org.eclipse.ui.workbench,3.6.1.M20100826-1330,"",1309265307863
deactivated,workbench,org.eclipse.ui.workbench,3.6.1.M20100826-1330,"",1309265310812
activated,workbench,org.eclipse.ui.workbench,3.6.1.M20100826-1330,"",1309265433199
deactivated,workbench,org.eclipse.ui.workbench,3.6.1.M20100826-1330,"",1309265462551
activated,workbench,org.eclipse.ui.workbench,3.6.1.M20100826-1330,"",1309265604907
activated,view,org.eclipse.jdt.ui,3.6.1.r361_v20100825-0800,"org.eclipse.jdt.ui.PackageExplorer",1309265607876
deactivated,workbench,org.eclipse.ui.workbench,3.6.1.M20100826-1330,"",1309265620400
activated,workbench,org.eclipse.ui.workbench,3.6.1.M20100826-1330,"",1309265640391
executed,command,org.eclipse.ui,3.6.1.M20100826-1330,"org.eclipse.ui.newWizard",1309265640405
opened,editor,org.eclipse.jdt.ui,3.6.1.r361_v20100825-0800,"org.eclipse.jdt.ui.CompilationUnitEditor",1309265641546
activated,editor,org.eclipse.jdt.ui,3.6.1.r361_v20100825-0800,"org.eclipse.jdt.ui.CompilationUnitEditor",1309265641606
started,bundle,org.eclipse.pde.build,3.6.1.R36x_v20100823,"org.eclipse.pde.build",1309265642186
executed,command,org.eclipse.ui,3.6.1.M20100826-1330,"org.eclipse.ui.edit.paste",1309265644913
deactivated,workbench,org.eclipse.ui.workbench,3.6.1.M20100826-1330,"",1309265650295
activated,workbench,org.eclipse.ui.workbench,3.6.1.M20100826-1330,"",1309265650346
deactivated,workbench,org.eclipse.ui.workbench,3.6.1.M20100826-1330,"",1309265654047
activated,workbench,org.eclipse.ui.workbench,3.6.1.M20100826-1330,"",1309265654071
deactivated,workbench,org.eclipse.ui.workbench,3.6.1.M20100826-1330,"",1309265658447
activated,workbench,org.eclipse.ui.workbench,3.6.1.M20100826-1330,"",1309265658621
deactivated,workbench,org.eclipse.ui.workbench,3.6.1.M20100826-1330,"",1309265665467
activated,workbench,org.eclipse.ui.workbench,3.6.1.M20100826-1330,"",1309265665492
activated,editor,org.eclipse.jdt.ui,3.6.1.r361_v20100825-0800,"org.eclipse.jdt.ui.CompilationUnitEditor",1309265668335
activated,editor,org.eclipse.jdt.ui,3.6.1.r361_v20100825-0800,"org.eclipse.jdt.ui.CompilationUnitEditor",1309265670701
activated,editor,org.eclipse.jdt.ui,3.6.1.r361_v20100825-0800,"org.eclipse.jdt.ui.CompilationUnitEditor",1309265673285
activated,editor,org.eclipse.jdt.ui,3.6.1.r361_v20100825-0800,"org.eclipse.jdt.ui.CompilationUnitEditor",1309265675849
activated,editor,com.instantiations.designer.core,8.0.0.r36x201009160631,"com.instantiations.designer.core.guiEditor",1309265677370
deactivated,workbench,org.eclipse.ui.workbench,3.6.1.M20100826-1330,"",1309265710459
executed,command,org.eclipse.ui,3.6.1.M20100826-1330,"org.eclipse.ui.edit.findReplace",1309265710497
activated,workbench,org.eclipse.ui.workbench,3.6.1.M20100826-1330,"",1309265713488
executed,command,org.eclipse.ui,3.6.1.M20100826-1330,"org.eclipse.ui.edit.undo",1309265769746
executed,command,org.eclipse.ui,3.6.1.M20100826-1330,"org.eclipse.ui.edit.undo",1309265770322
executed,command,org.eclipse.ui,3.6.1.M20100826-1330,"org.eclipse.ui.edit.text.contentAssist.proposals",1309265781448
executed,command,org.eclipse.ui,3.6.1.M20100826-1330,"org.eclipse.ui.edit.text.contentAssist.proposals",1309265787021
executed,command,org.eclipse.ui,3.6.1.M20100826-1330,"org.eclipse.ui.edit.text.contentAssist.proposals",1309265795927
activated,editor,org.eclipse.jdt.ui,3.6.1.r361_v20100825-0800,"org.eclipse.jdt.ui.CompilationUnitEditor",1309265805679
activated,editor,com.instantiations.designer.core,8.0.0.r36x201009160631,"com.instantiations.designer.core.guiEditor",1309265816494
executed,command,org.eclipse.ui,3.6.1.M20100826-1330,"org.eclipse.ui.file.saveAll",1309265823266
executed,command,org.eclipse.ui,3.6.1.M20100826-1330,"org.eclipse.ui.edit.text.contentAssist.proposals",1309265824424
deactivated,workbench,org.eclipse.ui.workbench,3.6.1.M20100826-1330,"",1309265837482
activated,workbench,org.eclipse.ui.workbench,3.6.1.M20100826-1330,"",1309265845001
executed,command,org.eclipse.ui,3.6.1.M20100826-1330,"org.eclipse.ui.edit.paste",1309265847399
deactivated,workbench,org.eclipse.ui.workbench,3.6.1.M20100826-1330,"",1309265858989
activated,workbench,org.eclipse.ui.workbench,3.6.1.M20100826-1330,"",1309265876846
deactivated,workbench,org.eclipse.ui.workbench,3.6.1.M20100826-1330,"",1309265915778
activated,workbench,org.eclipse.ui.workbench,3.6.1.M20100826-1330,"",1309265920698
executed,command,org.eclipse.ui,3.6.1.M20100826-1330,"org.eclipse.ui.edit.text.contentAssist.proposals",1309265973355
executed,command,org.eclipse.ui,3.6.1.M20100826-1330,"org.eclipse.ui.edit.delete",1309265977615
executed,command,org.eclipse.ui,3.6.1.M20100826-1330,"org.eclipse.ui.edit.delete",1309265978083
executed,command,org.eclipse.ui,3.6.1.M20100826-1330,"org.eclipse.ui.edit.text.contentAssist.proposals",1309265985596
executed,command,org.eclipse.ui,3.6.1.M20100826-1330,"org.eclipse.ui.file.save",1309265987990
executed,command,org.eclipse.ui,3.6.1.M20100826-1330,"org.eclipse.ui.edit.text.contentAssist.proposals",1309266004406
executed,command,org.eclipse.ui,3.6.1.M20100826-1330,"org.eclipse.ui.edit.text.contentAssist.proposals",1309266013922
executed,command,org.eclipse.ui.workbench.texteditor,3.6.1.r361_v20100714-0800,"org.eclipse.ui.edit.text.goto.lineEnd",1309266015628
executed,command,org.eclipse.ui,3.6.1.M20100826-1330,"org.eclipse.ui.file.save",1309266017720
deactivated,workbench,org.eclipse.ui.workbench,3.6.1.M20100826-1330,"",1309266029024
opened,view,org.eclipse.ui.console,3.5.0.v20100526,"org.eclipse.ui.console.ConsoleView",1309266033270
activated,workbench,org.eclipse.ui.workbench,3.6.1.M20100826-1330,"",1309266033313
activated,view,org.eclipse.ui.console,3.5.0.v20100526,"org.eclipse.ui.console.ConsoleView",1309266033330
activated,editor,com.instantiations.designer.core,8.0.0.r36x201009160631,"com.instantiations.designer.core.guiEditor",1309266062714
deactivated,workbench,org.eclipse.ui.workbench,3.6.1.M20100826-1330,"",1309266084048
activated,workbench,org.eclipse.ui.workbench,3.6.1.M20100826-1330,"",1309266085320
executed,command,org.eclipse.ui,3.6.1.M20100826-1330,"org.eclipse.ui.edit.text.contentAssist.proposals",1309266110107
deactivated,workbench,org.eclipse.ui.workbench,3.6.1.M20100826-1330,"",1309266117225
activated,workbench,org.eclipse.ui.workbench,3.6.1.M20100826-1330,"",1309266194652
executed,command,org.eclipse.ui,3.6.1.M20100826-1330,"org.eclipse.ui.edit.paste",1309266197581
executed,command,org.eclipse.ui,3.6.1.M20100826-1330,"org.eclipse.ui.edit.text.contentAssist.proposals",1309266203252
deactivated,workbench,org.eclipse.ui.workbench,3.6.1.M20100826-1330,"",1309266213170
activated,workbench,org.eclipse.ui.workbench,3.6.1.M20100826-1330,"",1309266213326
deactivated,workbench,org.eclipse.ui.workbench,3.6.1.M20100826-1330,"",1309266219492
activated,workbench,org.eclipse.ui.workbench,3.6.1.M20100826-1330,"",1309266225464
deactivated,workbench,org.eclipse.ui.workbench,3.6.1.M20100826-1330,"",1309266228940
activated,workbench,org.eclipse.ui.workbench,3.6.1.M20100826-1330,"",1309266233100
activated,view,org.eclipse.ui.console,3.5.0.v20100526,"org.eclipse.ui.console.ConsoleView",1309266233121
activated,editor,com.instantiations.designer.core,8.0.0.r36x201009160631,"com.instantiations.designer.core.guiEditor",1309266241727
deactivated,workbench,org.eclipse.ui.workbench,3.6.1.M20100826-1330,"",1309266255909
activated,workbench,org.eclipse.ui.workbench,3.6.1.M20100826-1330,"",1309266257833
activated,view,org.eclipse.ui.console,3.5.0.v20100526,"org.eclipse.ui.console.ConsoleView",1309266258059
started,bundle,org.eclipse.wst.xsl.debug.ui,1.0.100.v201004290328,"org.eclipse.wst.xsl.debug.ui",1309266260568
deactivated,workbench,org.eclipse.ui.workbench,3.6.1.M20100826-1330,"",1309266264707
activated,workbench,org.eclipse.ui.workbench,3.6.1.M20100826-1330,"",1309266278909
activated,editor,com.instantiations.designer.core,8.0.0.r36x201009160631,"com.instantiations.designer.core.guiEditor",1309266279001
executed,command,org.eclipse.ui,3.6.1.M20100826-1330,"org.eclipse.ui.edit.text.contentAssist.proposals",1309266288488
executed,command,org.eclipse.ui,3.6.1.M20100826-1330,"org.eclipse.ui.file.save",1309266293842
deactivated,workbench,org.eclipse.ui.workbench,3.6.1.M20100826-1330,"",1309266299143
activated,workbench,org.eclipse.ui.workbench,3.6.1.M20100826-1330,"",1309266303910
executed,command,org.eclipse.ui,3.6.1.M20100826-1330,"org.eclipse.ui.edit.text.contentAssist.proposals",1309266305856
executed,command,org.eclipse.ui.workbench.texteditor,3.6.1.r361_v20100714-0800,"org.eclipse.ui.edit.text.select.lineEnd",1309266319312
executed,command,org.eclipse.ui,3.6.1.M20100826-1330,"org.eclipse.ui.edit.copy",1309266320611
executed,command,org.eclipse.ui.workbench.texteditor,3.6.1.r361_v20100714-0800,"org.eclipse.ui.edit.text.select.lineEnd",1309266326696
executed,command,org.eclipse.ui,3.6.1.M20100826-1330,"org.eclipse.ui.edit.paste",1309266328000
executed,command,org.eclipse.ui,3.6.1.M20100826-1330,"org.eclipse.ui.edit.text.contentAssist.proposals",1309266342506
executed,command,org.eclipse.ui,3.6.1.M20100826-1330,"org.eclipse.ui.file.save",1309266350007
deactivated,workbench,org.eclipse.ui.workbench,3.6.1.M20100826-1330,"",1309266358063
activated,workbench,org.eclipse.ui.workbench,3.6.1.M20100826-1330,"",1309266361744
executed,command,org.eclipse.ui,3.6.1.M20100826-1330,"org.eclipse.ui.edit.text.contentAssist.proposals",1309266363843
executed,command,org.eclipse.ui,3.6.1.M20100826-1330,"org.eclipse.ui.edit.text.contentAssist.proposals",1309266368424
executed,command,org.eclipse.ui,3.6.1.M20100826-1330,"org.eclipse.ui.edit.text.contentAssist.proposals",1309266374336
executed,command,org.eclipse.ui.workbench.texteditor,3.6.1.r361_v20100714-0800,"org.eclipse.ui.edit.text.select.lineEnd",1309266382010
executed,command,org.eclipse.ui.workbench.texteditor,3.6.1.r361_v20100714-0800,"org.eclipse.ui.edit.text.select.lineStart",1309266385925
executed,command,org.eclipse.ui,3.6.1.M20100826-1330,"org.eclipse.ui.edit.delete",1309266387063
executed,command,org.eclipse.ui,3.6.1.M20100826-1330,"org.eclipse.ui.edit.paste",1309266387922
executed,command,org.eclipse.ui,3.6.1.M20100826-1330,"org.eclipse.ui.edit.text.contentAssist.proposals",1309266395088
executed,command,org.eclipse.ui,3.6.1.M20100826-1330,"org.eclipse.ui.file.save",1309266404227
executed,command,org.eclipse.ui.workbench.texteditor,3.6.1.r361_v20100714-0800,"org.eclipse.ui.edit.text.goto.lineEnd",1309266404731
deactivated,workbench,org.eclipse.ui.workbench,3.6.1.M20100826-1330,"",1309266408409
activated,workbench,org.eclipse.ui.workbench,3.6.1.M20100826-1330,"",1309266414187
executed,command,org.eclipse.ui,3.6.1.M20100826-1330,"org.eclipse.ui.edit.paste",1309266415299
executed,command,org.eclipse.ui,3.6.1.M20100826-1330,"org.eclipse.ui.edit.text.contentAssist.proposals",1309266419196
executed,command,org.eclipse.ui,3.6.1.M20100826-1330,"org.eclipse.ui.edit.text.contentAssist.proposals",1309266433821
executed,command,org.eclipse.ui,3.6.1.M20100826-1330,"org.eclipse.ui.edit.paste",1309266441727
deactivated,workbench,org.eclipse.ui.workbench,3.6.1.M20100826-1330,"",1309266446266
activated,workbench,org.eclipse.ui.workbench,3.6.1.M20100826-1330,"",1309266457918
executed,command,org.eclipse.ui,3.6.1.M20100826-1330,"org.eclipse.ui.edit.text.contentAssist.proposals",1309266459606
executed,command,org.eclipse.ui,3.6.1.M20100826-1330,"org.eclipse.ui.edit.paste",1309266464570
executed,command,org.eclipse.ui,3.6.1.M20100826-1330,"org.eclipse.ui.edit.text.contentAssist.proposals",1309266468351
executed,command,org.eclipse.ui.workbench.texteditor,3.6.1.r361_v20100714-0800,"org.eclipse.ui.edit.text.select.lineStart",1309266482684
executed,command,org.eclipse.ui,3.6.1.M20100826-1330,"org.eclipse.ui.edit.delete",1309266484068
executed,command,org.eclipse.ui,3.6.1.M20100826-1330,"org.eclipse.ui.edit.delete",1309266493563
executed,command,org.eclipse.ui,3.6.1.M20100826-1330,"org.eclipse.ui.edit.paste",1309266497655
executed,command,org.eclipse.ui,3.6.1.M20100826-1330,"org.eclipse.ui.edit.text.contentAssist.proposals",1309266503437
executed,command,org.eclipse.ui,3.6.1.M20100826-1330,"org.eclipse.ui.file.save",1309266512494
deactivated,workbench,org.eclipse.ui.workbench,3.6.1.M20100826-1330,"",1309266518876
activated,workbench,org.eclipse.ui.workbench,3.6.1.M20100826-1330,"",1309266524245
activated,view,org.eclipse.ui.console,3.5.0.v20100526,"org.eclipse.ui.console.ConsoleView",1309266524270
activated,editor,com.instantiations.designer.core,8.0.0.r36x201009160631,"com.instantiations.designer.core.guiEditor",1309266546024
executed,command,org.eclipse.ui,3.6.1.M20100826-1330,"org.eclipse.ui.edit.text.contentAssist.proposals",1309266553770
executed,command,org.eclipse.ui,3.6.1.M20100826-1330,"org.eclipse.ui.file.save",1309266559218
deactivated,workbench,org.eclipse.ui.workbench,3.6.1.M20100826-1330,"",1309266564808
activated,workbench,org.eclipse.ui.workbench,3.6.1.M20100826-1330,"",1309266568008
activated,view,org.eclipse.ui.console,3.5.0.v20100526,"org.eclipse.ui.console.ConsoleView",1309266568029
activated,editor,com.instantiations.designer.core,8.0.0.r36x201009160631,"com.instantiations.designer.core.guiEditor",1309266615596
deactivated,workbench,org.eclipse.ui.workbench,3.6.1.M20100826-1330,"",1309266618445
activated,workbench,org.eclipse.ui.workbench,3.6.1.M20100826-1330,"",1309266619660
deactivated,workbench,org.eclipse.ui.workbench,3.6.1.M20100826-1330,"",1309266625721
activated,workbench,org.eclipse.ui.workbench,3.6.1.M20100826-1330,"",1309266635547
executed,command,org.eclipse.ui,3.6.1.M20100826-1330,"org.eclipse.ui.edit.text.contentAssist.proposals",1309266638835
executed,command,org.eclipse.ui,3.6.1.M20100826-1330,"org.eclipse.ui.edit.text.contentAssist.proposals",1309266642333
executed,command,org.eclipse.ui.workbench.texteditor,3.6.1.r361_v20100714-0800,"org.eclipse.ui.edit.text.goto.lineEnd",1309266645104
executed,command,org.eclipse.ui,3.6.1.M20100826-1330,"org.eclipse.ui.edit.text.contentAssist.proposals",1309266647672
executed,command,org.eclipse.ui.workbench.texteditor,3.6.1.r361_v20100714-0800,"org.eclipse.ui.edit.text.goto.lineEnd",1309266653530
deactivated,workbench,org.eclipse.ui.workbench,3.6.1.M20100826-1330,"",1309266677349
activated,workbench,org.eclipse.ui.workbench,3.6.1.M20100826-1330,"",1309266694255
activated,view,org.eclipse.ui.console,3.5.0.v20100526,"org.eclipse.ui.console.ConsoleView",1309266694287
activated,editor,com.instantiations.designer.core,8.0.0.r36x201009160631,"com.instantiations.designer.core.guiEditor",1309266701428
deactivated,workbench,org.eclipse.ui.workbench,3.6.1.M20100826-1330,"",1309266711235
activated,workbench,org.eclipse.ui.workbench,3.6.1.M20100826-1330,"",1309266715383
deactivated,workbench,org.eclipse.ui.workbench,3.6.1.M20100826-1330,"",1309266720823
activated,workbench,org.eclipse.ui.workbench,3.6.1.M20100826-1330,"",1309266724980
activated,view,org.eclipse.ui.console,3.5.0.v20100526,"org.eclipse.ui.console.ConsoleView",1309266725003
activated,editor,com.instantiations.designer.core,8.0.0.r36x201009160631,"com.instantiations.designer.core.guiEditor",1309266788725
deactivated,workbench,org.eclipse.ui.workbench,3.6.1.M20100826-1330,"",1309266796870
executed,command,org.eclipse.ui,3.6.1.M20100826-1330,"org.eclipse.ui.edit.findReplace",1309266796909
activated,workbench,org.eclipse.ui.workbench,3.6.1.M20100826-1330,"",1309266810093
deactivated,workbench,org.eclipse.ui.workbench,3.6.1.M20100826-1330,"",1309266855554
activated,workbench,org.eclipse.ui.workbench,3.6.1.M20100826-1330,"",1309266857044
deactivated,workbench,org.eclipse.ui.workbench,3.6.1.M20100826-1330,"",1309266862831
activated,workbench,org.eclipse.ui.workbench,3.6.1.M20100826-1330,"",1309266866438
activated,view,org.eclipse.ui.console,3.5.0.v20100526,"org.eclipse.ui.console.ConsoleView",1309266866466
activated,editor,com.instantiations.designer.core,8.0.0.r36x201009160631,"com.instantiations.designer.core.guiEditor",1309266916674
executed,command,org.eclipse.ui,3.6.1.M20100826-1330,"org.eclipse.ui.edit.cut",1309266957212
executed,command,org.eclipse.ui,3.6.1.M20100826-1330,"org.eclipse.ui.edit.paste",1309266959979
executed,command,org.eclipse.ui,3.6.1.M20100826-1330,"org.eclipse.ui.file.save",1309266961505
deactivated,workbench,org.eclipse.ui.workbench,3.6.1.M20100826-1330,"",1309266965088
activated,workbench,org.eclipse.ui.workbench,3.6.1.M20100826-1330,"",1309266966640
deactivated,workbench,org.eclipse.ui.workbench,3.6.1.M20100826-1330,"",1309266974215
activated,workbench,org.eclipse.ui.workbench,3.6.1.M20100826-1330,"",1309266978043
activated,view,org.eclipse.ui.console,3.5.0.v20100526,"org.eclipse.ui.console.ConsoleView",1309266978071
activated,editor,com.instantiations.designer.core,8.0.0.r36x201009160631,"com.instantiations.designer.core.guiEditor",1309267012501
deactivated,workbench,org.eclipse.ui.workbench,3.6.1.M20100826-1330,"",1309267019849
activated,workbench,org.eclipse.ui.workbench,3.6.1.M20100826-1330,"",1309267021054
executed,command,org.eclipse.ui,3.6.1.M20100826-1330,"org.eclipse.ui.edit.text.contentAssist.proposals",1309267049856
executed,command,org.eclipse.ui,3.6.1.M20100826-1330,"org.eclipse.ui.edit.text.contentAssist.proposals",1309267058937
executed,command,org.eclipse.ui.workbench.texteditor,3.6.1.r361_v20100714-0800,"org.eclipse.ui.edit.text.deletePreviousWord",1309267063821
deactivated,workbench,org.eclipse.ui.workbench,3.6.1.M20100826-1330,"",1309267066119
executed,command,org.eclipse.jdt.ui,3.6.1.r361_v20100825-0800,"org.eclipse.jdt.ui.edit.text.java.show.outline",1309267066214
activated,workbench,org.eclipse.ui.workbench,3.6.1.M20100826-1330,"",1309267069205
executed,command,org.eclipse.ui,3.6.1.M20100826-1330,"org.eclipse.ui.edit.text.contentAssist.proposals",1309267072572
executed,command,org.eclipse.ui.workbench.texteditor,3.6.1.r361_v20100714-0800,"org.eclipse.ui.edit.text.goto.lineEnd",1309267074329
executed,command,org.eclipse.ui,3.6.1.M20100826-1330,"org.eclipse.ui.file.save",1309267076943
deactivated,workbench,org.eclipse.ui.workbench,3.6.1.M20100826-1330,"",1309267078506
activated,workbench,org.eclipse.ui.workbench,3.6.1.M20100826-1330,"",1309267079838
deactivated,workbench,org.eclipse.ui.workbench,3.6.1.M20100826-1330,"",1309267089057
activated,workbench,org.eclipse.ui.workbench,3.6.1.M20100826-1330,"",1309267092654
activated,view,org.eclipse.ui.console,3.5.0.v20100526,"org.eclipse.ui.console.ConsoleView",1309267092687
deactivated,workbench,org.eclipse.ui.workbench,3.6.1.M20100826-1330,"",1309267156822
activated,workbench,org.eclipse.ui.workbench,3.6.1.M20100826-1330,"",1309267283769
deactivated,workbench,org.eclipse.ui.workbench,3.6.1.M20100826-1330,"",1309267292202
activated,workbench,org.eclipse.ui.workbench,3.6.1.M20100826-1330,"",1309271300053
activated,editor,com.instantiations.designer.core,8.0.0.r36x201009160631,"com.instantiations.designer.core.guiEditor",1309271302986
deactivated,workbench,org.eclipse.ui.workbench,3.6.1.M20100826-1330,"",1309271402625
activated,workbench,org.eclipse.ui.workbench,3.6.1.M20100826-1330,"",1309271403922
executed,command,org.eclipse.ui,3.6.1.M20100826-1330,"org.eclipse.ui.edit.text.contentAssist.proposals",1309271419874
executed,command,org.eclipse.ui,3.6.1.M20100826-1330,"org.eclipse.ui.edit.undo",1309271500341
executed,command,org.eclipse.ui,3.6.1.M20100826-1330,"org.eclipse.ui.edit.copy",1309271529236
executed,command,org.eclipse.ui,3.6.1.M20100826-1330,"org.eclipse.ui.edit.copy",1309271529525
executed,command,org.eclipse.ui,3.6.1.M20100826-1330,"org.eclipse.ui.edit.copy",1309271529814
executed,command,org.eclipse.ui,3.6.1.M20100826-1330,"org.eclipse.ui.edit.copy",1309271529951
executed,command,org.eclipse.ui,3.6.1.M20100826-1330,"org.eclipse.ui.edit.paste",1309271588397
executed,command,org.eclipse.ui,3.6.1.M20100826-1330,"org.eclipse.ui.edit.undo",1309271598532
executed,command,org.eclipse.ui,3.6.1.M20100826-1330,"org.eclipse.ui.edit.paste",1309271604006
executed,command,org.eclipse.ui.workbench.texteditor,3.6.1.r361_v20100714-0800,"org.eclipse.ui.edit.text.goto.lineStart",1309271630279
executed,command,org.eclipse.ui,3.6.1.M20100826-1330,"org.eclipse.ui.edit.delete",1309271640467
executed,command,org.eclipse.ui,3.6.1.M20100826-1330,"org.eclipse.ui.edit.copy",1309271712132
executed,command,org.eclipse.ui,3.6.1.M20100826-1330,"org.eclipse.ui.edit.copy",1309271712368
executed,command,org.eclipse.ui,3.6.1.M20100826-1330,"org.eclipse.ui.edit.copy",1309271712593
executed,command,org.eclipse.ui,3.6.1.M20100826-1330,"org.eclipse.ui.edit.copy",1309271712769
executed,command,org.eclipse.ui,3.6.1.M20100826-1330,"org.eclipse.ui.edit.paste",1309271723195
executed,command,org.eclipse.ui,3.6.1.M20100826-1330,"org.eclipse.ui.edit.copy",1309271732341
executed,command,org.eclipse.ui,3.6.1.M20100826-1330,"org.eclipse.ui.edit.copy",1309271732585
activated,editor,org.eclipse.jdt.ui,3.6.1.r361_v20100825-0800,"org.eclipse.jdt.ui.CompilationUnitEditor",1309271752074
