what,kind,bundleId,bundleVersion,description,time
deactivated,workbench,org.eclipse.ui.workbench,3.6.1.M20100826-1330,"",1308753802259
activated,workbench,org.eclipse.ui.workbench,3.6.1.M20100826-1330,"",1308753803591
deactivated,workbench,org.eclipse.ui.workbench,3.6.1.M20100826-1330,"",1308753811648
activated,workbench,org.eclipse.ui.workbench,3.6.1.M20100826-1330,"",1308753818548
error,log,,,"Designer [8.0.0.r36x201009160631]: null argument: com.instantiations.designer.core.databinding.model.SynchronizeManager isn't work ({new: org.eclipse.nebula.widgets.grid.GridColumn} {local-unique: gridColumn_1} {/new GridColumn(grid, SWT.NONE)/ /gridColumn_1.setWidth(150)/ /gridColumn_1.setText(""New Column"")/})",1308753870064
error,log,,,"Designer [8.0.0.r36x201009160631]: null argument: com.instantiations.designer.core.databinding.model.SynchronizeManager isn't work ({new: org.eclipse.nebula.widgets.grid.GridColumn} {local-unique: gridColumn_1} {/new GridColumn(grid, SWT.NONE)/ /gridColumn_1.setWidth(150)/ /gridColumn_1.setText(""New Column"")/})",1308753870074
error,log,,,"Designer [8.0.0.r36x201009160631]: null argument: com.instantiations.designer.core.databinding.model.SynchronizeManager isn't work ({new: org.eclipse.nebula.widgets.grid.GridColumn} {local-unique: gridColumn_1} {/new GridColumn(grid, SWT.NONE)/ /gridColumn_1.setWidth(150)/ /gridColumn_1.setText(""New Column"")/})",1308753870083
error,log,,,"Designer [8.0.0.r36x201009160631]: null argument: com.instantiations.designer.core.databinding.model.SynchronizeManager isn't work ({new: org.eclipse.nebula.widgets.grid.GridColumn} {local-unique: gridColumn_1} {/new GridColumn(grid, SWT.NONE)/ /gridColumn_1.setWidth(150)/ /gridColumn_1.setText(""New Column"")/})",1308753870092
error,log,,,"Designer [8.0.0.r36x201009160631]: null argument: com.instantiations.designer.core.databinding.model.SynchronizeManager isn't work ({new: org.eclipse.nebula.widgets.grid.GridColumn} {local-unique: gridColumn_1} {/new GridColumn(grid, SWT.NONE)/ /gridColumn_1.setWidth(150)/ /gridColumn_1.setText(""New Column"")/})",1308753870102
error,log,,,"Designer [8.0.0.r36x201009160631]: null argument: com.instantiations.designer.core.databinding.model.SynchronizeManager isn't work ({new: org.eclipse.nebula.widgets.grid.GridColumn} {local-unique: gridColumn_1} {/new GridColumn(grid, SWT.NONE)/ /gridColumn_1.setWidth(150)/ /gridColumn_1.setText(""New Column"")/})",1308753909670
error,log,,,"Designer [8.0.0.r36x201009160631]: null argument: com.instantiations.designer.core.databinding.model.SynchronizeManager isn't work ({new: org.eclipse.nebula.widgets.grid.GridColumn} {local-unique: gridColumn_1} {/new GridColumn(grid, SWT.NONE)/ /gridColumn_1.setWidth(150)/ /gridColumn_1.setText(""New Column"")/})",1308753909680
error,log,,,"Designer [8.0.0.r36x201009160631]: null argument: com.instantiations.designer.core.databinding.model.SynchronizeManager isn't work ({new: org.eclipse.nebula.widgets.grid.GridColumn} {local-unique: gridColumn_1} {/new GridColumn(grid, SWT.NONE)/ /gridColumn_1.setWidth(150)/ /gridColumn_1.setText(""New Column"")/})",1308753909691
error,log,,,"Designer [8.0.0.r36x201009160631]: null argument: com.instantiations.designer.core.databinding.model.SynchronizeManager isn't work ({new: org.eclipse.nebula.widgets.grid.GridColumn} {local-unique: gridColumn_1} {/new GridColumn(grid, SWT.NONE)/ /gridColumn_1.setWidth(150)/ /gridColumn_1.setText(""New Column"")/})",1308753910091
error,log,,,"Designer [8.0.0.r36x201009160631]: null argument: com.instantiations.designer.core.databinding.model.SynchronizeManager isn't work ({new: org.eclipse.nebula.widgets.grid.GridColumn} {local-unique: gridColumn_1} {/new GridColumn(grid, SWT.NONE)/ /gridColumn_1.setWidth(150)/ /gridColumn_1.setText(""New Column"")/})",1308753910103
error,log,,,"Designer [8.0.0.r36x201009160631]: null argument: com.instantiations.designer.core.databinding.model.SynchronizeManager isn't work ({new: org.eclipse.nebula.widgets.grid.GridColumn} {local-unique: gridColumn_1} {/new GridColumn(grid, SWT.NONE)/ /gridColumn_1.setWidth(150)/ /gridColumn_1.setText(""New Column"")/})",1308753910114
error,log,,,"Designer [8.0.0.r36x201009160631]: null argument: com.instantiations.designer.core.databinding.model.SynchronizeManager isn't work ({new: org.eclipse.nebula.widgets.grid.GridColumn} {local-unique: gridColumn_1} {/new GridColumn(grid, SWT.NONE)/ /gridColumn_1.setWidth(150)/ /gridColumn_1.setText(""New Column"")/})",1308753914475
error,log,,,"Designer [8.0.0.r36x201009160631]: null argument: com.instantiations.designer.core.databinding.model.SynchronizeManager isn't work ({new: org.eclipse.nebula.widgets.grid.GridColumn} {local-unique: gridColumn_1} {/new GridColumn(grid, SWT.NONE)/ /gridColumn_1.setWidth(150)/ /gridColumn_1.setText(""New Column"")/})",1308753914557
error,log,,,"Designer [8.0.0.r36x201009160631]: null argument: com.instantiations.designer.core.databinding.model.SynchronizeManager isn't work ({new: org.eclipse.nebula.widgets.grid.GridColumn} {local-unique: gridColumn_1} {/new GridColumn(grid, SWT.NONE)/ /gridColumn_1.setWidth(150)/ /gridColumn_1.setText(""New Column"")/})",1308753914577
error,log,,,"Designer [8.0.0.r36x201009160631]: null argument: com.instantiations.designer.core.databinding.model.SynchronizeManager isn't work ({new: org.eclipse.nebula.widgets.grid.GridColumn} {local-unique: gridColumn_1} {/new GridColumn(grid, SWT.NONE)/ /gridColumn_1.setWidth(150)/ /gridColumn_1.setText(""New Column"")/})",1308753914598
error,log,,,"Designer [8.0.0.r36x201009160631]: null argument: com.instantiations.designer.core.databinding.model.SynchronizeManager isn't work ({new: org.eclipse.nebula.widgets.grid.GridColumn} {local-unique: gridColumn_1} {/new GridColumn(grid, SWT.NONE)/ /gridColumn_1.setWidth(150)/ /gridColumn_1.setText(""New Column"")/})",1308753914617
error,log,,,"Designer [8.0.0.r36x201009160631]: null argument: com.instantiations.designer.core.databinding.model.SynchronizeManager isn't work ({new: org.eclipse.nebula.widgets.grid.GridColumn} {local-unique: gridColumn_1} {/new GridColumn(grid, SWT.NONE)/ /gridColumn_1.setWidth(150)/ /gridColumn_1.setText(""New Column"")/})",1308753914639
error,log,,,"Designer [8.0.0.r36x201009160631]: null argument: com.instantiations.designer.core.databinding.model.SynchronizeManager isn't work ({new: org.eclipse.nebula.widgets.grid.GridColumn} {local-unique: gridColumn_1} {/new GridColumn(grid, SWT.NONE)/ /gridColumn_1.setWidth(150)/ /gridColumn_1.setText(""New Column"")/})",1308753914659
error,log,,,"Designer [8.0.0.r36x201009160631]: null argument: com.instantiations.designer.core.databinding.model.SynchronizeManager isn't work ({new: org.eclipse.nebula.widgets.grid.GridColumn} {local-unique: gridColumn_1} {/new GridColumn(grid, SWT.NONE)/ /gridColumn_1.setWidth(150)/ /gridColumn_1.setText(""New Column"")/})",1308753914680
error,log,,,"Designer [8.0.0.r36x201009160631]: null argument: com.instantiations.designer.core.databinding.model.SynchronizeManager isn't work ({new: org.eclipse.nebula.widgets.grid.GridColumn} {local-unique: gridColumn_1} {/new GridColumn(grid, SWT.NONE)/ /gridColumn_1.setWidth(150)/ /gridColumn_1.setText(""New Column"")/})",1308753914700
error,log,,,"Designer [8.0.0.r36x201009160631]: null argument: com.instantiations.designer.core.databinding.model.SynchronizeManager isn't work ({new: org.eclipse.nebula.widgets.grid.GridColumn} {local-unique: gridColumn_1} {/new GridColumn(grid, SWT.NONE)/ /gridColumn_1.setWidth(150)/ /gridColumn_1.setText(""New Column"")/})",1308753914719
error,log,,,"Designer [8.0.0.r36x201009160631]: null argument: com.instantiations.designer.core.databinding.model.SynchronizeManager isn't work ({new: org.eclipse.nebula.widgets.grid.GridColumn} {local-unique: gridColumn_1} {/new GridColumn(grid, SWT.NONE)/ /gridColumn_1.setWidth(150)/ /gridColumn_1.setText(""New Column"")/})",1308753914734
error,log,,,"Designer [8.0.0.r36x201009160631]: null argument: com.instantiations.designer.core.databinding.model.SynchronizeManager isn't work ({new: org.eclipse.nebula.widgets.grid.GridColumn} {local-unique: gridColumn_1} {/new GridColumn(grid, SWT.NONE)/ /gridColumn_1.setWidth(150)/ /gridColumn_1.setText(""New Column"")/})",1308753914748
error,log,,,"Designer [8.0.0.r36x201009160631]: null argument: com.instantiations.designer.core.databinding.model.SynchronizeManager isn't work ({new: org.eclipse.nebula.widgets.grid.GridColumn} {local-unique: gridColumn_1} {/new GridColumn(grid, SWT.NONE)/ /gridColumn_1.setWidth(150)/ /gridColumn_1.setText(""New Column"")/})",1308753914760
error,log,,,"Designer [8.0.0.r36x201009160631]: null argument: com.instantiations.designer.core.databinding.model.SynchronizeManager isn't work ({new: org.eclipse.nebula.widgets.grid.GridColumn} {local-unique: gridColumn_1} {/new GridColumn(grid, SWT.NONE)/ /gridColumn_1.setWidth(150)/ /gridColumn_1.setText(""New Column"")/})",1308753915131
error,log,,,"Designer [8.0.0.r36x201009160631]: null argument: com.instantiations.designer.core.databinding.model.SynchronizeManager isn't work ({new: org.eclipse.nebula.widgets.grid.GridColumn} {local-unique: gridColumn_1} {/new GridColumn(grid, SWT.NONE)/ /gridColumn_1.setWidth(150)/ /gridColumn_1.setText(""New Column"")/})",1308753915534
error,log,,,"Designer [8.0.0.r36x201009160631]: null argument: com.instantiations.designer.core.databinding.model.SynchronizeManager isn't work ({new: org.eclipse.nebula.widgets.grid.GridColumn} {local-unique: Name} {/new GridColumn(grid, SWT.NONE)/ /Name.setWidth(150)/ /Name.setText(""New Column"")/})",1308753920548
error,log,,,"Designer [8.0.0.r36x201009160631]: null argument: com.instantiations.designer.core.databinding.model.SynchronizeManager isn't work ({new: org.eclipse.nebula.widgets.grid.GridColumn} {local-unique: Name} {/new GridColumn(grid, SWT.NONE)/ /Name.setWidth(150)/ /Name.setText(""New Column"")/})",1308753920558
error,log,,,"Designer [8.0.0.r36x201009160631]: null argument: com.instantiations.designer.core.databinding.model.SynchronizeManager isn't work ({new: org.eclipse.nebula.widgets.grid.GridColumn} {local-unique: Name} {/new GridColumn(grid, SWT.NONE)/ /Name.setWidth(150)/ /Name.setText(""New Column"")/})",1308753920569
error,log,,,"Designer [8.0.0.r36x201009160631]: null argument: com.instantiations.designer.core.databinding.model.SynchronizeManager isn't work ({new: org.eclipse.nebula.widgets.grid.GridColumn} {local-unique: Name} {/new GridColumn(grid, SWT.NONE)/ /Name.setWidth(150)/ /Name.setText(""New Column"")/})",1308753920580
error,log,,,"Designer [8.0.0.r36x201009160631]: null argument: com.instantiations.designer.core.databinding.model.SynchronizeManager isn't work ({new: org.eclipse.nebula.widgets.grid.GridColumn} {local-unique: Name} {/new GridColumn(grid, SWT.NONE)/ /Name.setWidth(150)/ /Name.setText(""New Column"")/})",1308753920590
no handler,command,org.eclipse.ui,3.6.1.M20100826-1330,"org.eclipse.ui.edit.undo",1308753933543
no handler,command,org.eclipse.ui,3.6.1.M20100826-1330,"org.eclipse.ui.edit.undo",1308753935306
no handler,command,org.eclipse.ui,3.6.1.M20100826-1330,"org.eclipse.ui.edit.undo",1308753935803
no handler,command,org.eclipse.ui,3.6.1.M20100826-1330,"org.eclipse.ui.edit.undo",1308753936295
deactivated,workbench,org.eclipse.ui.workbench,3.6.1.M20100826-1330,"",1308753938053
activated,workbench,org.eclipse.ui.workbench,3.6.1.M20100826-1330,"",1308753939377
error,log,,,"Designer [8.0.0.r36x201009160631]: null argument: com.instantiations.designer.core.databinding.model.SynchronizeManager isn't work ({new: org.eclipse.nebula.widgets.grid.GridColumn} {local-unique: Name} {/new GridColumn(gridSno, SWT.NONE)/ /Name.setWidth(150)/ /Name.setText(""New Column"")/})",1308753949103
error,log,,,"Designer [8.0.0.r36x201009160631]: null argument: com.instantiations.designer.core.databinding.model.SynchronizeManager isn't work ({new: org.eclipse.nebula.widgets.grid.GridColumn} {local-unique: Name} {/new GridColumn(gridSno, SWT.NONE)/ /Name.setWidth(150)/ /Name.setText(""New Column"")/})",1308753949115
error,log,,,"Designer [8.0.0.r36x201009160631]: null argument: com.instantiations.designer.core.databinding.model.SynchronizeManager isn't work ({new: org.eclipse.nebula.widgets.grid.GridColumn} {local-unique: Name} {/new GridColumn(gridSno, SWT.NONE)/ /Name.setWidth(150)/ /Name.setText(""New Column"")/})",1308753949124
error,log,,,"Designer [8.0.0.r36x201009160631]: null argument: com.instantiations.designer.core.databinding.model.SynchronizeManager isn't work ({new: org.eclipse.nebula.widgets.grid.GridColumn} {local-unique: Name} {/new GridColumn(gridSno, SWT.NONE)/ /Name.setWidth(150)/ /Name.setText(""New Column"")/})",1308753949135
error,log,,,"Designer [8.0.0.r36x201009160631]: null argument: com.instantiations.designer.core.databinding.model.SynchronizeManager isn't work ({new: org.eclipse.nebula.widgets.grid.GridColumn} {local-unique: Name} {/new GridColumn(gridSno, SWT.NONE)/ /Name.setWidth(150)/ /Name.setText(""New Column"")/})",1308753949144
error,log,,,"Designer [8.0.0.r36x201009160631]: null argument: com.instantiations.designer.core.databinding.model.SynchronizeManager isn't work ({new: org.eclipse.nebula.widgets.grid.GridColumn} {local-unique: Name} {/new GridColumn(gridSno, SWT.NONE)/ /Name.setWidth(150)/ /Name.setText(""New Column"")/})",1308753950219
error,log,,,"Designer [8.0.0.r36x201009160631]: null argument: com.instantiations.designer.core.databinding.model.SynchronizeManager isn't work ({new: org.eclipse.nebula.widgets.grid.GridColumn} {local-unique: Name} {/new GridColumn(gridSno, SWT.NONE)/ /Name.setWidth(150)/ /Name.setText(""New Column"")/})",1308753955582
executed,command,org.eclipse.jdt.ui,3.6.1.r361_v20100825-0800,"org.eclipse.jdt.ui.edit.text.java.rename.element",1308753984115
executed,command,org.eclipse.ui,3.6.1.M20100826-1330,"org.eclipse.ui.file.save",1308754024451
deactivated,workbench,org.eclipse.ui.workbench,3.6.1.M20100826-1330,"",1308754026674
activated,workbench,org.eclipse.ui.workbench,3.6.1.M20100826-1330,"",1308754027857
deactivated,workbench,org.eclipse.ui.workbench,3.6.1.M20100826-1330,"",1308754052715
activated,workbench,org.eclipse.ui.workbench,3.6.1.M20100826-1330,"",1308754052758
error,log,,,"Designer [8.0.0.r36x201009160631]: null argument: com.instantiations.designer.core.databinding.model.SynchronizeManager isn't work ({new: org.eclipse.nebula.widgets.grid.GridColumn} {local-unique: gridColumn_1} {/new GridColumn(grdTable, SWT.NONE)/ /gridColumn_1.setWidth(150)/ /gridColumn_1.setText(""New Column"")/})",1308754066620
error,log,,,"Designer [8.0.0.r36x201009160631]: null argument: com.instantiations.designer.core.databinding.model.SynchronizeManager isn't work ({new: org.eclipse.nebula.widgets.grid.GridColumn} {local-unique: gridColumn_1} {/new GridColumn(grdTable, SWT.NONE)/ /gridColumn_1.setWidth(150)/ /gridColumn_1.setText(""New Column"")/})",1308754066630
error,log,,,"Designer [8.0.0.r36x201009160631]: null argument: com.instantiations.designer.core.databinding.model.SynchronizeManager isn't work ({new: org.eclipse.nebula.widgets.grid.GridColumn} {local-unique: gridColumn_1} {/new GridColumn(grdTable, SWT.NONE)/ /gridColumn_1.setWidth(150)/ /gridColumn_1.setText(""New Column"")/})",1308754066639
error,log,,,"Designer [8.0.0.r36x201009160631]: null argument: com.instantiations.designer.core.databinding.model.SynchronizeManager isn't work ({new: org.eclipse.nebula.widgets.grid.GridColumn} {local-unique: gridColumn_1} {/new GridColumn(grdTable, SWT.NONE)/ /gridColumn_1.setWidth(150)/ /gridColumn_1.setText(""New Column"")/})",1308754066648
error,log,,,"Designer [8.0.0.r36x201009160631]: null argument: com.instantiations.designer.core.databinding.model.SynchronizeManager isn't work ({new: org.eclipse.nebula.widgets.grid.GridColumn} {local-unique: gridColumn_1} {/new GridColumn(grdTable, SWT.NONE)/ /gridColumn_1.setWidth(150)/ /gridColumn_1.setText(""New Column"")/})",1308754066657
error,log,,,"Designer [8.0.0.r36x201009160631]: null argument: com.instantiations.designer.core.databinding.model.SynchronizeManager isn't work ({new: org.eclipse.nebula.widgets.grid.GridColumn} {local-unique: gridColumn_1} {/new GridColumn(grdTable, SWT.NONE)/ /gridColumn_1.setWidth(150)/ /gridColumn_1.setText(""New Column"")/})",1308754069117
deactivated,workbench,org.eclipse.ui.workbench,3.6.1.M20100826-1330,"",1308754069990
activated,workbench,org.eclipse.ui.workbench,3.6.1.M20100826-1330,"",1308754070036
error,log,,,"Designer [8.0.0.r36x201009160631]: null argument: com.instantiations.designer.core.databinding.model.SynchronizeManager isn't work ({new: org.eclipse.nebula.widgets.grid.GridColumn} {local-unique: gridColumn_1} {/new GridColumn(grdTable, SWT.NONE)/ /gridColumn_1.setWidth(150)/ /gridColumn_1.setText(""New Column"")/ /gridColumn_1.setAlignment(SWT.RIGHT)/})",1308754070367
error,log,,,"Designer [8.0.0.r36x201009160631]: null argument: com.instantiations.designer.core.databinding.model.SynchronizeManager isn't work ({new: org.eclipse.nebula.widgets.grid.GridColumn} {local-unique: gridColumn_1} {/new GridColumn(grdTable, SWT.NONE)/ /gridColumn_1.setWidth(150)/ /gridColumn_1.setText(""New Column"")/ /gridColumn_1.setAlignment(SWT.RIGHT)/})",1308754070378
error,log,,,"Designer [8.0.0.r36x201009160631]: null argument: com.instantiations.designer.core.databinding.model.SynchronizeManager isn't work ({new: org.eclipse.nebula.widgets.grid.GridColumn} {local-unique: gridColumn_1} {/new GridColumn(grdTable, SWT.NONE)/ /gridColumn_1.setWidth(150)/ /gridColumn_1.setText(""New Column"")/ /gridColumn_1.setAlignment(SWT.RIGHT)/})",1308754070389
error,log,,,"Designer [8.0.0.r36x201009160631]: null argument: com.instantiations.designer.core.databinding.model.SynchronizeManager isn't work ({new: org.eclipse.nebula.widgets.grid.GridColumn} {local-unique: gridColumn_1} {/new GridColumn(grdTable, SWT.NONE)/ /gridColumn_1.setWidth(150)/ /gridColumn_1.setText(""New Column"")/ /gridColumn_1.setAlignment(SWT.RIGHT)/})",1308754070399
error,log,,,"Designer [8.0.0.r36x201009160631]: null argument: com.instantiations.designer.core.databinding.model.SynchronizeManager isn't work ({new: org.eclipse.nebula.widgets.grid.GridColumn} {local-unique: gridColumn_1} {/new GridColumn(grdTable, SWT.NONE)/ /gridColumn_1.setWidth(150)/ /gridColumn_1.setText(""New Column"")/ /gridColumn_1.setAlignment(SWT.RIGHT)/})",1308754070408
executed,command,org.eclipse.ui,3.6.1.M20100826-1330,"org.eclipse.ui.edit.delete",1308754073136
error,log,,,"Designer [8.0.0.r36x201009160631]: null argument: com.instantiations.designer.core.databinding.model.SynchronizeManager isn't work ({new: org.eclipse.nebula.widgets.grid.GridColumnGroup} {local-unique: gridColumnGroup} {/new GridColumnGroup(grdTable, SWT.NONE)/ /gridColumnGroup.setText(""New Group"")/})",1308754077496
error,log,,,"Designer [8.0.0.r36x201009160631]: null argument: com.instantiations.designer.core.databinding.model.SynchronizeManager isn't work ({new: org.eclipse.nebula.widgets.grid.GridColumnGroup} {local-unique: gridColumnGroup} {/new GridColumnGroup(grdTable, SWT.NONE)/ /gridColumnGroup.setText(""New Group"")/})",1308754077504
error,log,,,"Designer [8.0.0.r36x201009160631]: null argument: com.instantiations.designer.core.databinding.model.SynchronizeManager isn't work ({new: org.eclipse.nebula.widgets.grid.GridColumnGroup} {local-unique: gridColumnGroup} {/new GridColumnGroup(grdTable, SWT.NONE)/ /gridColumnGroup.setText(""New Group"")/})",1308754077512
error,log,,,"Designer [8.0.0.r36x201009160631]: null argument: com.instantiations.designer.core.databinding.model.SynchronizeManager isn't work ({new: org.eclipse.nebula.widgets.grid.GridColumnGroup} {local-unique: gridColumnGroup_1} {/new GridColumnGroup(grdTable, SWT.NONE)/ /gridColumnGroup_1.setText(""New Group"")/})",1308754090409
error,log,,,"Designer [8.0.0.r36x201009160631]: null argument: com.instantiations.designer.core.databinding.model.SynchronizeManager isn't work ({new: org.eclipse.nebula.widgets.grid.GridColumnGroup} {local-unique: gridColumnGroup_1} {/new GridColumnGroup(grdTable, SWT.NONE)/ /gridColumnGroup_1.setText(""New Group"")/})",1308754090417
error,log,,,"Designer [8.0.0.r36x201009160631]: null argument: com.instantiations.designer.core.databinding.model.SynchronizeManager isn't work ({new: org.eclipse.nebula.widgets.grid.GridColumnGroup} {local-unique: gridColumnGroup_1} {/new GridColumnGroup(grdTable, SWT.NONE)/ /gridColumnGroup_1.setText(""New Group"")/})",1308754090425
executed,command,org.eclipse.ui,3.6.1.M20100826-1330,"org.eclipse.ui.edit.delete",1308754103491
executed,command,org.eclipse.ui,3.6.1.M20100826-1330,"org.eclipse.ui.edit.delete",1308754104341
executed,command,org.eclipse.ui,3.6.1.M20100826-1330,"org.eclipse.ui.edit.delete",1308754104844
executed,command,org.eclipse.ui,3.6.1.M20100826-1330,"org.eclipse.ui.edit.delete",1308754106320
deactivated,workbench,org.eclipse.ui.workbench,3.6.1.M20100826-1330,"",1308754126211
activated,workbench,org.eclipse.ui.workbench,3.6.1.M20100826-1330,"",1308754164371
executed,command,org.eclipse.ui,3.6.1.M20100826-1330,"org.eclipse.ui.edit.paste",1308754175681
deactivated,workbench,org.eclipse.ui.workbench,3.6.1.M20100826-1330,"",1308754185872
activated,workbench,org.eclipse.ui.workbench,3.6.1.M20100826-1330,"",1308754238667
executed,command,org.eclipse.ui,3.6.1.M20100826-1330,"org.eclipse.ui.edit.paste",1308754243904
deactivated,workbench,org.eclipse.ui.workbench,3.6.1.M20100826-1330,"",1308754245527
activated,workbench,org.eclipse.ui.workbench,3.6.1.M20100826-1330,"",1308754246784
executed,command,org.eclipse.jdt.ui,3.6.1.r361_v20100825-0800,"org.eclipse.jdt.ui.edit.text.java.rename.element",1308754268229
no handler,command,org.eclipse.datatools.sqltools.result.ui,,"org.eclipse.datatools.sqltools.result.removeAllInstances",1308754282500
executed,command,org.eclipse.ui,3.6.1.M20100826-1330,"org.eclipse.ui.file.save",1308754293390
deactivated,workbench,org.eclipse.ui.workbench,3.6.1.M20100826-1330,"",1308754294834
activated,workbench,org.eclipse.ui.workbench,3.6.1.M20100826-1330,"",1308754296105
executed,command,org.eclipse.ui,3.6.1.M20100826-1330,"org.eclipse.ui.file.save",1308754320771
deactivated,workbench,org.eclipse.ui.workbench,3.6.1.M20100826-1330,"",1308754322035
activated,workbench,org.eclipse.ui.workbench,3.6.1.M20100826-1330,"",1308754324065
deactivated,workbench,org.eclipse.ui.workbench,3.6.1.M20100826-1330,"",1308754361008
activated,workbench,org.eclipse.ui.workbench,3.6.1.M20100826-1330,"",1308754372118
error,log,,,"Designer [8.0.0.r36x201009160631]: null argument: com.instantiations.designer.core.databinding.model.SynchronizeManager isn't work ({new: org.eclipse.nebula.widgets.grid.GridColumn} {local-unique: gridColumn_1} {/new GridColumn(grdTable, SWT.NONE)/ /gridColumn_1.setWidth(150)/ /gridColumn_1.setText(""New Column"")/})",1308754373771
error,log,,,"Designer [8.0.0.r36x201009160631]: null argument: com.instantiations.designer.core.databinding.model.SynchronizeManager isn't work ({new: org.eclipse.nebula.widgets.grid.GridColumn} {local-unique: gridColumn_1} {/new GridColumn(grdTable, SWT.NONE)/ /gridColumn_1.setWidth(150)/ /gridColumn_1.setText(""New Column"")/})",1308754373781
error,log,,,"Designer [8.0.0.r36x201009160631]: null argument: com.instantiations.designer.core.databinding.model.SynchronizeManager isn't work ({new: org.eclipse.nebula.widgets.grid.GridColumn} {local-unique: gridColumn_1} {/new GridColumn(grdTable, SWT.NONE)/ /gridColumn_1.setWidth(150)/ /gridColumn_1.setText(""New Column"")/})",1308754373792
error,log,,,"Designer [8.0.0.r36x201009160631]: null argument: com.instantiations.designer.core.databinding.model.SynchronizeManager isn't work ({new: org.eclipse.nebula.widgets.grid.GridColumn} {local-unique: gridColumn_1} {/new GridColumn(grdTable, SWT.NONE)/ /gridColumn_1.setWidth(150)/ /gridColumn_1.setText(""New Column"")/})",1308754373802
error,log,,,"Designer [8.0.0.r36x201009160631]: null argument: com.instantiations.designer.core.databinding.model.SynchronizeManager isn't work ({new: org.eclipse.nebula.widgets.grid.GridColumn} {local-unique: gridColumn_1} {/new GridColumn(grdTable, SWT.NONE)/ /gridColumn_1.setWidth(150)/ /gridColumn_1.setText(""New Column"")/})",1308754373812
error,log,,,"Designer [8.0.0.r36x201009160631]: null argument: com.instantiations.designer.core.databinding.model.SynchronizeManager isn't work ({new: org.eclipse.nebula.widgets.grid.GridColumnGroup} {local-unique: grpTime} {/new GridColumnGroup(grdTable, SWT.CENTER)/ /grpTime.setText(""                     Opening Time   "")/ /new GridColumn(grpTime, SWT.LEFT)/ /new GridColumn(grpTime, SWT.LEFT)/})",1308754385798
error,log,,,"Designer [8.0.0.r36x201009160631]: null argument: com.instantiations.designer.core.databinding.model.SynchronizeManager isn't work ({new: org.eclipse.nebula.widgets.grid.GridColumnGroup} {local-unique: grpTime} {/new GridColumnGroup(grdTable, SWT.CENTER)/ /grpTime.setText(""                     Opening Time   "")/ /new GridColumn(grpTime, SWT.LEFT)/ /new GridColumn(grpTime, SWT.LEFT)/})",1308754385813
error,log,,,"Designer [8.0.0.r36x201009160631]: null argument: com.instantiations.designer.core.databinding.model.SynchronizeManager isn't work ({new: org.eclipse.nebula.widgets.grid.GridColumnGroup} {local-unique: grpTime} {/new GridColumnGroup(grdTable, SWT.CENTER)/ /grpTime.setText(""                     Opening Time   "")/ /new GridColumn(grpTime, SWT.LEFT)/ /new GridColumn(grpTime, SWT.LEFT)/})",1308754385827
error,log,,,"Designer [8.0.0.r36x201009160631]: null argument: com.instantiations.designer.core.databinding.model.SynchronizeManager isn't work ({new: org.eclipse.nebula.widgets.grid.GridColumn} {local-unique: grdName} {/new GridColumn(grdTable, SWT.NONE)/ /grdName.setAlignment(SWT.CENTER)/ /grdName.setText(""Name"")/ /grdName.setWidth(150)/})",1308754387411
error,log,,,"Designer [8.0.0.r36x201009160631]: null argument: com.instantiations.designer.core.databinding.model.SynchronizeManager isn't work ({new: org.eclipse.nebula.widgets.grid.GridColumn} {local-unique: grdName} {/new GridColumn(grdTable, SWT.NONE)/ /grdName.setAlignment(SWT.CENTER)/ /grdName.setText(""Name"")/ /grdName.setWidth(150)/})",1308754387428
error,log,,,"Designer [8.0.0.r36x201009160631]: null argument: com.instantiations.designer.core.databinding.model.SynchronizeManager isn't work ({new: org.eclipse.nebula.widgets.grid.GridColumn} {local-unique: grdName} {/new GridColumn(grdTable, SWT.NONE)/ /grdName.setAlignment(SWT.CENTER)/ /grdName.setText(""Name"")/ /grdName.setWidth(150)/})",1308754387444
error,log,,,"Designer [8.0.0.r36x201009160631]: null argument: com.instantiations.designer.core.databinding.model.SynchronizeManager isn't work ({new: org.eclipse.nebula.widgets.grid.GridColumn} {local-unique: grdName} {/new GridColumn(grdTable, SWT.NONE)/ /grdName.setAlignment(SWT.CENTER)/ /grdName.setText(""Name"")/ /grdName.setWidth(150)/})",1308754387461
error,log,,,"Designer [8.0.0.r36x201009160631]: null argument: com.instantiations.designer.core.databinding.model.SynchronizeManager isn't work ({new: org.eclipse.nebula.widgets.grid.GridColumn} {local-unique: grdName} {/new GridColumn(grdTable, SWT.NONE)/ /grdName.setAlignment(SWT.CENTER)/ /grdName.setText(""Name"")/ /grdName.setWidth(150)/})",1308754387478
error,log,,,"Designer [8.0.0.r36x201009160631]: null argument: com.instantiations.designer.core.databinding.model.SynchronizeManager isn't work ({new: org.eclipse.nebula.widgets.grid.GridColumnGroup} {local-unique: grpTime} {/new GridColumnGroup(grdTable, SWT.CENTER)/ /grpTime.setText(""                     Opening Time   "")/ /new GridColumn(grpTime, SWT.LEFT)/ /new GridColumn(grpTime, SWT.LEFT)/})",1308754388216
error,log,,,"Designer [8.0.0.r36x201009160631]: null argument: com.instantiations.designer.core.databinding.model.SynchronizeManager isn't work ({new: org.eclipse.nebula.widgets.grid.GridColumnGroup} {local-unique: grpTime} {/new GridColumnGroup(grdTable, SWT.CENTER)/ /grpTime.setText(""                     Opening Time   "")/ /new GridColumn(grpTime, SWT.LEFT)/ /new GridColumn(grpTime, SWT.LEFT)/})",1308754388231
error,log,,,"Designer [8.0.0.r36x201009160631]: null argument: com.instantiations.designer.core.databinding.model.SynchronizeManager isn't work ({new: org.eclipse.nebula.widgets.grid.GridColumnGroup} {local-unique: grpTime} {/new GridColumnGroup(grdTable, SWT.CENTER)/ /grpTime.setText(""                     Opening Time   "")/ /new GridColumn(grpTime, SWT.LEFT)/ /new GridColumn(grpTime, SWT.LEFT)/})",1308754388245
error,log,,,"Designer [8.0.0.r36x201009160631]: null argument: com.instantiations.designer.core.databinding.model.SynchronizeManager isn't work ({new: org.eclipse.nebula.widgets.grid.GridColumn} {local-unique: gridColumn_1} {/new GridColumn(grdTable, SWT.NONE)/ /gridColumn_1.setWidth(150)/ /gridColumn_1.setText(""New Column"")/})",1308754388897
error,log,,,"Designer [8.0.0.r36x201009160631]: null argument: com.instantiations.designer.core.databinding.model.SynchronizeManager isn't work ({new: org.eclipse.nebula.widgets.grid.GridColumn} {local-unique: gridColumn_1} {/new GridColumn(grdTable, SWT.NONE)/ /gridColumn_1.setWidth(150)/ /gridColumn_1.setText(""New Column"")/})",1308754388914
error,log,,,"Designer [8.0.0.r36x201009160631]: null argument: com.instantiations.designer.core.databinding.model.SynchronizeManager isn't work ({new: org.eclipse.nebula.widgets.grid.GridColumn} {local-unique: gridColumn_1} {/new GridColumn(grdTable, SWT.NONE)/ /gridColumn_1.setWidth(150)/ /gridColumn_1.setText(""New Column"")/})",1308754388930
error,log,,,"Designer [8.0.0.r36x201009160631]: null argument: com.instantiations.designer.core.databinding.model.SynchronizeManager isn't work ({new: org.eclipse.nebula.widgets.grid.GridColumn} {local-unique: gridColumn_1} {/new GridColumn(grdTable, SWT.NONE)/ /gridColumn_1.setWidth(150)/ /gridColumn_1.setText(""New Column"")/})",1308754388947
error,log,,,"Designer [8.0.0.r36x201009160631]: null argument: com.instantiations.designer.core.databinding.model.SynchronizeManager isn't work ({new: org.eclipse.nebula.widgets.grid.GridColumn} {local-unique: gridColumn_1} {/new GridColumn(grdTable, SWT.NONE)/ /gridColumn_1.setWidth(150)/ /gridColumn_1.setText(""New Column"")/})",1308754388964
started,bundle,org.eclipse.mylyn.java.tasks,3.4.0.v20100608-0100-e3x,"org.eclipse.mylyn.java.tasks",1308754407797
executed,command,org.eclipse.ui,3.6.1.M20100826-1330,"org.eclipse.ui.edit.copy",1308754407885
executed,command,org.eclipse.ui,3.6.1.M20100826-1330,"org.eclipse.ui.edit.paste",1308754409659
executed,command,org.eclipse.ui,3.6.1.M20100826-1330,"org.eclipse.ui.edit.paste",1308754411381
executed,command,org.eclipse.ui,3.6.1.M20100826-1330,"org.eclipse.ui.file.save",1308754432002
deactivated,workbench,org.eclipse.ui.workbench,3.6.1.M20100826-1330,"",1308754433518
activated,workbench,org.eclipse.ui.workbench,3.6.1.M20100826-1330,"",1308754434788
deactivated,workbench,org.eclipse.ui.workbench,3.6.1.M20100826-1330,"",1308754455460
