what,kind,bundleId,bundleVersion,description,time
executed,command,org.eclipse.ui,3.6.1.M20100826-1330,"org.eclipse.ui.edit.delete",1309228066003
executed,command,org.eclipse.ui,3.6.1.M20100826-1330,"org.eclipse.ui.edit.delete",1309228067506
executed,command,org.eclipse.ui,3.6.1.M20100826-1330,"org.eclipse.ui.edit.delete",1309228087699
executed,command,org.eclipse.ui,3.6.1.M20100826-1330,"org.eclipse.ui.edit.delete",1309228089763
executed,command,org.eclipse.ui,3.6.1.M20100826-1330,"org.eclipse.ui.edit.delete",1309228093202
executed,command,org.eclipse.ui,3.6.1.M20100826-1330,"org.eclipse.ui.edit.delete",1309228094295
executed,command,org.eclipse.ui,3.6.1.M20100826-1330,"org.eclipse.ui.edit.delete",1309228095546
executed,command,org.eclipse.ui,3.6.1.M20100826-1330,"org.eclipse.ui.edit.delete",1309228096549
executed,command,org.eclipse.ui,3.6.1.M20100826-1330,"org.eclipse.ui.edit.delete",1309228105107
executed,command,org.eclipse.ui,3.6.1.M20100826-1330,"org.eclipse.ui.edit.delete",1309228124493
executed,command,org.eclipse.ui,3.6.1.M20100826-1330,"org.eclipse.ui.file.saveAll",1309228129547
executed,command,org.eclipse.ui,3.6.1.M20100826-1330,"org.eclipse.ui.edit.text.contentAssist.proposals",1309228144693
executed,command,org.eclipse.ui,3.6.1.M20100826-1330,"org.eclipse.ui.edit.undo",1309228150687
executed,command,org.eclipse.ui,3.6.1.M20100826-1330,"org.eclipse.ui.edit.text.contentAssist.proposals",1309228155539
executed,command,org.eclipse.ui,3.6.1.M20100826-1330,"org.eclipse.ui.edit.text.contentAssist.proposals",1309228192298
deactivated,workbench,org.eclipse.ui.workbench,3.6.1.M20100826-1330,"",1309228206974
activated,workbench,org.eclipse.ui.workbench,3.6.1.M20100826-1330,"",1309228212296
deactivated,workbench,org.eclipse.ui.workbench,3.6.1.M20100826-1330,"",1309228219812
activated,workbench,org.eclipse.ui.workbench,3.6.1.M20100826-1330,"",1309228222146
executed,command,org.eclipse.ui,3.6.1.M20100826-1330,"org.eclipse.ui.edit.text.contentAssist.proposals",1309228231556
executed,command,org.eclipse.ui.workbench.texteditor,3.6.1.r361_v20100714-0800,"org.eclipse.ui.edit.text.goto.lineEnd",1309228240315
executed,command,org.eclipse.ui,3.6.1.M20100826-1330,"org.eclipse.ui.edit.text.contentAssist.proposals",1309228255028
deactivated,workbench,org.eclipse.ui.workbench,3.6.1.M20100826-1330,"",1309228295652
activated,workbench,org.eclipse.ui.workbench,3.6.1.M20100826-1330,"",1309228297538
executed,command,org.eclipse.ui,3.6.1.M20100826-1330,"org.eclipse.ui.file.save",1309228302923
executed,command,org.eclipse.jdt.ui,3.6.1.r361_v20100825-0800,"org.eclipse.jdt.ui.edit.text.java.toggle.comment",1309228307644
activated,editor,com.instantiations.designer.core,8.0.0.r36x201009160631,"com.instantiations.designer.core.guiEditor",1309228313900
executed,command,org.eclipse.ui,3.6.1.M20100826-1330,"org.eclipse.ui.file.saveAll",1309228316858
deactivated,workbench,org.eclipse.ui.workbench,3.6.1.M20100826-1330,"",1309228319787
activated,workbench,org.eclipse.ui.workbench,3.6.1.M20100826-1330,"",1309228319943
executed,command,org.eclipse.ui,3.6.1.M20100826-1330,"org.eclipse.ui.edit.text.contentAssist.proposals",1309228330638
executed,command,org.eclipse.ui,3.6.1.M20100826-1330,"org.eclipse.ui.edit.delete",1309228335155
executed,command,org.eclipse.ui,3.6.1.M20100826-1330,"org.eclipse.ui.edit.delete",1309228335607
executed,command,org.eclipse.ui,3.6.1.M20100826-1330,"org.eclipse.ui.file.save",1309228338221
deactivated,workbench,org.eclipse.ui.workbench,3.6.1.M20100826-1330,"",1309228344007
activated,workbench,org.eclipse.ui.workbench,3.6.1.M20100826-1330,"",1309228346339
activated,view,org.eclipse.ui.console,3.5.0.v20100526,"org.eclipse.ui.console.ConsoleView",1309228346369
deactivated,workbench,org.eclipse.ui.workbench,3.6.1.M20100826-1330,"",1309228391322
activated,workbench,org.eclipse.ui.workbench,3.6.1.M20100826-1330,"",1309228392644
started,bundle,org.eclipse.wst.jsdt.debug.core,1.0.1.v201008170101,"org.eclipse.wst.jsdt.debug.core",1309228392732
activated,editor,com.instantiations.designer.core,8.0.0.r36x201009160631,"com.instantiations.designer.core.guiEditor",1309228392771
closed,workbench,org.eclipse.ui.workbench,3.6.1.M20100826-1330,"",1309228393070
stopped,bundle,org.eclipse.jst.j2ee.xdoclet.runtime,1.1.300.v201004280700,"org.eclipse.jst.j2ee.xdoclet.runtime",1309228393721
stopped,bundle,org.eclipse.jst.j2ee.ejb.annotations.xdoclet,1.2.100.v201003112036,"org.eclipse.jst.j2ee.ejb.annotations.xdoclet",1309228393739
stopped,bundle,org.eclipse.jst.server.generic.jboss,1.6.1.v200904151730,"org.eclipse.jst.server.generic.jboss",1309228393773
stopped,bundle,org.eclipse.jst.server.generic.jonas,1.5.205.v200805140145,"org.eclipse.jst.server.generic.jonas",1309228393795
stopped,bundle,org.eclipse.jst.server.generic.oc4j,1.5.206.v20090812,"org.eclipse.jst.server.generic.oc4j",1309228393814
stopped,bundle,org.eclipse.jst.server.websphere.core,1.0.302.v20080620,"org.eclipse.jst.server.websphere.core",1309228393842
stopped,bundle,org.eclipse.jst.server.generic.ui,1.0.505.v20100428,"org.eclipse.jst.server.generic.ui",1309228393871
stopped,bundle,org.eclipse.jst.server.generic.core,1.0.606.v20100512,"org.eclipse.jst.server.generic.core",1309228393901
stopped,bundle,org.eclipse.mylyn.ide.ant,3.4.0.v20100608-0100-e3x,"org.eclipse.mylyn.ide.ant",1309228393915
activated,perspective,org.eclipse.debug.ui,,"org.eclipse.debug.ui.DebugPerspective",1309234003001
started,bundle,org.eclipse.osgi,3.6.1.R36x_v20100806,"org.eclipse.osgi",1309234003003
started,bundle,org.eclipse.equinox.simpleconfigurator,1.0.200.v20100503,"org.eclipse.equinox.simpleconfigurator",1309234003005
started,bundle,com.ibm.icu,4.2.1.v20100412,"com.ibm.icu",1309234003006
started,bundle,org.eclipse.compare.core,3.5.100.I20100526-0800,"org.eclipse.compare.core",1309234003062
started,bundle,org.eclipse.core.contenttype,3.4.100.v20100505-1235,"org.eclipse.core.contenttype",1309234003064
started,bundle,org.eclipse.core.databinding.observable,1.3.0.I20100601-0800,"org.eclipse.core.databinding.observable",1309234003114
started,bundle,org.eclipse.core.expressions,3.4.200.v20100505,"org.eclipse.core.expressions",1309234003115
started,bundle,org.eclipse.core.filebuffers,3.5.100.v20100520-0800,"org.eclipse.core.filebuffers",1309234003117
started,bundle,org.eclipse.core.filesystem,1.3.1.R36x_v20100727-0745,"org.eclipse.core.filesystem",1309234003121
started,bundle,org.eclipse.core.jobs,3.5.1.R36x_v20100824,"org.eclipse.core.jobs",1309234003122
started,bundle,org.eclipse.core.net,1.2.100.I20100511-0800,"org.eclipse.core.net",1309234003124
started,bundle,org.eclipse.core.resources,3.6.0.R36x_v20100825-0600,"org.eclipse.core.resources",1309234003130
started,bundle,org.eclipse.core.runtime,3.6.0.v20100505,"org.eclipse.core.runtime",1309234003140
started,bundle,org.eclipse.core.runtime.compatibility,3.2.100.v20100505,"org.eclipse.core.runtime.compatibility",1309234003144
started,bundle,org.eclipse.core.runtime.compatibility.auth,3.2.200.v20100517,"org.eclipse.core.runtime.compatibility.auth",1309234003166
started,bundle,org.eclipse.core.variables,3.2.400.v20100505,"org.eclipse.core.variables",1309234003167
started,bundle,org.eclipse.debug.core,3.6.0.v20100519,"org.eclipse.debug.core",1309234003171
started,bundle,org.eclipse.debug.ui,3.6.1.v20100901_r361,"org.eclipse.debug.ui",1309234003174
started,bundle,org.eclipse.emf.common,2.6.0.v20100914-1218,"org.eclipse.emf.common",1309234003176
started,bundle,org.eclipse.emf.ecore,2.6.1.v20100914-1218,"org.eclipse.emf.ecore",1309234003331
started,bundle,org.eclipse.epp.usagedata.gathering,1.3.0.R201005261100,"org.eclipse.epp.usagedata.gathering",1309234003368
started,bundle,org.eclipse.epp.usagedata.recording,1.3.0.R201005261100,"org.eclipse.epp.usagedata.recording",1309234003369
started,bundle,org.eclipse.equinox.app,1.3.1.R36x_v20100803,"org.eclipse.equinox.app",1309234003371
started,bundle,org.eclipse.equinox.common,3.6.0.v20100503,"org.eclipse.equinox.common",1309234003375
started,bundle,org.eclipse.equinox.ds,1.2.1.R36x_v20100803,"org.eclipse.equinox.ds",1309234003377
started,bundle,org.eclipse.equinox.event,1.2.0.v20100503,"org.eclipse.equinox.event",1309234003380
started,bundle,org.eclipse.equinox.frameworkadmin,2.0.0.v20100503,"org.eclipse.equinox.frameworkadmin",1309234003420
started,bundle,org.eclipse.equinox.p2.core,2.0.2.R36x_v20100804,"org.eclipse.equinox.p2.core",1309234003447
started,bundle,org.eclipse.equinox.p2.directorywatcher,1.0.202.R36x_v20100727,"org.eclipse.equinox.p2.directorywatcher",1309234003476
started,bundle,org.eclipse.equinox.p2.engine,2.0.0.v20100606,"org.eclipse.equinox.p2.engine",1309234003477
started,bundle,org.eclipse.equinox.p2.metadata,2.0.0.v20100601,"org.eclipse.equinox.p2.metadata",1309234003519
started,bundle,org.eclipse.equinox.p2.metadata.repository,1.1.0.v20100513,"org.eclipse.equinox.p2.metadata.repository",1309234003521
started,bundle,org.eclipse.equinox.p2.operations,2.0.0.v20100510,"org.eclipse.equinox.p2.operations",1309234003526
started,bundle,org.eclipse.equinox.p2.reconciler.dropins,1.1.0.v20100525,"org.eclipse.equinox.p2.reconciler.dropins",1309234003554
started,bundle,org.eclipse.equinox.p2.repository,2.0.1.R36x_v20100823,"org.eclipse.equinox.p2.repository",1309234003594
started,bundle,org.eclipse.equinox.p2.ui.sdk.scheduler,1.0.0.v20100507-1815,"org.eclipse.equinox.p2.ui.sdk.scheduler",1309234003606
started,bundle,org.eclipse.equinox.p2.updatechecker,1.1.101.R36x_v20100823,"org.eclipse.equinox.p2.updatechecker",1309234003612
started,bundle,org.eclipse.equinox.preferences,3.3.0.v20100503,"org.eclipse.equinox.preferences",1309234003718
started,bundle,org.eclipse.equinox.registry,3.5.0.v20100503,"org.eclipse.equinox.registry",1309234003721
started,bundle,org.eclipse.equinox.security,1.0.200.v20100503,"org.eclipse.equinox.security",1309234003728
started,bundle,org.eclipse.equinox.simpleconfigurator.manipulator,2.0.0.v20100503,"org.eclipse.equinox.simpleconfigurator.manipulator",1309234003730
started,bundle,org.eclipse.equinox.util,1.0.200.v20100503,"org.eclipse.equinox.util",1309234003752
started,bundle,org.eclipse.help,3.5.0.v20100524,"org.eclipse.help",1309234003754
started,bundle,org.eclipse.jdt.apt.core,3.3.401.R36_v20100727-0110,"org.eclipse.jdt.apt.core",1309234003755
started,bundle,org.eclipse.jdt.apt.pluggable.core,1.0.301.R36_v20100727-0110,"org.eclipse.jdt.apt.pluggable.core",1309234003757
started,bundle,org.eclipse.jdt.core,3.6.1.v_A68_R36x,"org.eclipse.jdt.core",1309234003820
started,bundle,org.eclipse.jdt.core.manipulation,1.3.0.v20100520-0800,"org.eclipse.jdt.core.manipulation",1309234003822
started,bundle,org.eclipse.jdt.debug,3.6.1.v20100715_r361,"org.eclipse.jdt.debug",1309234003828
started,bundle,org.eclipse.jdt.debug.ui,3.5.0.v20100602-0830,"org.eclipse.jdt.debug.ui",1309234003828
started,bundle,org.eclipse.jdt.launching,3.5.100.v20100526,"org.eclipse.jdt.launching",1309234003830
started,bundle,org.eclipse.jdt.ui,3.6.1.r361_v20100825-0800,"org.eclipse.jdt.ui",1309234003830
started,bundle,org.eclipse.jface,3.6.1.M20100825-0800,"org.eclipse.jface",1309234003890
started,bundle,org.eclipse.jst.ws.jaxws.utils,1.0.0.v201004171919,"org.eclipse.jst.ws.jaxws.utils",1309234003970
started,bundle,org.eclipse.ltk.core.refactoring,3.5.100.v20100526-0800,"org.eclipse.ltk.core.refactoring",1309234003973
started,bundle,org.eclipse.ltk.ui.refactoring,3.5.0.v20100526-0800,"org.eclipse.ltk.ui.refactoring",1309234003998
started,bundle,org.eclipse.mylyn.bugzilla.core,3.4.2.v20100902-0100-e3x,"org.eclipse.mylyn.bugzilla.core",1309234004032
started,bundle,org.eclipse.mylyn.bugzilla.ui,3.4.2.v20100909-0100-e3x,"org.eclipse.mylyn.bugzilla.ui",1309234004034
started,bundle,org.eclipse.mylyn.commons.net,3.4.1.v20100625-2100-e3x,"org.eclipse.mylyn.commons.net",1309234004034
started,bundle,org.eclipse.mylyn.commons.ui,3.4.0.v20100608-0100-e3x,"org.eclipse.mylyn.commons.ui",1309234004035
started,bundle,org.eclipse.mylyn.monitor.ui,3.4.0.v20100608-0100-e3x,"org.eclipse.mylyn.monitor.ui",1309234004036
started,bundle,org.eclipse.pde,3.6.1.v201009090800,"org.eclipse.pde",1309234004037
started,bundle,org.eclipse.pde.core,3.6.1.v20100902_r361,"org.eclipse.pde.core",1309234004039
started,bundle,org.eclipse.team.core,3.5.100.R36x_v20100825-0800,"org.eclipse.team.core",1309234004107
started,bundle,org.eclipse.ui,3.6.1.M20100826-1330,"org.eclipse.ui",1309234004112
started,bundle,org.eclipse.ui.editors,3.6.1.r361_v20100825-0800,"org.eclipse.ui.editors",1309234004112
started,bundle,org.eclipse.ui.forms,3.5.2.r36_v20100702,"org.eclipse.ui.forms",1309234004138
started,bundle,org.eclipse.ui.ide,3.6.1.M20100825-0800,"org.eclipse.ui.ide",1309234004173
started,bundle,org.eclipse.ui.net,1.2.100.I20100505-1245,"org.eclipse.ui.net",1309234004174
started,bundle,org.eclipse.ui.views,3.5.0.I20100527-0800,"org.eclipse.ui.views",1309234004175
started,bundle,org.eclipse.ui.workbench,3.6.1.M20100826-1330,"org.eclipse.ui.workbench",1309234004179
started,bundle,org.eclipse.ui.workbench.texteditor,3.6.1.r361_v20100714-0800,"org.eclipse.ui.workbench.texteditor",1309234004234
started,bundle,org.eclipse.wst.common.project.facet.core,1.4.102.v201008170019,"org.eclipse.wst.common.project.facet.core",1309234004304
started,bundle,org.eclipse.wst.web,1.1.401.v201007151900,"org.eclipse.wst.web",1309234004360
started,bundle,com.instantiations.common.core,6.0.0.r36x201009131414,"com.instantiations.common.core",1309234004378
started,bundle,com.instantiations.designer.core,8.0.0.r36x201009160631,"com.instantiations.designer.core",1309234004381
started,bundle,com.instantiations.designer.core.databinding,8.0.0.r36x201009160631,"com.instantiations.designer.core.databinding",1309234004382
started,bundle,com.instantiations.designer.core.lib,8.0.0.r36x201009160631,"com.instantiations.designer.core.lib",1309234004385
started,bundle,com.instantiations.designer.gwt,8.0.0.r36x201009160831,"com.instantiations.designer.gwt",1309234004387
started,bundle,com.instantiations.designer.gxt.databinding,8.0.0.r36x201009160831,"com.instantiations.designer.gxt.databinding",1309234004388
started,bundle,com.instantiations.designer.rcp.databinding,8.0.0.r36x201009160649,"com.instantiations.designer.rcp.databinding",1309234004389
started,bundle,com.instantiations.designer.swing.databinding,8.0.0.r36x201009160643,"com.instantiations.designer.swing.databinding",1309234004391
started,bundle,com.instantiations.eclipse.ui,8.0.0.r36x201009131432,"com.instantiations.eclipse.ui",1309234004393
os,sysinfo,,,"win32",1309234004398
arch,sysinfo,,,"x86",1309234004398
ws,sysinfo,,,"win32",1309234004398
locale,sysinfo,,,"en_US",1309234004398
processors,sysinfo,,,"2",1309234004398
java.runtime.name,sysinfo,,,"Java(TM) SE Runtime Environment",1309234004398
java.runtime.version,sysinfo,,,"1.6.0_24-b07",1309234004398
java.specification.name,sysinfo,,,"Java Platform API Specification",1309234004398
java.specification.vendor,sysinfo,,,"Sun Microsystems Inc.",1309234004398
java.specification.version,sysinfo,,,"1.6",1309234004398
java.vendor,sysinfo,,,"Sun Microsystems Inc.",1309234004398
java.version,sysinfo,,,"1.6.0_24",1309234004398
java.vm.info,sysinfo,,,"mixed mode, sharing",1309234004398
java.vm.name,sysinfo,,,"Java HotSpot(TM) Client VM",1309234004398
java.vm.specification.name,sysinfo,,,"Java Virtual Machine Specification",1309234004398
java.vm.specification.vendor,sysinfo,,,"Sun Microsystems Inc.",1309234004398
java.vm.specification.version,sysinfo,,,"1.0",1309234004398
java.vm.vendor,sysinfo,,,"Sun Microsystems Inc.",1309234004398
java.vm.version,sysinfo,,,"19.1-b02",1309234004398
started,bundle,org.eclipse.mylyn.tasks.ui,3.4.2.v20100902-0100-e3x,"org.eclipse.mylyn.tasks.ui",1309234004790
started,bundle,org.eclipse.mylyn.team.ui,3.4.2.v20100909-0100-e3x,"org.eclipse.mylyn.team.ui",1309234004975
started,bundle,org.eclipse.update.scheduler,3.2.300.v20100512,"org.eclipse.update.scheduler",1309234004977
started,bundle,org.eclipse.jst.common.project.facet.core,1.4.102.v201008182136,"org.eclipse.jst.common.project.facet.core",1309234005761
started,bundle,org.eclipse.jst.ws.jaxrs.core,1.0.200.v201008201800,"org.eclipse.jst.ws.jaxrs.core",1309234005766
started,bundle,org.eclipse.update.configurator,3.3.100.v20100512,"org.eclipse.update.configurator",1309234005999
started,bundle,org.eclipse.update.core,3.2.402.R36x_v20100629,"org.eclipse.update.core",1309234006001
started,bundle,com.instantiations.designer.rcp,8.0.0.r36x201009160649,"com.instantiations.designer.rcp",1309234006040
started,bundle,com.instantiations.designer.swt,8.0.0.r36x201009160641,"com.instantiations.designer.swt",1309234006045
started,bundle,com.instantiations.designer.swing,8.0.0.r36x201009160643,"com.instantiations.designer.swing",1309234006078
started,bundle,com.instantiations.designer.core.xml,8.0.0.r36x201009160634,"com.instantiations.designer.core.xml",1309234006359
started,bundle,com.instantiations.designer.gwt.ExtGWT,8.0.0.r36x201009160831,"com.instantiations.designer.gwt.ExtGWT",1309234006376
started,bundle,com.instantiations.designer.gwt.SmartGWT,8.0.0.r36x201009160831,"com.instantiations.designer.gwt.SmartGWT",1309234006379
started,bundle,com.instantiations.designer.gwt.UiBinder,8.0.0.r36x201009160831,"com.instantiations.designer.gwt.UiBinder",1309234006423
started,bundle,com.instantiations.eclipse.debug,6.0.0.r36x201009131414,"com.instantiations.eclipse.debug",1309234006475
started,bundle,com.instantiations.eclipse.util,6.0.0.r36x201009131414,"com.instantiations.eclipse.util",1309234006482
started,bundle,com.instantiations.eclipse.startup,6.0.0.r36x201009131414,"com.instantiations.eclipse.startup",1309234006653
started,bundle,com.instantiations.eclipse.usageprofiler,6.0.0.r36x201009131414,"com.instantiations.eclipse.usageprofiler",1309234006661
started,bundle,com.instantiations.eclipse.usageprofiler.ui,6.0.0.r36x201009131414,"com.instantiations.eclipse.usageprofiler.ui",1309234007095
started,bundle,com.instantiations.j2ee,8.0.0.r36x201009140724,"com.instantiations.j2ee",1309234007106
started,bundle,org.eclipse.jsch.core,1.1.200.I20100505-1245,"org.eclipse.jsch.core",1309234009745
started,bundle,org.eclipse.team.cvs.core,3.3.300.I20100526-0800,"org.eclipse.team.cvs.core",1309234009908
started,bundle,org.eclipse.team.ui,3.5.101.R36x_v20100825-0800,"org.eclipse.team.ui",1309234010024
started,bundle,org.eclipse.ui.console,3.5.0.v20100526,"org.eclipse.ui.console",1309234010726
started,bundle,org.eclipse.team.cvs.ui,3.3.301.R36x_v20100825-0800,"org.eclipse.team.cvs.ui",1309234011529
started,bundle,org.eclipse.jdt.junit,3.6.1.r361_v20100825-0800,"org.eclipse.jdt.junit",1309234078407
deactivated,workbench,org.eclipse.ui.workbench,3.6.1.M20100826-1330,"",1309234087702
activated,workbench,org.eclipse.ui.workbench,3.6.1.M20100826-1330,"",1309235477056
deactivated,workbench,org.eclipse.ui.workbench,3.6.1.M20100826-1330,"",1309235478932
started,bundle,com.instantiations.designer.runtime.lib,8.0.0.r36x201009160631,"com.instantiations.designer.runtime.lib",1309235479150
started,bundle,com.instantiations.designer.gwt.GWTExt,8.0.0.r36x201009160831,"com.instantiations.designer.gwt.GWTExt",1309235479771
started,bundle,com.instantiations.designer.rcp.nebula,8.0.0.r36x201009160649,"com.instantiations.designer.rcp.nebula",1309235479803
started,bundle,com.instantiations.designer.swing.FormLayout,8.0.0.r36x201009160643,"com.instantiations.designer.swing.FormLayout",1309235479856
started,bundle,com.instantiations.designer.swing.hc,8.0.0.r36x201009160643,"com.instantiations.designer.swing.hc",1309235479860
started,bundle,com.instantiations.designer.xwt,8.0.0.r36x201009160656,"com.instantiations.designer.xwt",1309235479903
started,bundle,com.instantiations.designer.core.api,8.0.0.r36x201009160631,"com.instantiations.designer.core.api",1309235480363
started,bundle,com.instantiations.designer.core.apiImpl,8.0.0.r36x201009160631,"com.instantiations.designer.core.apiImpl",1309235481066
started,bundle,com.instantiations.designer.os,8.0.0.r36x201009160631,"com.instantiations.designer.os",1309235481888
started,bundle,com.instantiations.designer.rcp.databinding.emf,8.0.0.r36x201009160649,"com.instantiations.designer.rcp.databinding.emf",1309235484353
started,bundle,org.eclipse.pde.launching,3.6.0.v20100601,"org.eclipse.pde.launching",1309235484936
started,bundle,org.eclipse.ui.views.log,1.0.100.v20100423,"org.eclipse.ui.views.log",1309235484967
started,bundle,org.eclipse.pde.ui,3.6.1.v20100810_r361,"org.eclipse.pde.ui",1309235484986
started,bundle,com.instantiations.designer.os.win32,8.0.0.r36x201009160631,"com.instantiations.designer.os.win32",1309235485521
started,bundle,com.instantiations.designer.rcp.GroupLayout,8.0.0.r36x201009160649,"com.instantiations.designer.rcp.GroupLayout",1309235486191
started,bundle,com.instantiations.designer.layout.group,8.0.0.r36x201009160635,"com.instantiations.designer.layout.group",1309235486215
started,bundle,com.instantiations.designer.rcp.swing2swt,8.0.0.r36x201009160649,"com.instantiations.designer.rcp.swing2swt",1309235486221
started,bundle,com.instantiations.designer.swing.MigLayout.lib,8.0.0.r36x201009160643,"com.instantiations.designer.swing.MigLayout.lib",1309235486297
started,bundle,com.instantiations.designer.swing.MigLayout,8.0.0.r36x201009160643,"com.instantiations.designer.swing.MigLayout",1309235486300
started,bundle,com.instantiations.designer.swing.java6,8.0.0.r36x201009160643,"com.instantiations.designer.swing.java6",1309235486302
started,bundle,com.instantiations.designer.rcp.SWT_AWT,8.0.0.r36x201009160651,"com.instantiations.designer.rcp.SWT_AWT",1309235487514
activated,workbench,org.eclipse.ui.workbench,3.6.1.M20100826-1330,"",1309235487929
deactivated,workbench,org.eclipse.ui.workbench,3.6.1.M20100826-1330,"",1309235487952
activated,workbench,org.eclipse.ui.workbench,3.6.1.M20100826-1330,"",1309235529658
started,bundle,com.instantiations.designer.swing.ams,8.0.0.r36x201009160643,"com.instantiations.designer.swing.ams",1309235564807
deactivated,workbench,org.eclipse.ui.workbench,3.6.1.M20100826-1330,"",1309235649434
activated,workbench,org.eclipse.ui.workbench,3.6.1.M20100826-1330,"",1309235649610
started,bundle,org.eclipse.mylyn.java.tasks,3.4.0.v20100608-0100-e3x,"org.eclipse.mylyn.java.tasks",1309235651893
executed,command,org.eclipse.ui,3.6.1.M20100826-1330,"org.eclipse.ui.edit.delete",1309235656080
started,bundle,org.eclipse.wst.server.core,1.1.204.v20100908,"org.eclipse.wst.server.core",1309235668792
started,bundle,org.eclipse.wst.server.ui,1.1.205.v20100908,"org.eclipse.wst.server.ui",1309235668844
started,bundle,org.eclipse.wst.jsdt.debug.ui,1.0.1.v201008170101,"org.eclipse.wst.jsdt.debug.ui",1309235668932
started,bundle,org.eclipse.wst.common.frameworks,1.2.0.v201003040800,"org.eclipse.wst.common.frameworks",1309235669797
started,bundle,org.eclipse.wst.common.emf,1.2.1.v201008260500,"org.eclipse.wst.common.emf",1309235669823
started,bundle,org.eclipse.jem.util,2.1.2.v201008120100,"org.eclipse.jem.util",1309235669831
started,bundle,org.eclipse.wst.common.emfworkbench.integration,1.2.2.v201008242000,"org.eclipse.wst.common.emfworkbench.integration",1309235669836
started,bundle,org.eclipse.wst.common.core,1.2.0.v200908252030,"org.eclipse.wst.common.core",1309235669866
started,bundle,org.eclipse.wst.common.modulecore,1.2.3.v201008242000,"org.eclipse.wst.common.modulecore",1309235669872
started,bundle,org.eclipse.jst.j2ee.core,1.2.2.v201008120100,"org.eclipse.jst.j2ee.core",1309235669879
started,bundle,org.eclipse.jem,2.0.400.v201005110200,"org.eclipse.jem",1309235669897
started,bundle,org.eclipse.wst.common.frameworks.ui,1.2.0.v201004080500,"org.eclipse.wst.common.frameworks.ui",1309235669925
started,bundle,org.eclipse.wst.xml.core,1.1.502.v201009010342,"org.eclipse.wst.xml.core",1309235669930
started,bundle,org.eclipse.wst.validation,1.2.200.v201005271900,"org.eclipse.wst.validation",1309235669945
started,bundle,org.eclipse.jst.j2ee,1.1.402.v201009151730,"org.eclipse.jst.j2ee",1309235669976
started,bundle,org.eclipse.jst.server.core,1.2.101.v20100421,"org.eclipse.jst.server.core",1309235669995
started,bundle,org.eclipse.jst.jee,1.0.301.v201007151900,"org.eclipse.jst.jee",1309235670036
deactivated,workbench,org.eclipse.ui.workbench,3.6.1.M20100826-1330,"",1309235676656
opened,view,org.eclipse.ui.console,3.5.0.v20100526,"org.eclipse.ui.console.ConsoleView",1309235678913
activated,workbench,org.eclipse.ui.workbench,3.6.1.M20100826-1330,"",1309235678952
activated,view,org.eclipse.ui.console,3.5.0.v20100526,"org.eclipse.ui.console.ConsoleView",1309235678969
activated,editor,com.instantiations.designer.core,8.0.0.r36x201009160631,"com.instantiations.designer.core.guiEditor",1309236007299
started,bundle,org.eclipse.mylyn.ide.ui,3.4.0.v20100608-0100-e3x,"org.eclipse.mylyn.ide.ui",1309236014676
started,bundle,org.eclipse.jst.ws.jaxws.ui,1.0.1.v201008232129,"org.eclipse.jst.ws.jaxws.ui",1309236014735
started,bundle,org.eclipse.mylyn.java.ui,3.4.0.v20100608-0100-e3x,"org.eclipse.mylyn.java.ui",1309236014756
started,bundle,org.eclipse.pde.api.tools,1.0.202.v20100820_r361,"org.eclipse.pde.api.tools",1309236014926
started,bundle,org.eclipse.pde.api.tools.ui,1.0.201.v20100820_r361,"org.eclipse.pde.api.tools.ui",1309236014940
executed,command,org.eclipse.ui,3.6.1.M20100826-1330,"org.eclipse.ui.edit.text.contentAssist.proposals",1309236015248
executed,command,org.eclipse.ui,3.6.1.M20100826-1330,"org.eclipse.ui.edit.text.contentAssist.proposals",1309236023228
executed,command,org.eclipse.ui,3.6.1.M20100826-1330,"org.eclipse.ui.edit.text.contentAssist.proposals",1309236027168
executed,command,org.eclipse.ui,3.6.1.M20100826-1330,"org.eclipse.ui.edit.text.contentAssist.proposals",1309236030250
executed,command,org.eclipse.ui.workbench.texteditor,3.6.1.r361_v20100714-0800,"org.eclipse.ui.edit.text.goto.lineEnd",1309236035869
deactivated,workbench,org.eclipse.ui.workbench,3.6.1.M20100826-1330,"",1309236048044
activated,workbench,org.eclipse.ui.workbench,3.6.1.M20100826-1330,"",1309236048167
executed,command,org.eclipse.ui,3.6.1.M20100826-1330,"org.eclipse.ui.edit.text.contentAssist.proposals",1309236064696
opened,editor,org.eclipse.jdt.ui,3.6.1.r361_v20100825-0800,"org.eclipse.jdt.ui.CompilationUnitEditor",1309236073585
activated,editor,org.eclipse.jdt.ui,3.6.1.r361_v20100825-0800,"org.eclipse.jdt.ui.CompilationUnitEditor",1309236073740
activated,editor,com.instantiations.designer.core,8.0.0.r36x201009160631,"com.instantiations.designer.core.guiEditor",1309236076296
closed,editor,org.eclipse.jdt.ui,3.6.1.r361_v20100825-0800,"org.eclipse.jdt.ui.CompilationUnitEditor",1309236076297
opened,editor,com.instantiations.designer.core,8.0.0.r36x201009160631,"com.instantiations.designer.core.guiEditor",1309236091236
