what,kind,bundleId,bundleVersion,description,time
activated,workbench,org.eclipse.ui.workbench,3.6.1.M20100826-1330,"",1309708005198
deactivated,workbench,org.eclipse.ui.workbench,3.6.1.M20100826-1330,"",1309708014544
activated,workbench,org.eclipse.ui.workbench,3.6.1.M20100826-1330,"",1309708014567
deactivated,workbench,org.eclipse.ui.workbench,3.6.1.M20100826-1330,"",1309708019120
activated,workbench,org.eclipse.ui.workbench,3.6.1.M20100826-1330,"",1309708019143
activated,view,org.eclipse.ui.console,3.5.0.v20100526,"org.eclipse.ui.console.ConsoleView",1309708038766
deactivated,workbench,org.eclipse.ui.workbench,3.6.1.M20100826-1330,"",1309708039220
activated,workbench,org.eclipse.ui.workbench,3.6.1.M20100826-1330,"",1309708040477
deactivated,workbench,org.eclipse.ui.workbench,3.6.1.M20100826-1330,"",1309708041042
activated,workbench,org.eclipse.ui.workbench,3.6.1.M20100826-1330,"",1309708055049
activated,editor,com.instantiations.designer.core,8.0.0.r36x201009160631,"com.instantiations.designer.core.guiEditor",1309708055085
executed,command,org.eclipse.ui,3.6.1.M20100826-1330,"org.eclipse.ui.edit.delete",1309708056755
deactivated,workbench,org.eclipse.ui.workbench,3.6.1.M20100826-1330,"",1309708067501
activated,workbench,org.eclipse.ui.workbench,3.6.1.M20100826-1330,"",1309708067539
deactivated,workbench,org.eclipse.ui.workbench,3.6.1.M20100826-1330,"",1309708081370
activated,workbench,org.eclipse.ui.workbench,3.6.1.M20100826-1330,"",1309708083167
deactivated,workbench,org.eclipse.ui.workbench,3.6.1.M20100826-1330,"",1309708086119
activated,workbench,org.eclipse.ui.workbench,3.6.1.M20100826-1330,"",1309708087408
deactivated,workbench,org.eclipse.ui.workbench,3.6.1.M20100826-1330,"",1309708103347
activated,workbench,org.eclipse.ui.workbench,3.6.1.M20100826-1330,"",1309708103387
executed,command,org.eclipse.ui,3.6.1.M20100826-1330,"org.eclipse.ui.file.save",1309708110304
activated,view,org.eclipse.ui.console,3.5.0.v20100526,"org.eclipse.ui.console.ConsoleView",1309708117269
deactivated,workbench,org.eclipse.ui.workbench,3.6.1.M20100826-1330,"",1309708117689
activated,workbench,org.eclipse.ui.workbench,3.6.1.M20100826-1330,"",1309708118898
deactivated,workbench,org.eclipse.ui.workbench,3.6.1.M20100826-1330,"",1309708119508
activated,workbench,org.eclipse.ui.workbench,3.6.1.M20100826-1330,"",1309708129827
activated,editor,com.instantiations.designer.core,8.0.0.r36x201009160631,"com.instantiations.designer.core.guiEditor",1309708135823
activated,view,org.eclipse.ui.console,3.5.0.v20100526,"org.eclipse.ui.console.ConsoleView",1309708145253
deactivated,workbench,org.eclipse.ui.workbench,3.6.1.M20100826-1330,"",1309708145562
activated,workbench,org.eclipse.ui.workbench,3.6.1.M20100826-1330,"",1309708146903
deactivated,workbench,org.eclipse.ui.workbench,3.6.1.M20100826-1330,"",1309708147604
activated,workbench,org.eclipse.ui.workbench,3.6.1.M20100826-1330,"",1309708212823
activated,editor,com.instantiations.designer.core,8.0.0.r36x201009160631,"com.instantiations.designer.core.guiEditor",1309708215825
deactivated,workbench,org.eclipse.ui.workbench,3.6.1.M20100826-1330,"",1309708231138
activated,workbench,org.eclipse.ui.workbench,3.6.1.M20100826-1330,"",1309708231171
activated,view,org.eclipse.ui.console,3.5.0.v20100526,"org.eclipse.ui.console.ConsoleView",1309708242865
deactivated,workbench,org.eclipse.ui.workbench,3.6.1.M20100826-1330,"",1309708243297
activated,workbench,org.eclipse.ui.workbench,3.6.1.M20100826-1330,"",1309708244399
deactivated,workbench,org.eclipse.ui.workbench,3.6.1.M20100826-1330,"",1309708244959
activated,workbench,org.eclipse.ui.workbench,3.6.1.M20100826-1330,"",1309708316475
activated,editor,com.instantiations.designer.core,8.0.0.r36x201009160631,"com.instantiations.designer.core.guiEditor",1309708319784
deactivated,workbench,org.eclipse.ui.workbench,3.6.1.M20100826-1330,"",1309708342371
activated,workbench,org.eclipse.ui.workbench,3.6.1.M20100826-1330,"",1309708342405
executed,command,org.eclipse.ui,3.6.1.M20100826-1330,"org.eclipse.ui.file.save",1309708345061
activated,view,org.eclipse.ui.console,3.5.0.v20100526,"org.eclipse.ui.console.ConsoleView",1309708350184
deactivated,workbench,org.eclipse.ui.workbench,3.6.1.M20100826-1330,"",1309708350613
activated,workbench,org.eclipse.ui.workbench,3.6.1.M20100826-1330,"",1309708352481
deactivated,workbench,org.eclipse.ui.workbench,3.6.1.M20100826-1330,"",1309708353064
activated,workbench,org.eclipse.ui.workbench,3.6.1.M20100826-1330,"",1309708413710
activated,editor,com.instantiations.designer.core,8.0.0.r36x201009160631,"com.instantiations.designer.core.guiEditor",1309708413746
executed,command,org.eclipse.ui,3.6.1.M20100826-1330,"org.eclipse.ui.edit.copy",1309708447297
executed,command,org.eclipse.ui,3.6.1.M20100826-1330,"org.eclipse.ui.edit.paste",1309708448211
executed,command,org.eclipse.ui,3.6.1.M20100826-1330,"org.eclipse.ui.file.save",1309708464506
activated,view,org.eclipse.ui.console,3.5.0.v20100526,"org.eclipse.ui.console.ConsoleView",1309708469954
deactivated,workbench,org.eclipse.ui.workbench,3.6.1.M20100826-1330,"",1309708470383
activated,workbench,org.eclipse.ui.workbench,3.6.1.M20100826-1330,"",1309708472095
deactivated,workbench,org.eclipse.ui.workbench,3.6.1.M20100826-1330,"",1309708472660
activated,workbench,org.eclipse.ui.workbench,3.6.1.M20100826-1330,"",1309708516416
activated,editor,com.instantiations.designer.core,8.0.0.r36x201009160631,"com.instantiations.designer.core.guiEditor",1309708517459
executed,command,org.eclipse.ui,3.6.1.M20100826-1330,"org.eclipse.ui.file.save",1309708534625
executed,command,org.eclipse.ui,3.6.1.M20100826-1330,"org.eclipse.ui.edit.cut",1309708546115
executed,command,org.eclipse.ui,3.6.1.M20100826-1330,"org.eclipse.ui.edit.undo",1309708549101
executed,command,org.eclipse.ui,3.6.1.M20100826-1330,"org.eclipse.ui.edit.copy",1309708553464
executed,command,org.eclipse.ui,3.6.1.M20100826-1330,"org.eclipse.ui.edit.copy",1309708553645
executed,command,org.eclipse.ui,3.6.1.M20100826-1330,"org.eclipse.ui.edit.copy",1309708553843
executed,command,org.eclipse.ui,3.6.1.M20100826-1330,"org.eclipse.ui.edit.paste",1309708566543
executed,command,org.eclipse.ui,3.6.1.M20100826-1330,"org.eclipse.ui.edit.copy",1309708585909
executed,command,org.eclipse.ui,3.6.1.M20100826-1330,"org.eclipse.ui.edit.delete",1309708589066
executed,command,org.eclipse.ui,3.6.1.M20100826-1330,"org.eclipse.ui.edit.paste",1309708613653
executed,command,org.eclipse.ui,3.6.1.M20100826-1330,"org.eclipse.ui.file.save",1309708624462
deactivated,workbench,org.eclipse.ui.workbench,3.6.1.M20100826-1330,"",1309708642134
activated,workbench,org.eclipse.ui.workbench,3.6.1.M20100826-1330,"",1309708699126
deactivated,workbench,org.eclipse.ui.workbench,3.6.1.M20100826-1330,"",1309708701983
deactivated,workbench,org.eclipse.ui.workbench,3.6.1.M20100826-1330,"",1309708702462
deactivated,workbench,org.eclipse.ui.workbench,3.6.1.M20100826-1330,"",1309708703301
deactivated,workbench,org.eclipse.ui.workbench,3.6.1.M20100826-1330,"",1309708704490
deactivated,workbench,org.eclipse.ui.workbench,3.6.1.M20100826-1330,"",1309708721686
activated,workbench,org.eclipse.ui.workbench,3.6.1.M20100826-1330,"",1309708729745
deactivated,workbench,org.eclipse.ui.workbench,3.6.1.M20100826-1330,"",1309708733468
activated,workbench,org.eclipse.ui.workbench,3.6.1.M20100826-1330,"",1309708814357
deactivated,workbench,org.eclipse.ui.workbench,3.6.1.M20100826-1330,"",1309708820965
activated,workbench,org.eclipse.ui.workbench,3.6.1.M20100826-1330,"",1309708823080
executed,command,org.eclipse.jdt.ui,3.6.1.r361_v20100825-0800,"org.eclipse.jdt.ui.edit.text.java.toggle.comment",1309708841051
executed,command,org.eclipse.ui,3.6.1.M20100826-1330,"org.eclipse.ui.edit.text.contentAssist.proposals",1309708849244
executed,command,org.eclipse.ui,3.6.1.M20100826-1330,"org.eclipse.ui.edit.copy",1309708869945
executed,command,org.eclipse.ui,3.6.1.M20100826-1330,"org.eclipse.ui.edit.copy",1309708870263
executed,command,org.eclipse.ui,3.6.1.M20100826-1330,"org.eclipse.ui.edit.copy",1309708870508
executed,command,org.eclipse.ui,3.6.1.M20100826-1330,"org.eclipse.ui.edit.copy",1309708870684
executed,command,org.eclipse.ui,3.6.1.M20100826-1330,"org.eclipse.ui.edit.copy",1309708870863
executed,command,org.eclipse.ui,3.6.1.M20100826-1330,"org.eclipse.ui.edit.paste",1309708876244
executed,command,org.eclipse.ui,3.6.1.M20100826-1330,"org.eclipse.ui.edit.text.contentAssist.proposals",1309708885440
executed,command,org.eclipse.ui,3.6.1.M20100826-1330,"org.eclipse.ui.file.save",1309708899850
activated,view,org.eclipse.ui.console,3.5.0.v20100526,"org.eclipse.ui.console.ConsoleView",1309708907630
deactivated,workbench,org.eclipse.ui.workbench,3.6.1.M20100826-1330,"",1309708908033
activated,workbench,org.eclipse.ui.workbench,3.6.1.M20100826-1330,"",1309708909443
deactivated,workbench,org.eclipse.ui.workbench,3.6.1.M20100826-1330,"",1309708909988
activated,workbench,org.eclipse.ui.workbench,3.6.1.M20100826-1330,"",1309708964491
deactivated,workbench,org.eclipse.ui.workbench,3.6.1.M20100826-1330,"",1309708979760
activated,workbench,org.eclipse.ui.workbench,3.6.1.M20100826-1330,"",1309709022946
activated,editor,com.instantiations.designer.core,8.0.0.r36x201009160631,"com.instantiations.designer.core.guiEditor",1309709023172
deactivated,workbench,org.eclipse.ui.workbench,3.6.1.M20100826-1330,"",1309709027815
activated,workbench,org.eclipse.ui.workbench,3.6.1.M20100826-1330,"",1309709029849
executed,command,org.eclipse.ui,3.6.1.M20100826-1330,"org.eclipse.ui.edit.text.contentAssist.proposals",1309709075309
deactivated,workbench,org.eclipse.ui.workbench,3.6.1.M20100826-1330,"",1309709092404
activated,workbench,org.eclipse.ui.workbench,3.6.1.M20100826-1330,"",1309709092950
executed,command,org.eclipse.ui,3.6.1.M20100826-1330,"org.eclipse.ui.edit.delete",1309709094566
activated,view,org.eclipse.ui.console,3.5.0.v20100526,"org.eclipse.ui.console.ConsoleView",1309709114812
deactivated,workbench,org.eclipse.ui.workbench,3.6.1.M20100826-1330,"",1309709115301
activated,workbench,org.eclipse.ui.workbench,3.6.1.M20100826-1330,"",1309709116583
deactivated,workbench,org.eclipse.ui.workbench,3.6.1.M20100826-1330,"",1309709117128
activated,workbench,org.eclipse.ui.workbench,3.6.1.M20100826-1330,"",1309709188330
activated,editor,com.instantiations.designer.core,8.0.0.r36x201009160631,"com.instantiations.designer.core.guiEditor",1309709188487
deactivated,workbench,org.eclipse.ui.workbench,3.6.1.M20100826-1330,"",1309709220354
activated,workbench,org.eclipse.ui.workbench,3.6.1.M20100826-1330,"",1309709222326
executed,command,org.eclipse.ui,3.6.1.M20100826-1330,"org.eclipse.ui.edit.text.contentAssist.proposals",1309709238327
executed,command,org.eclipse.ui,3.6.1.M20100826-1330,"org.eclipse.ui.edit.delete",1309709244678
executed,command,org.eclipse.ui,3.6.1.M20100826-1330,"org.eclipse.ui.file.save",1309709253543
deactivated,workbench,org.eclipse.ui.workbench,3.6.1.M20100826-1330,"",1309709276976
activated,workbench,org.eclipse.ui.workbench,3.6.1.M20100826-1330,"",1309709298136
activated,view,org.eclipse.ui.console,3.5.0.v20100526,"org.eclipse.ui.console.ConsoleView",1309709303424
deactivated,workbench,org.eclipse.ui.workbench,3.6.1.M20100826-1330,"",1309709303829
activated,workbench,org.eclipse.ui.workbench,3.6.1.M20100826-1330,"",1309709309528
deactivated,workbench,org.eclipse.ui.workbench,3.6.1.M20100826-1330,"",1309709310121
activated,workbench,org.eclipse.ui.workbench,3.6.1.M20100826-1330,"",1309709342599
activated,editor,com.instantiations.designer.core,8.0.0.r36x201009160631,"com.instantiations.designer.core.guiEditor",1309709345124
deactivated,workbench,org.eclipse.ui.workbench,3.6.1.M20100826-1330,"",1309709346891
activated,workbench,org.eclipse.ui.workbench,3.6.1.M20100826-1330,"",1309709460108
deactivated,workbench,org.eclipse.ui.workbench,3.6.1.M20100826-1330,"",1309709470652
activated,workbench,org.eclipse.ui.workbench,3.6.1.M20100826-1330,"",1309709480739
deactivated,workbench,org.eclipse.ui.workbench,3.6.1.M20100826-1330,"",1309709484628
activated,workbench,org.eclipse.ui.workbench,3.6.1.M20100826-1330,"",1309709486682
deactivated,workbench,org.eclipse.ui.workbench,3.6.1.M20100826-1330,"",1309709497790
activated,workbench,org.eclipse.ui.workbench,3.6.1.M20100826-1330,"",1309709596637
activated,view,org.eclipse.ui.console,3.5.0.v20100526,"org.eclipse.ui.console.ConsoleView",1309709602773
deactivated,workbench,org.eclipse.ui.workbench,3.6.1.M20100826-1330,"",1309709603222
activated,workbench,org.eclipse.ui.workbench,3.6.1.M20100826-1330,"",1309709604939
deactivated,workbench,org.eclipse.ui.workbench,3.6.1.M20100826-1330,"",1309709605500
activated,workbench,org.eclipse.ui.workbench,3.6.1.M20100826-1330,"",1309709610830
activated,editor,com.instantiations.designer.core,8.0.0.r36x201009160631,"com.instantiations.designer.core.guiEditor",1309709612496
executed,command,org.eclipse.ui,3.6.1.M20100826-1330,"org.eclipse.ui.edit.text.contentAssist.proposals",1309709627663
executed,command,org.eclipse.ui,3.6.1.M20100826-1330,"org.eclipse.ui.edit.text.contentAssist.proposals",1309709637825
executed,command,org.eclipse.ui,3.6.1.M20100826-1330,"org.eclipse.ui.edit.copy",1309709647077
executed,command,org.eclipse.ui,3.6.1.M20100826-1330,"org.eclipse.ui.edit.copy",1309709647321
executed,command,org.eclipse.ui,3.6.1.M20100826-1330,"org.eclipse.ui.edit.paste",1309709650455
executed,command,org.eclipse.ui,3.6.1.M20100826-1330,"org.eclipse.ui.edit.delete",1309709689978
deactivated,workbench,org.eclipse.ui.workbench,3.6.1.M20100826-1330,"",1309709692096
activated,workbench,org.eclipse.ui.workbench,3.6.1.M20100826-1330,"",1309709694943
deactivated,workbench,org.eclipse.ui.workbench,3.6.1.M20100826-1330,"",1309709707601
activated,workbench,org.eclipse.ui.workbench,3.6.1.M20100826-1330,"",1309710097020
executed,command,org.eclipse.ui,3.6.1.M20100826-1330,"org.eclipse.ui.file.save",1309710105818
deactivated,workbench,org.eclipse.ui.workbench,3.6.1.M20100826-1330,"",1309710112780
activated,workbench,org.eclipse.ui.workbench,3.6.1.M20100826-1330,"",1309710156137
activated,view,org.eclipse.ui.console,3.5.0.v20100526,"org.eclipse.ui.console.ConsoleView",1309710162729
deactivated,workbench,org.eclipse.ui.workbench,3.6.1.M20100826-1330,"",1309710163234
activated,workbench,org.eclipse.ui.workbench,3.6.1.M20100826-1330,"",1309710164828
deactivated,workbench,org.eclipse.ui.workbench,3.6.1.M20100826-1330,"",1309710165424
activated,workbench,org.eclipse.ui.workbench,3.6.1.M20100826-1330,"",1309710212741
activated,editor,com.instantiations.designer.core,8.0.0.r36x201009160631,"com.instantiations.designer.core.guiEditor",1309710218930
deactivated,workbench,org.eclipse.ui.workbench,3.6.1.M20100826-1330,"",1309710220116
activated,workbench,org.eclipse.ui.workbench,3.6.1.M20100826-1330,"",1309710275625
deactivated,workbench,org.eclipse.ui.workbench,3.6.1.M20100826-1330,"",1309710279414
activated,workbench,org.eclipse.ui.workbench,3.6.1.M20100826-1330,"",1309714411620
deactivated,workbench,org.eclipse.ui.workbench,3.6.1.M20100826-1330,"",1309714413136
activated,workbench,org.eclipse.ui.workbench,3.6.1.M20100826-1330,"",1309714414302
started,bundle,org.eclipse.wst.jsdt.debug.core,1.0.1.v201008170101,"org.eclipse.wst.jsdt.debug.core",1309714414421
closed,workbench,org.eclipse.ui.workbench,3.6.1.M20100826-1330,"",1309714415210
stopped,bundle,org.eclipse.jst.j2ee.xdoclet.runtime,1.1.300.v201004280700,"org.eclipse.jst.j2ee.xdoclet.runtime",1309714416868
stopped,bundle,org.eclipse.jst.j2ee.ejb.annotations.xdoclet,1.2.100.v201003112036,"org.eclipse.jst.j2ee.ejb.annotations.xdoclet",1309714416890
stopped,bundle,org.eclipse.jst.server.generic.jboss,1.6.1.v200904151730,"org.eclipse.jst.server.generic.jboss",1309714417043
stopped,bundle,org.eclipse.jst.server.generic.jonas,1.5.205.v200805140145,"org.eclipse.jst.server.generic.jonas",1309714417093
stopped,bundle,org.eclipse.jst.server.generic.oc4j,1.5.206.v20090812,"org.eclipse.jst.server.generic.oc4j",1309714417116
stopped,bundle,org.eclipse.jst.server.websphere.core,1.0.302.v20080620,"org.eclipse.jst.server.websphere.core",1309714417169
stopped,bundle,org.eclipse.jst.server.generic.ui,1.0.505.v20100428,"org.eclipse.jst.server.generic.ui",1309714417292
stopped,bundle,org.eclipse.jst.server.generic.core,1.0.606.v20100512,"org.eclipse.jst.server.generic.core",1309714417422
stopped,bundle,org.eclipse.mylyn.ide.ant,3.4.0.v20100608-0100-e3x,"org.eclipse.mylyn.ide.ant",1309714417452
stopped,bundle,org.eclipse.datatools.connectivity.oda.template.ui,3.2.1.v201004090942,"org.eclipse.datatools.connectivity.oda.template.ui",1309714417525
stopped,bundle,org.eclipse.pde.api.tools.ui,1.0.201.v20100820_r361,"org.eclipse.pde.api.tools.ui",1309714417525
activated,perspective,org.eclipse.pde.ui,,"org.eclipse.pde.ui.PDEPerspective",1309752594684
started,bundle,org.eclipse.osgi,3.6.1.R36x_v20100806,"org.eclipse.osgi",1309752594689
started,bundle,org.eclipse.equinox.simpleconfigurator,1.0.200.v20100503,"org.eclipse.equinox.simpleconfigurator",1309752594735
started,bundle,com.ibm.icu,4.2.1.v20100412,"com.ibm.icu",1309752594808
started,bundle,org.eclipse.compare.core,3.5.100.I20100526-0800,"org.eclipse.compare.core",1309752594851
started,bundle,org.eclipse.core.contenttype,3.4.100.v20100505-1235,"org.eclipse.core.contenttype",1309752594854
started,bundle,org.eclipse.core.databinding.observable,1.3.0.I20100601-0800,"org.eclipse.core.databinding.observable",1309752594971
started,bundle,org.eclipse.core.expressions,3.4.200.v20100505,"org.eclipse.core.expressions",1309752594973
started,bundle,org.eclipse.core.filebuffers,3.5.100.v20100520-0800,"org.eclipse.core.filebuffers",1309752595003
started,bundle,org.eclipse.core.filesystem,1.3.1.R36x_v20100727-0745,"org.eclipse.core.filesystem",1309752595067
started,bundle,org.eclipse.core.jobs,3.5.1.R36x_v20100824,"org.eclipse.core.jobs",1309752595069
started,bundle,org.eclipse.core.net,1.2.100.I20100511-0800,"org.eclipse.core.net",1309752595093
started,bundle,org.eclipse.core.resources,3.6.0.R36x_v20100825-0600,"org.eclipse.core.resources",1309752595262
started,bundle,org.eclipse.core.runtime,3.6.0.v20100505,"org.eclipse.core.runtime",1309752595262
started,bundle,org.eclipse.core.runtime.compatibility,3.2.100.v20100505,"org.eclipse.core.runtime.compatibility",1309752595356
started,bundle,org.eclipse.core.runtime.compatibility.auth,3.2.200.v20100517,"org.eclipse.core.runtime.compatibility.auth",1309752595358
started,bundle,org.eclipse.core.variables,3.2.400.v20100505,"org.eclipse.core.variables",1309752595360
started,bundle,org.eclipse.debug.core,3.6.0.v20100519,"org.eclipse.debug.core",1309752595428
started,bundle,org.eclipse.debug.ui,3.6.1.v20100901_r361,"org.eclipse.debug.ui",1309752595524
started,bundle,org.eclipse.epp.usagedata.gathering,1.3.0.R201005261100,"org.eclipse.epp.usagedata.gathering",1309752595574
started,bundle,org.eclipse.epp.usagedata.recording,1.3.0.R201005261100,"org.eclipse.epp.usagedata.recording",1309752595626
started,bundle,org.eclipse.equinox.app,1.3.1.R36x_v20100803,"org.eclipse.equinox.app",1309752595628
started,bundle,org.eclipse.equinox.common,3.6.0.v20100503,"org.eclipse.equinox.common",1309752595629
started,bundle,org.eclipse.equinox.ds,1.2.1.R36x_v20100803,"org.eclipse.equinox.ds",1309752595656
started,bundle,org.eclipse.equinox.event,1.2.0.v20100503,"org.eclipse.equinox.event",1309752595679
started,bundle,org.eclipse.equinox.frameworkadmin,2.0.0.v20100503,"org.eclipse.equinox.frameworkadmin",1309752595714
started,bundle,org.eclipse.equinox.p2.core,2.0.2.R36x_v20100804,"org.eclipse.equinox.p2.core",1309752595727
started,bundle,org.eclipse.equinox.p2.directorywatcher,1.0.202.R36x_v20100727,"org.eclipse.equinox.p2.directorywatcher",1309752595776
started,bundle,org.eclipse.equinox.p2.engine,2.0.0.v20100606,"org.eclipse.equinox.p2.engine",1309752595811
started,bundle,org.eclipse.equinox.p2.metadata,2.0.0.v20100601,"org.eclipse.equinox.p2.metadata",1309752595847
started,bundle,org.eclipse.equinox.p2.metadata.repository,1.1.0.v20100513,"org.eclipse.equinox.p2.metadata.repository",1309752595862
started,bundle,org.eclipse.equinox.p2.operations,2.0.0.v20100510,"org.eclipse.equinox.p2.operations",1309752595914
started,bundle,org.eclipse.equinox.p2.reconciler.dropins,1.1.0.v20100525,"org.eclipse.equinox.p2.reconciler.dropins",1309752595954
started,bundle,org.eclipse.equinox.p2.repository,2.0.1.R36x_v20100823,"org.eclipse.equinox.p2.repository",1309752595996
started,bundle,org.eclipse.equinox.p2.ui.sdk.scheduler,1.0.0.v20100507-1815,"org.eclipse.equinox.p2.ui.sdk.scheduler",1309752596022
started,bundle,org.eclipse.equinox.p2.updatechecker,1.1.101.R36x_v20100823,"org.eclipse.equinox.p2.updatechecker",1309752596066
started,bundle,org.eclipse.equinox.preferences,3.3.0.v20100503,"org.eclipse.equinox.preferences",1309752596068
started,bundle,org.eclipse.equinox.registry,3.5.0.v20100503,"org.eclipse.equinox.registry",1309752596071
started,bundle,org.eclipse.equinox.security,1.0.200.v20100503,"org.eclipse.equinox.security",1309752596087
started,bundle,org.eclipse.equinox.simpleconfigurator.manipulator,2.0.0.v20100503,"org.eclipse.equinox.simpleconfigurator.manipulator",1309752596147
started,bundle,org.eclipse.equinox.util,1.0.200.v20100503,"org.eclipse.equinox.util",1309752596159
started,bundle,org.eclipse.help,3.5.0.v20100524,"org.eclipse.help",1309752596230
started,bundle,org.eclipse.jdt.apt.core,3.3.401.R36_v20100727-0110,"org.eclipse.jdt.apt.core",1309752596259
started,bundle,org.eclipse.jdt.apt.pluggable.core,1.0.301.R36_v20100727-0110,"org.eclipse.jdt.apt.pluggable.core",1309752596284
started,bundle,org.eclipse.jdt.core,3.6.1.v_A68_R36x,"org.eclipse.jdt.core",1309752596328
started,bundle,org.eclipse.jdt.core.manipulation,1.3.0.v20100520-0800,"org.eclipse.jdt.core.manipulation",1309752596331
started,bundle,org.eclipse.jdt.debug,3.6.1.v20100715_r361,"org.eclipse.jdt.debug",1309752596367
started,bundle,org.eclipse.jdt.debug.ui,3.5.0.v20100602-0830,"org.eclipse.jdt.debug.ui",1309752596367
started,bundle,org.eclipse.jdt.launching,3.5.100.v20100526,"org.eclipse.jdt.launching",1309752596382
started,bundle,org.eclipse.jdt.ui,3.6.1.r361_v20100825-0800,"org.eclipse.jdt.ui",1309752596382
started,bundle,org.eclipse.jface,3.6.1.M20100825-0800,"org.eclipse.jface",1309752596383
started,bundle,org.eclipse.jst.ws.jaxws.utils,1.0.0.v201004171919,"org.eclipse.jst.ws.jaxws.utils",1309752596407
started,bundle,org.eclipse.ltk.core.refactoring,3.5.100.v20100526-0800,"org.eclipse.ltk.core.refactoring",1309752596445
started,bundle,org.eclipse.ltk.ui.refactoring,3.5.0.v20100526-0800,"org.eclipse.ltk.ui.refactoring",1309752596498
started,bundle,org.eclipse.mylyn.commons.net,3.4.1.v20100625-2100-e3x,"org.eclipse.mylyn.commons.net",1309752596499
started,bundle,org.eclipse.mylyn.monitor.ui,3.4.0.v20100608-0100-e3x,"org.eclipse.mylyn.monitor.ui",1309752596542
started,bundle,org.eclipse.pde,3.6.1.v201009090800,"org.eclipse.pde",1309752596569
started,bundle,org.eclipse.pde.core,3.6.1.v20100902_r361,"org.eclipse.pde.core",1309752596623
started,bundle,org.eclipse.pde.launching,3.6.0.v20100601,"org.eclipse.pde.launching",1309752596625
started,bundle,org.eclipse.pde.ui,3.6.1.v20100810_r361,"org.eclipse.pde.ui",1309752596654
started,bundle,org.eclipse.team.core,3.5.100.R36x_v20100825-0800,"org.eclipse.team.core",1309752597119
started,bundle,org.eclipse.team.ui,3.5.101.R36x_v20100825-0800,"org.eclipse.team.ui",1309752597153
started,bundle,org.eclipse.ui,3.6.1.M20100826-1330,"org.eclipse.ui",1309752597172
started,bundle,org.eclipse.ui.console,3.5.0.v20100526,"org.eclipse.ui.console",1309752597184
started,bundle,org.eclipse.ui.editors,3.6.1.r361_v20100825-0800,"org.eclipse.ui.editors",1309752597184
started,bundle,org.eclipse.ui.ide,3.6.1.M20100825-0800,"org.eclipse.ui.ide",1309752597212
started,bundle,org.eclipse.ui.net,1.2.100.I20100505-1245,"org.eclipse.ui.net",1309752597220
started,bundle,org.eclipse.ui.views,3.5.0.I20100527-0800,"org.eclipse.ui.views",1309752597239
started,bundle,org.eclipse.ui.views.log,1.0.100.v20100423,"org.eclipse.ui.views.log",1309752597275
started,bundle,org.eclipse.ui.workbench,3.6.1.M20100826-1330,"org.eclipse.ui.workbench",1309752597278
started,bundle,org.eclipse.ui.workbench.texteditor,3.6.1.r361_v20100714-0800,"org.eclipse.ui.workbench.texteditor",1309752597306
started,bundle,org.eclipse.update.configurator,3.3.100.v20100512,"org.eclipse.update.configurator",1309752597309
started,bundle,org.eclipse.update.core,3.2.402.R36x_v20100629,"org.eclipse.update.core",1309752597354
started,bundle,org.eclipse.wst.common.project.facet.core,1.4.102.v201008170019,"org.eclipse.wst.common.project.facet.core",1309752597373
started,bundle,org.eclipse.wst.web,1.1.401.v201007151900,"org.eclipse.wst.web",1309752597390
started,bundle,org.tigris.subversion.clientadapter,1.6.12,"org.tigris.subversion.clientadapter",1309752597411
started,bundle,org.tigris.subversion.subclipse.core,1.6.13,"org.tigris.subversion.subclipse.core",1309752597446
started,bundle,org.tigris.subversion.subclipse.ui,1.6.13,"org.tigris.subversion.subclipse.ui",1309752597473
started,bundle,com.instantiations.common.core,6.0.0.r36x201009131414,"com.instantiations.common.core",1309752597497
started,bundle,com.instantiations.designer.core,8.0.0.r36x201009160631,"com.instantiations.designer.core",1309752597497
started,bundle,com.instantiations.designer.core.databinding,8.0.0.r36x201009160631,"com.instantiations.designer.core.databinding",1309752597499
started,bundle,com.instantiations.designer.core.lib,8.0.0.r36x201009160631,"com.instantiations.designer.core.lib",1309752597516
started,bundle,com.instantiations.designer.gwt,8.0.0.r36x201009160831,"com.instantiations.designer.gwt",1309752597519
started,bundle,com.instantiations.designer.gxt.databinding,8.0.0.r36x201009160831,"com.instantiations.designer.gxt.databinding",1309752597520
started,bundle,com.instantiations.designer.rcp.databinding,8.0.0.r36x201009160649,"com.instantiations.designer.rcp.databinding",1309752597547
started,bundle,com.instantiations.designer.swing.databinding,8.0.0.r36x201009160643,"com.instantiations.designer.swing.databinding",1309752597558
started,bundle,com.instantiations.eclipse.debug,6.0.0.r36x201009131414,"com.instantiations.eclipse.debug",1309752597560
started,bundle,com.instantiations.eclipse.ui,8.0.0.r36x201009131432,"com.instantiations.eclipse.ui",1309752597589
started,bundle,com.instantiations.eclipse.util,6.0.0.r36x201009131414,"com.instantiations.eclipse.util",1309752597590
os,sysinfo,,,"win32",1309752597596
arch,sysinfo,,,"x86",1309752597596
ws,sysinfo,,,"win32",1309752597596
locale,sysinfo,,,"en_US",1309752597596
processors,sysinfo,,,"2",1309752597596
java.runtime.name,sysinfo,,,"Java(TM) SE Runtime Environment",1309752597596
java.runtime.version,sysinfo,,,"1.6.0_24-b07",1309752597596
java.specification.name,sysinfo,,,"Java Platform API Specification",1309752597596
java.specification.vendor,sysinfo,,,"Sun Microsystems Inc.",1309752597596
java.specification.version,sysinfo,,,"1.6",1309752597596
java.vendor,sysinfo,,,"Sun Microsystems Inc.",1309752597596
