what,kind,bundleId,bundleVersion,description,time
activated,perspective,org.eclipse.debug.ui,,"org.eclipse.debug.ui.DebugPerspective",1309225355055
started,bundle,org.eclipse.osgi,3.6.1.R36x_v20100806,"org.eclipse.osgi",1309225355057
started,bundle,org.eclipse.equinox.simpleconfigurator,1.0.200.v20100503,"org.eclipse.equinox.simpleconfigurator",1309225355059
started,bundle,com.ibm.icu,4.2.1.v20100412,"com.ibm.icu",1309225355061
started,bundle,org.eclipse.compare.core,3.5.100.I20100526-0800,"org.eclipse.compare.core",1309225355062
started,bundle,org.eclipse.core.contenttype,3.4.100.v20100505-1235,"org.eclipse.core.contenttype",1309225355064
started,bundle,org.eclipse.core.databinding.observable,1.3.0.I20100601-0800,"org.eclipse.core.databinding.observable",1309225355065
started,bundle,org.eclipse.core.expressions,3.4.200.v20100505,"org.eclipse.core.expressions",1309225355066
started,bundle,org.eclipse.core.filebuffers,3.5.100.v20100520-0800,"org.eclipse.core.filebuffers",1309225355067
started,bundle,org.eclipse.core.filesystem,1.3.1.R36x_v20100727-0745,"org.eclipse.core.filesystem",1309225355069
started,bundle,org.eclipse.core.jobs,3.5.1.R36x_v20100824,"org.eclipse.core.jobs",1309225355070
started,bundle,org.eclipse.core.net,1.2.100.I20100511-0800,"org.eclipse.core.net",1309225355071
started,bundle,org.eclipse.core.resources,3.6.0.R36x_v20100825-0600,"org.eclipse.core.resources",1309225355073
started,bundle,org.eclipse.core.runtime,3.6.0.v20100505,"org.eclipse.core.runtime",1309225355075
started,bundle,org.eclipse.core.runtime.compatibility,3.2.100.v20100505,"org.eclipse.core.runtime.compatibility",1309225355076
started,bundle,org.eclipse.core.runtime.compatibility.auth,3.2.200.v20100517,"org.eclipse.core.runtime.compatibility.auth",1309225355078
started,bundle,org.eclipse.core.variables,3.2.400.v20100505,"org.eclipse.core.variables",1309225355079
started,bundle,org.eclipse.debug.core,3.6.0.v20100519,"org.eclipse.debug.core",1309225355080
started,bundle,org.eclipse.debug.ui,3.6.1.v20100901_r361,"org.eclipse.debug.ui",1309225355275
started,bundle,org.eclipse.emf.common,2.6.0.v20100914-1218,"org.eclipse.emf.common",1309225355277
started,bundle,org.eclipse.emf.ecore,2.6.1.v20100914-1218,"org.eclipse.emf.ecore",1309225355485
started,bundle,org.eclipse.emf.ecore.xmi,2.5.0.v20100521-1846,"org.eclipse.emf.ecore.xmi",1309225355578
started,bundle,org.eclipse.epp.usagedata.gathering,1.3.0.R201005261100,"org.eclipse.epp.usagedata.gathering",1309225355579
started,bundle,org.eclipse.epp.usagedata.recording,1.3.0.R201005261100,"org.eclipse.epp.usagedata.recording",1309225355581
started,bundle,org.eclipse.equinox.app,1.3.1.R36x_v20100803,"org.eclipse.equinox.app",1309225355582
started,bundle,org.eclipse.equinox.common,3.6.0.v20100503,"org.eclipse.equinox.common",1309225355584
started,bundle,org.eclipse.equinox.ds,1.2.1.R36x_v20100803,"org.eclipse.equinox.ds",1309225355586
started,bundle,org.eclipse.equinox.event,1.2.0.v20100503,"org.eclipse.equinox.event",1309225355589
started,bundle,org.eclipse.equinox.frameworkadmin,2.0.0.v20100503,"org.eclipse.equinox.frameworkadmin",1309225355591
started,bundle,org.eclipse.equinox.p2.core,2.0.2.R36x_v20100804,"org.eclipse.equinox.p2.core",1309225355593
started,bundle,org.eclipse.equinox.p2.directorywatcher,1.0.202.R36x_v20100727,"org.eclipse.equinox.p2.directorywatcher",1309225355595
started,bundle,org.eclipse.equinox.p2.engine,2.0.0.v20100606,"org.eclipse.equinox.p2.engine",1309225355598
started,bundle,org.eclipse.equinox.p2.metadata,2.0.0.v20100601,"org.eclipse.equinox.p2.metadata",1309225355620
started,bundle,org.eclipse.equinox.p2.metadata.repository,1.1.0.v20100513,"org.eclipse.equinox.p2.metadata.repository",1309225355621
started,bundle,org.eclipse.equinox.p2.operations,2.0.0.v20100510,"org.eclipse.equinox.p2.operations",1309225355622
started,bundle,org.eclipse.equinox.p2.reconciler.dropins,1.1.0.v20100525,"org.eclipse.equinox.p2.reconciler.dropins",1309225355624
started,bundle,org.eclipse.equinox.p2.repository,2.0.1.R36x_v20100823,"org.eclipse.equinox.p2.repository",1309225355625
started,bundle,org.eclipse.equinox.p2.ui.sdk.scheduler,1.0.0.v20100507-1815,"org.eclipse.equinox.p2.ui.sdk.scheduler",1309225355626
started,bundle,org.eclipse.equinox.p2.updatechecker,1.1.101.R36x_v20100823,"org.eclipse.equinox.p2.updatechecker",1309225355627
started,bundle,org.eclipse.equinox.preferences,3.3.0.v20100503,"org.eclipse.equinox.preferences",1309225355628
started,bundle,org.eclipse.equinox.registry,3.5.0.v20100503,"org.eclipse.equinox.registry",1309225355629
started,bundle,org.eclipse.equinox.security,1.0.200.v20100503,"org.eclipse.equinox.security",1309225355631
started,bundle,org.eclipse.equinox.simpleconfigurator.manipulator,2.0.0.v20100503,"org.eclipse.equinox.simpleconfigurator.manipulator",1309225355632
started,bundle,org.eclipse.equinox.util,1.0.200.v20100503,"org.eclipse.equinox.util",1309225355634
started,bundle,org.eclipse.help,3.5.0.v20100524,"org.eclipse.help",1309225355637
started,bundle,org.eclipse.jdt.apt.core,3.3.401.R36_v20100727-0110,"org.eclipse.jdt.apt.core",1309225355638
started,bundle,org.eclipse.jdt.apt.pluggable.core,1.0.301.R36_v20100727-0110,"org.eclipse.jdt.apt.pluggable.core",1309225355639
started,bundle,org.eclipse.jdt.core,3.6.1.v_A68_R36x,"org.eclipse.jdt.core",1309225355642
started,bundle,org.eclipse.jdt.core.manipulation,1.3.0.v20100520-0800,"org.eclipse.jdt.core.manipulation",1309225355643
started,bundle,org.eclipse.jdt.debug,3.6.1.v20100715_r361,"org.eclipse.jdt.debug",1309225355770
started,bundle,org.eclipse.jdt.debug.ui,3.5.0.v20100602-0830,"org.eclipse.jdt.debug.ui",1309225355770
started,bundle,org.eclipse.jdt.launching,3.5.100.v20100526,"org.eclipse.jdt.launching",1309225355772
started,bundle,org.eclipse.jdt.ui,3.6.1.r361_v20100825-0800,"org.eclipse.jdt.ui",1309225355772
started,bundle,org.eclipse.jface,3.6.1.M20100825-0800,"org.eclipse.jface",1309225355774
started,bundle,org.eclipse.jst.ws.jaxws.utils,1.0.0.v201004171919,"org.eclipse.jst.ws.jaxws.utils",1309225355775
started,bundle,org.eclipse.ltk.core.refactoring,3.5.100.v20100526-0800,"org.eclipse.ltk.core.refactoring",1309225355778
started,bundle,org.eclipse.ltk.ui.refactoring,3.5.0.v20100526-0800,"org.eclipse.ltk.ui.refactoring",1309225355781
started,bundle,org.eclipse.mylyn.bugzilla.core,3.4.2.v20100902-0100-e3x,"org.eclipse.mylyn.bugzilla.core",1309225355784
started,bundle,org.eclipse.mylyn.bugzilla.ui,3.4.2.v20100909-0100-e3x,"org.eclipse.mylyn.bugzilla.ui",1309225355786
started,bundle,org.eclipse.mylyn.commons.net,3.4.1.v20100625-2100-e3x,"org.eclipse.mylyn.commons.net",1309225355786
started,bundle,org.eclipse.mylyn.commons.ui,3.4.0.v20100608-0100-e3x,"org.eclipse.mylyn.commons.ui",1309225355789
started,bundle,org.eclipse.mylyn.monitor.ui,3.4.0.v20100608-0100-e3x,"org.eclipse.mylyn.monitor.ui",1309225355820
started,bundle,org.eclipse.pde,3.6.1.v201009090800,"org.eclipse.pde",1309225355822
started,bundle,org.eclipse.pde.core,3.6.1.v20100902_r361,"org.eclipse.pde.core",1309225355825
started,bundle,org.eclipse.team.core,3.5.100.R36x_v20100825-0800,"org.eclipse.team.core",1309225355828
started,bundle,org.eclipse.ui,3.6.1.M20100826-1330,"org.eclipse.ui",1309225355830
started,bundle,org.eclipse.ui.editors,3.6.1.r361_v20100825-0800,"org.eclipse.ui.editors",1309225355831
started,bundle,org.eclipse.ui.ide,3.6.1.M20100825-0800,"org.eclipse.ui.ide",1309225355835
started,bundle,org.eclipse.ui.net,1.2.100.I20100505-1245,"org.eclipse.ui.net",1309225355837
started,bundle,org.eclipse.ui.views,3.5.0.I20100527-0800,"org.eclipse.ui.views",1309225355839
started,bundle,org.eclipse.ui.workbench,3.6.1.M20100826-1330,"org.eclipse.ui.workbench",1309225355844
started,bundle,org.eclipse.ui.workbench.texteditor,3.6.1.r361_v20100714-0800,"org.eclipse.ui.workbench.texteditor",1309225355846
started,bundle,org.eclipse.wst.common.project.facet.core,1.4.102.v201008170019,"org.eclipse.wst.common.project.facet.core",1309225355849
started,bundle,org.eclipse.wst.web,1.1.401.v201007151900,"org.eclipse.wst.web",1309225355850
started,bundle,com.instantiations.common.core,6.0.0.r36x201009131414,"com.instantiations.common.core",1309225355872
started,bundle,com.instantiations.designer.core,8.0.0.r36x201009160631,"com.instantiations.designer.core",1309225355875
started,bundle,com.instantiations.designer.core.databinding,8.0.0.r36x201009160631,"com.instantiations.designer.core.databinding",1309225355876
started,bundle,com.instantiations.designer.core.lib,8.0.0.r36x201009160631,"com.instantiations.designer.core.lib",1309225355879
started,bundle,com.instantiations.designer.gwt,8.0.0.r36x201009160831,"com.instantiations.designer.gwt",1309225355881
started,bundle,com.instantiations.designer.gxt.databinding,8.0.0.r36x201009160831,"com.instantiations.designer.gxt.databinding",1309225355933
started,bundle,com.instantiations.designer.rcp.databinding,8.0.0.r36x201009160649,"com.instantiations.designer.rcp.databinding",1309225356012
started,bundle,com.instantiations.designer.swing.databinding,8.0.0.r36x201009160643,"com.instantiations.designer.swing.databinding",1309225356101
started,bundle,com.instantiations.eclipse.ui,8.0.0.r36x201009131432,"com.instantiations.eclipse.ui",1309225356105
os,sysinfo,,,"win32",1309225356113
arch,sysinfo,,,"x86",1309225356113
ws,sysinfo,,,"win32",1309225356113
locale,sysinfo,,,"en_US",1309225356113
processors,sysinfo,,,"2",1309225356113
java.runtime.name,sysinfo,,,"Java(TM) SE Runtime Environment",1309225356113
java.runtime.version,sysinfo,,,"1.6.0_24-b07",1309225356113
java.specification.name,sysinfo,,,"Java Platform API Specification",1309225356113
java.specification.vendor,sysinfo,,,"Sun Microsystems Inc.",1309225356113
java.specification.version,sysinfo,,,"1.6",1309225356113
java.vendor,sysinfo,,,"Sun Microsystems Inc.",1309225356113
java.version,sysinfo,,,"1.6.0_24",1309225356113
java.vm.info,sysinfo,,,"mixed mode, sharing",1309225356113
java.vm.name,sysinfo,,,"Java HotSpot(TM) Client VM",1309225356113
java.vm.specification.name,sysinfo,,,"Java Virtual Machine Specification",1309225356113
java.vm.specification.vendor,sysinfo,,,"Sun Microsystems Inc.",1309225356113
java.vm.specification.version,sysinfo,,,"1.0",1309225356113
java.vm.vendor,sysinfo,,,"Sun Microsystems Inc.",1309225356113
java.vm.version,sysinfo,,,"19.1-b02",1309225356113
started,bundle,org.eclipse.ui.forms,3.5.2.r36_v20100702,"org.eclipse.ui.forms",1309225356315
started,bundle,org.eclipse.mylyn.context.core,3.4.1.v20100909-0100-e3x,"org.eclipse.mylyn.context.core",1309225357010
started,bundle,com.instantiations.eclipse.util,6.0.0.r36x201009131414,"com.instantiations.eclipse.util",1309225357105
started,bundle,com.instantiations.eclipse.debug,6.0.0.r36x201009131414,"com.instantiations.eclipse.debug",1309225357308
started,bundle,org.eclipse.mylyn.context.ui,3.4.1.v20100909-0100-e3x,"org.eclipse.mylyn.context.ui",1309225357522
started,bundle,org.eclipse.mylyn.tasks.ui,3.4.2.v20100902-0100-e3x,"org.eclipse.mylyn.tasks.ui",1309225358957
started,bundle,org.eclipse.mylyn.team.ui,3.4.2.v20100909-0100-e3x,"org.eclipse.mylyn.team.ui",1309225358984
started,bundle,org.eclipse.update.scheduler,3.2.300.v20100512,"org.eclipse.update.scheduler",1309225358990
deactivated,workbench,org.eclipse.ui.workbench,3.6.1.M20100826-1330,"",1309225359938
started,bundle,com.instantiations.designer.runtime.lib,8.0.0.r36x201009160631,"com.instantiations.designer.runtime.lib",1309225360891
started,bundle,com.instantiations.designer.swt,8.0.0.r36x201009160641,"com.instantiations.designer.swt",1309225361338
started,bundle,com.instantiations.designer.rcp,8.0.0.r36x201009160649,"com.instantiations.designer.rcp",1309225361351
started,bundle,com.instantiations.designer.gwt.GWTExt,8.0.0.r36x201009160831,"com.instantiations.designer.gwt.GWTExt",1309225361954
started,bundle,com.instantiations.designer.rcp.nebula,8.0.0.r36x201009160649,"com.instantiations.designer.rcp.nebula",1309225362026
started,bundle,com.instantiations.designer.swing,8.0.0.r36x201009160643,"com.instantiations.designer.swing",1309225362066
started,bundle,com.instantiations.designer.swing.FormLayout,8.0.0.r36x201009160643,"com.instantiations.designer.swing.FormLayout",1309225362322
started,bundle,com.instantiations.designer.swing.hc,8.0.0.r36x201009160643,"com.instantiations.designer.swing.hc",1309225362442
started,bundle,com.instantiations.designer.gwt.UiBinder,8.0.0.r36x201009160831,"com.instantiations.designer.gwt.UiBinder",1309225362649
started,bundle,com.instantiations.designer.xwt,8.0.0.r36x201009160656,"com.instantiations.designer.xwt",1309225362905
started,bundle,org.eclipse.update.configurator,3.3.100.v20100512,"org.eclipse.update.configurator",1309225363565
started,bundle,org.eclipse.update.core,3.2.402.R36x_v20100629,"org.eclipse.update.core",1309225363810
started,bundle,com.instantiations.designer.core.xml,8.0.0.r36x201009160634,"com.instantiations.designer.core.xml",1309225365474
started,bundle,com.instantiations.designer.gwt.ExtGWT,8.0.0.r36x201009160831,"com.instantiations.designer.gwt.ExtGWT",1309225365975
started,bundle,com.instantiations.designer.gwt.SmartGWT,8.0.0.r36x201009160831,"com.instantiations.designer.gwt.SmartGWT",1309225366301
started,bundle,com.instantiations.eclipse.startup,6.0.0.r36x201009131414,"com.instantiations.eclipse.startup",1309225366464
started,bundle,com.instantiations.designer.core.api,8.0.0.r36x201009160631,"com.instantiations.designer.core.api",1309225367430
started,bundle,com.instantiations.eclipse.usageprofiler,6.0.0.r36x201009131414,"com.instantiations.eclipse.usageprofiler",1309225367561
started,bundle,com.instantiations.eclipse.usageprofiler.ui,6.0.0.r36x201009131414,"com.instantiations.eclipse.usageprofiler.ui",1309225368364
started,bundle,com.instantiations.j2ee,8.0.0.r36x201009140724,"com.instantiations.j2ee",1309225368495
started,bundle,com.instantiations.designer.core.apiImpl,8.0.0.r36x201009160631,"com.instantiations.designer.core.apiImpl",1309225373974
started,bundle,com.instantiations.designer.os,8.0.0.r36x201009160631,"com.instantiations.designer.os",1309225378289
started,bundle,com.instantiations.designer.rcp.databinding.emf,8.0.0.r36x201009160649,"com.instantiations.designer.rcp.databinding.emf",1309225392656
started,bundle,org.eclipse.pde.launching,3.6.0.v20100601,"org.eclipse.pde.launching",1309225395212
started,bundle,org.eclipse.ui.views.log,1.0.100.v20100423,"org.eclipse.ui.views.log",1309225395216
started,bundle,org.eclipse.pde.ui,3.6.1.v20100810_r361,"org.eclipse.pde.ui",1309225395220
started,bundle,com.instantiations.designer.os.win32,8.0.0.r36x201009160631,"com.instantiations.designer.os.win32",1309225396372
started,bundle,com.instantiations.designer.rcp.GroupLayout,8.0.0.r36x201009160649,"com.instantiations.designer.rcp.GroupLayout",1309225398317
started,bundle,com.instantiations.designer.layout.group,8.0.0.r36x201009160635,"com.instantiations.designer.layout.group",1309225398333
started,bundle,com.instantiations.designer.rcp.swing2swt,8.0.0.r36x201009160649,"com.instantiations.designer.rcp.swing2swt",1309225398347
started,bundle,com.instantiations.designer.swing.MigLayout.lib,8.0.0.r36x201009160643,"com.instantiations.designer.swing.MigLayout.lib",1309225398512
started,bundle,com.instantiations.designer.swing.MigLayout,8.0.0.r36x201009160643,"com.instantiations.designer.swing.MigLayout",1309225398513
started,bundle,com.instantiations.designer.swing.java6,8.0.0.r36x201009160643,"com.instantiations.designer.swing.java6",1309225398533
started,bundle,com.instantiations.designer.rcp.SWT_AWT,8.0.0.r36x201009160651,"com.instantiations.designer.rcp.SWT_AWT",1309225399200
activated,workbench,org.eclipse.ui.workbench,3.6.1.M20100826-1330,"",1309225399856
deactivated,workbench,org.eclipse.ui.workbench,3.6.1.M20100826-1330,"",1309225399865
started,bundle,org.eclipse.jsch.core,1.1.200.I20100505-1245,"org.eclipse.jsch.core",1309225400358
started,bundle,org.eclipse.team.cvs.core,3.3.300.I20100526-0800,"org.eclipse.team.cvs.core",1309225400359
started,bundle,org.eclipse.team.ui,3.5.101.R36x_v20100825-0800,"org.eclipse.team.ui",1309225400386
started,bundle,org.eclipse.ui.console,3.5.0.v20100526,"org.eclipse.ui.console",1309225400916
started,bundle,org.eclipse.team.cvs.ui,3.3.301.R36x_v20100825-0800,"org.eclipse.team.cvs.ui",1309225400995
activated,workbench,org.eclipse.ui.workbench,3.6.1.M20100826-1330,"",1309225430498
started,bundle,com.instantiations.designer.swing.ams,8.0.0.r36x201009160643,"com.instantiations.designer.swing.ams",1309225504984
started,bundle,org.eclipse.mylyn.ide.ui,3.4.0.v20100608-0100-e3x,"org.eclipse.mylyn.ide.ui",1309225512447
started,bundle,org.eclipse.jst.ws.jaxws.ui,1.0.1.v201008232129,"org.eclipse.jst.ws.jaxws.ui",1309225512506
started,bundle,org.eclipse.mylyn.java.ui,3.4.0.v20100608-0100-e3x,"org.eclipse.mylyn.java.ui",1309225512519
started,bundle,org.eclipse.pde.api.tools,1.0.202.v20100820_r361,"org.eclipse.pde.api.tools",1309225512707
started,bundle,org.eclipse.pde.api.tools.ui,1.0.201.v20100820_r361,"org.eclipse.pde.api.tools.ui",1309225512722
executed,command,org.eclipse.ui,3.6.1.M20100826-1330,"org.eclipse.ui.edit.text.contentAssist.proposals",1309225513430
started,bundle,org.eclipse.jdt.junit,3.6.1.r361_v20100825-0800,"org.eclipse.jdt.junit",1309225513449
deactivated,workbench,org.eclipse.ui.workbench,3.6.1.M20100826-1330,"",1309225517308
activated,workbench,org.eclipse.ui.workbench,3.6.1.M20100826-1330,"",1309225518397
executed,command,org.eclipse.ui,3.6.1.M20100826-1330,"org.eclipse.ui.file.save",1309225526605
deactivated,workbench,org.eclipse.ui.workbench,3.6.1.M20100826-1330,"",1309225664411
activated,workbench,org.eclipse.ui.workbench,3.6.1.M20100826-1330,"",1309225664526
started,bundle,org.eclipse.mylyn.java.tasks,3.4.0.v20100608-0100-e3x,"org.eclipse.mylyn.java.tasks",1309225666338
executed,command,org.eclipse.ui,3.6.1.M20100826-1330,"org.eclipse.ui.edit.delete",1309225670125
executed,command,org.eclipse.ui,3.6.1.M20100826-1330,"org.eclipse.ui.edit.text.contentAssist.proposals",1309225672396
executed,command,org.eclipse.ui.workbench.texteditor,3.6.1.r361_v20100714-0800,"org.eclipse.ui.edit.text.goto.lineEnd",1309225681532
executed,command,org.eclipse.ui,3.6.1.M20100826-1330,"org.eclipse.ui.edit.text.contentAssist.proposals",1309225684253
executed,command,org.eclipse.ui.workbench.texteditor,3.6.1.r361_v20100714-0800,"org.eclipse.ui.edit.text.goto.lineEnd",1309225691959
executed,command,org.eclipse.ui,3.6.1.M20100826-1330,"org.eclipse.ui.edit.text.contentAssist.proposals",1309225694285
executed,command,org.eclipse.ui.workbench.texteditor,3.6.1.r361_v20100714-0800,"org.eclipse.ui.edit.text.goto.lineEnd",1309225701714
executed,command,org.eclipse.ui,3.6.1.M20100826-1330,"org.eclipse.ui.edit.text.contentAssist.proposals",1309225704299
executed,command,org.eclipse.ui.workbench.texteditor,3.6.1.r361_v20100714-0800,"org.eclipse.ui.edit.text.goto.lineEnd",1309225713126
executed,command,org.eclipse.ui,3.6.1.M20100826-1330,"org.eclipse.ui.edit.text.contentAssist.proposals",1309225717111
executed,command,org.eclipse.ui,3.6.1.M20100826-1330,"org.eclipse.ui.edit.delete",1309225720449
executed,command,org.eclipse.ui,3.6.1.M20100826-1330,"org.eclipse.ui.edit.delete",1309225720842
executed,command,org.eclipse.ui,3.6.1.M20100826-1330,"org.eclipse.ui.edit.delete",1309225743064
executed,command,org.eclipse.ui,3.6.1.M20100826-1330,"org.eclipse.ui.edit.undo",1309225746561
executed,command,org.eclipse.ui,3.6.1.M20100826-1330,"org.eclipse.ui.edit.copy",1309225750830
executed,command,org.eclipse.ui,3.6.1.M20100826-1330,"org.eclipse.ui.edit.paste",1309225763926
executed,command,org.eclipse.ui,3.6.1.M20100826-1330,"org.eclipse.ui.edit.copy",1309225779012
executed,command,org.eclipse.ui,3.6.1.M20100826-1330,"org.eclipse.ui.edit.paste",1309225790782
executed,command,org.eclipse.ui,3.6.1.M20100826-1330,"org.eclipse.ui.edit.copy",1309225812543
executed,command,org.eclipse.ui,3.6.1.M20100826-1330,"org.eclipse.ui.edit.copy",1309225812790
executed,command,org.eclipse.ui,3.6.1.M20100826-1330,"org.eclipse.ui.edit.copy",1309225812966
executed,command,org.eclipse.ui,3.6.1.M20100826-1330,"org.eclipse.ui.edit.paste",1309225824765
executed,command,org.eclipse.ui,3.6.1.M20100826-1330,"org.eclipse.ui.file.save",1309225828697
executed,command,org.eclipse.ui,3.6.1.M20100826-1330,"org.eclipse.ui.edit.copy",1309225836003
executed,command,org.eclipse.ui,3.6.1.M20100826-1330,"org.eclipse.ui.edit.paste",1309225849860
executed,command,org.eclipse.ui,3.6.1.M20100826-1330,"org.eclipse.ui.edit.delete",1309225899286
executed,command,org.eclipse.ui,3.6.1.M20100826-1330,"org.eclipse.ui.edit.text.contentAssist.proposals",1309225913198
executed,command,org.eclipse.ui,3.6.1.M20100826-1330,"org.eclipse.ui.file.save",1309225929166
executed,command,org.eclipse.ui,3.6.1.M20100826-1330,"org.eclipse.ui.edit.text.contentAssist.proposals",1309225936996
executed,command,org.eclipse.ui,3.6.1.M20100826-1330,"org.eclipse.ui.edit.text.contentAssist.proposals",1309225942400
executed,command,org.eclipse.ui.workbench.texteditor,3.6.1.r361_v20100714-0800,"org.eclipse.ui.edit.text.goto.lineEnd",1309225944585
executed,command,org.eclipse.ui,3.6.1.M20100826-1330,"org.eclipse.ui.edit.text.contentAssist.proposals",1309225952275
executed,command,org.eclipse.ui.workbench.texteditor,3.6.1.r361_v20100714-0800,"org.eclipse.ui.edit.text.goto.lineEnd",1309225961278
executed,command,org.eclipse.ui,3.6.1.M20100826-1330,"org.eclipse.ui.file.save",1309225964144
deactivated,workbench,org.eclipse.ui.workbench,3.6.1.M20100826-1330,"",1309226003702
activated,workbench,org.eclipse.ui.workbench,3.6.1.M20100826-1330,"",1309226005101
executed,command,org.eclipse.ui,3.6.1.M20100826-1330,"org.eclipse.ui.edit.text.contentAssist.proposals",1309226033298
deactivated,workbench,org.eclipse.ui.workbench,3.6.1.M20100826-1330,"",1309226056540
activated,workbench,org.eclipse.ui.workbench,3.6.1.M20100826-1330,"",1309226056747
executed,command,org.eclipse.ui,3.6.1.M20100826-1330,"org.eclipse.ui.edit.delete",1309226062299
executed,command,org.eclipse.ui,3.6.1.M20100826-1330,"org.eclipse.ui.edit.text.contentAssist.proposals",1309226066753
executed,command,org.eclipse.ui.workbench.texteditor,3.6.1.r361_v20100714-0800,"org.eclipse.ui.edit.text.goto.lineEnd",1309226074255
executed,command,org.eclipse.ui,3.6.1.M20100826-1330,"org.eclipse.ui.edit.text.contentAssist.proposals",1309226077911
executed,command,org.eclipse.ui.workbench.texteditor,3.6.1.r361_v20100714-0800,"org.eclipse.ui.edit.text.goto.lineEnd",1309226084423
executed,command,org.eclipse.ui,3.6.1.M20100826-1330,"org.eclipse.ui.edit.text.contentAssist.proposals",1309226088565
executed,command,org.eclipse.ui,3.6.1.M20100826-1330,"org.eclipse.ui.edit.text.contentAssist.proposals",1309226100621
executed,command,org.eclipse.ui.workbench.texteditor,3.6.1.r361_v20100714-0800,"org.eclipse.ui.edit.text.goto.lineEnd",1309226107734
executed,command,org.eclipse.ui,3.6.1.M20100826-1330,"org.eclipse.ui.edit.text.contentAssist.proposals",1309226111345
executed,command,org.eclipse.ui.workbench.texteditor,3.6.1.r361_v20100714-0800,"org.eclipse.ui.edit.text.goto.lineEnd",1309226121284
executed,command,org.eclipse.ui,3.6.1.M20100826-1330,"org.eclipse.ui.edit.text.contentAssist.proposals",1309226127000
executed,command,org.eclipse.ui.workbench.texteditor,3.6.1.r361_v20100714-0800,"org.eclipse.ui.edit.text.goto.lineEnd",1309226131988
executed,command,org.eclipse.ui,3.6.1.M20100826-1330,"org.eclipse.ui.edit.text.contentAssist.proposals",1309226138444
executed,command,org.eclipse.ui.workbench.texteditor,3.6.1.r361_v20100714-0800,"org.eclipse.ui.edit.text.goto.lineEnd",1309226147133
executed,command,org.eclipse.ui,3.6.1.M20100826-1330,"org.eclipse.ui.edit.text.contentAssist.proposals",1309226149431
executed,command,org.eclipse.ui.workbench.texteditor,3.6.1.r361_v20100714-0800,"org.eclipse.ui.edit.text.goto.lineEnd",1309226156954
executed,command,org.eclipse.ui,3.6.1.M20100826-1330,"org.eclipse.ui.file.save",1309226163515
executed,command,org.eclipse.ui,3.6.1.M20100826-1330,"org.eclipse.ui.edit.text.contentAssist.proposals",1309226192815
executed,command,org.eclipse.ui.workbench.texteditor,3.6.1.r361_v20100714-0800,"org.eclipse.ui.edit.text.goto.lineEnd",1309226199404
executed,command,org.eclipse.ui,3.6.1.M20100826-1330,"org.eclipse.ui.edit.text.contentAssist.proposals",1309226202523
executed,command,org.eclipse.ui.workbench.texteditor,3.6.1.r361_v20100714-0800,"org.eclipse.ui.edit.text.goto.lineEnd",1309226210697
executed,command,org.eclipse.ui,3.6.1.M20100826-1330,"org.eclipse.ui.file.save",1309226212645
deactivated,workbench,org.eclipse.ui.workbench,3.6.1.M20100826-1330,"",1309226232267
activated,workbench,org.eclipse.ui.workbench,3.6.1.M20100826-1330,"",1309226233147
deactivated,workbench,org.eclipse.ui.workbench,3.6.1.M20100826-1330,"",1309226240771
activated,workbench,org.eclipse.ui.workbench,3.6.1.M20100826-1330,"",1309226375331
started,bundle,org.eclipse.wst.server.core,1.1.204.v20100908,"org.eclipse.wst.server.core",1309226376606
started,bundle,org.eclipse.wst.server.ui,1.1.205.v20100908,"org.eclipse.wst.server.ui",1309226376659
started,bundle,org.eclipse.wst.jsdt.debug.ui,1.0.1.v201008170101,"org.eclipse.wst.jsdt.debug.ui",1309226376769
started,bundle,org.eclipse.wst.common.frameworks,1.2.0.v201003040800,"org.eclipse.wst.common.frameworks",1309226377167
started,bundle,org.eclipse.wst.common.emf,1.2.1.v201008260500,"org.eclipse.wst.common.emf",1309226377188
started,bundle,org.eclipse.jem.util,2.1.2.v201008120100,"org.eclipse.jem.util",1309226377196
started,bundle,org.eclipse.wst.common.emfworkbench.integration,1.2.2.v201008242000,"org.eclipse.wst.common.emfworkbench.integration",1309226377202
started,bundle,org.eclipse.wst.common.core,1.2.0.v200908252030,"org.eclipse.wst.common.core",1309226377232
started,bundle,org.eclipse.wst.common.modulecore,1.2.3.v201008242000,"org.eclipse.wst.common.modulecore",1309226377237
started,bundle,org.eclipse.jst.j2ee.core,1.2.2.v201008120100,"org.eclipse.jst.j2ee.core",1309226377245
started,bundle,org.eclipse.jem,2.0.400.v201005110200,"org.eclipse.jem",1309226377262
started,bundle,org.eclipse.wst.common.frameworks.ui,1.2.0.v201004080500,"org.eclipse.wst.common.frameworks.ui",1309226377291
started,bundle,org.eclipse.wst.xml.core,1.1.502.v201009010342,"org.eclipse.wst.xml.core",1309226377295
started,bundle,org.eclipse.wst.validation,1.2.200.v201005271900,"org.eclipse.wst.validation",1309226377310
started,bundle,org.eclipse.jst.j2ee,1.1.402.v201009151730,"org.eclipse.jst.j2ee",1309226377341
started,bundle,org.eclipse.jst.server.core,1.2.101.v20100421,"org.eclipse.jst.server.core",1309226377366
started,bundle,org.eclipse.jst.jee,1.0.301.v201007151900,"org.eclipse.jst.jee",1309226377406
deactivated,workbench,org.eclipse.ui.workbench,3.6.1.M20100826-1330,"",1309226384377
