what,kind,bundleId,bundleVersion,description,time
deactivated,workbench,org.eclipse.ui.workbench,3.6.1.M20100826-1330,"",1309495487559
activated,view,org.eclipse.ui.console,3.5.0.v20100526,"org.eclipse.ui.console.ConsoleView",1309495487675
activated,workbench,org.eclipse.ui.workbench,3.6.1.M20100826-1330,"",1309495489299
deactivated,workbench,org.eclipse.ui.workbench,3.6.1.M20100826-1330,"",1309495496088
activated,workbench,org.eclipse.ui.workbench,3.6.1.M20100826-1330,"",1309495497276
opened,view,org.eclipse.ui.views.log,1.0.100.v20100423,"org.eclipse.pde.runtime.LogView",1309495498635
activated,view,org.eclipse.ui.views.log,1.0.100.v20100423,"org.eclipse.pde.runtime.LogView",1309495498717
deactivated,workbench,org.eclipse.ui.workbench,3.6.1.M20100826-1330,"",1309495498728
activated,workbench,org.eclipse.ui.workbench,3.6.1.M20100826-1330,"",1309495498852
activated,editor,org.eclipse.pde.ui,3.6.1.v20100810_r361,"org.eclipse.pde.ui.manifestEditor",1309495513371
activated,view,org.eclipse.jdt.ui,3.6.1.r361_v20100825-0800,"org.eclipse.jdt.ui.PackageExplorer",1309495520113
activated,editor,org.eclipse.pde.ui,3.6.1.v20100810_r361,"org.eclipse.pde.ui.manifestEditor",1309495563658
activated,view,org.eclipse.jdt.ui,3.6.1.r361_v20100825-0800,"org.eclipse.jdt.ui.PackageExplorer",1309495566203
started,bundle,org.eclipse.wst.jsdt.debug.core,1.0.1.v201008170101,"org.eclipse.wst.jsdt.debug.core",1309495571384
activated,editor,org.eclipse.pde.ui,3.6.1.v20100810_r361,"org.eclipse.pde.ui.manifestEditor",1309495571439
closed,workbench,org.eclipse.ui.workbench,3.6.1.M20100826-1330,"",1309495571673
executed,command,org.eclipse.ui,3.6.1.M20100826-1330,"org.eclipse.ui.file.restartWorkbench",1309495573054
stopped,bundle,org.eclipse.jst.j2ee.xdoclet.runtime,1.1.300.v201004280700,"org.eclipse.jst.j2ee.xdoclet.runtime",1309495573217
stopped,bundle,org.eclipse.jst.j2ee.ejb.annotations.xdoclet,1.2.100.v201003112036,"org.eclipse.jst.j2ee.ejb.annotations.xdoclet",1309495573219
stopped,bundle,org.eclipse.jst.server.generic.jboss,1.6.1.v200904151730,"org.eclipse.jst.server.generic.jboss",1309495573224
stopped,bundle,org.eclipse.jst.server.generic.jonas,1.5.205.v200805140145,"org.eclipse.jst.server.generic.jonas",1309495573228
stopped,bundle,org.eclipse.jst.server.generic.oc4j,1.5.206.v20090812,"org.eclipse.jst.server.generic.oc4j",1309495573233
stopped,bundle,org.eclipse.jst.server.websphere.core,1.0.302.v20080620,"org.eclipse.jst.server.websphere.core",1309495573238
stopped,bundle,org.eclipse.jst.server.generic.ui,1.0.505.v20100428,"org.eclipse.jst.server.generic.ui",1309495573239
stopped,bundle,org.eclipse.jst.server.generic.core,1.0.606.v20100512,"org.eclipse.jst.server.generic.core",1309495573242
stopped,bundle,org.eclipse.mylyn.ide.ant,3.4.0.v20100608-0100-e3x,"org.eclipse.mylyn.ide.ant",1309495573243
stopped,bundle,org.eclipse.datatools.connectivity.oda.template.ui,3.2.1.v201004090942,"org.eclipse.datatools.connectivity.oda.template.ui",1309495573245
stopped,bundle,org.eclipse.pde.api.tools.ui,1.0.201.v20100820_r361,"org.eclipse.pde.api.tools.ui",1309495573246
stopped,bundle,org.eclipse.pde.ds.ui,1.0.100.v20100601,"org.eclipse.pde.ds.ui",1309495573248
stopped,bundle,org.eclipse.pde.runtime,3.4.200.v20100601,"org.eclipse.pde.runtime",1309495573261
stopped,bundle,org.eclipse.pde.ua.ui,1.0.100.v20100504,"org.eclipse.pde.ua.ui",1309495573270
stopped,bundle,org.eclipse.pde.ui.templates,3.4.200.v20100601,"org.eclipse.pde.ui.templates",1309495573279
stopped,bundle,com.instantiations.designer.rcp.databinding.xwt,8.0.0.r36x201009160656,"com.instantiations.designer.rcp.databinding.xwt",1309495573289
stopped,bundle,com.instantiations.designer.core.databinding.xml,8.0.0.r36x201009160634,"com.instantiations.designer.core.databinding.xml",1309495573303
stopped,bundle,com.instantiations.designer.gxt.databinding,8.0.0.r36x201009160831,"com.instantiations.designer.gxt.databinding",1309495573303
stopped,bundle,com.instantiations.designer.rcp.databinding.emf,8.0.0.r36x201009160649,"com.instantiations.designer.rcp.databinding.emf",1309495573304
stopped,bundle,com.instantiations.designer.rcp.databinding,8.0.0.r36x201009160649,"com.instantiations.designer.rcp.databinding",1309495573304
stopped,bundle,com.instantiations.designer.swing.databinding,8.0.0.r36x201009160643,"com.instantiations.designer.swing.databinding",1309495573304
stopped,bundle,com.instantiations.designer.core.databinding,8.0.0.r36x201009160631,"com.instantiations.designer.core.databinding",1309495573304
stopped,bundle,com.instantiations.designer.rcp.GroupLayout,8.0.0.r36x201009160649,"com.instantiations.designer.rcp.GroupLayout",1309495573304
stopped,bundle,com.instantiations.designer.rcp.SWT_AWT,8.0.0.r36x201009160651,"com.instantiations.designer.rcp.SWT_AWT",1309495573304
stopped,bundle,com.instantiations.designer.rcp.nebula,8.0.0.r36x201009160649,"com.instantiations.designer.rcp.nebula",1309495573304
stopped,bundle,com.instantiations.designer.rcp.swing2swt,8.0.0.r36x201009160649,"com.instantiations.designer.rcp.swing2swt",1309495573304
stopped,bundle,com.instantiations.designer.xwt,8.0.0.r36x201009160656,"com.instantiations.designer.xwt",1309495573304
stopped,bundle,com.instantiations.designer.rcp,8.0.0.r36x201009160649,"com.instantiations.designer.rcp",1309495573304
stopped,bundle,org.eclipse.pde.ui,3.6.1.v20100810_r361,"org.eclipse.pde.ui",1309495573304
stopped,bundle,com.instantiations.designer.gwt.ExtGWT,8.0.0.r36x201009160831,"com.instantiations.designer.gwt.ExtGWT",1309495573304
stopped,bundle,com.instantiations.designer.gwt.GWTExt,8.0.0.r36x201009160831,"com.instantiations.designer.gwt.GWTExt",1309495573304
stopped,bundle,com.instantiations.designer.gwt.SmartGWT,8.0.0.r36x201009160831,"com.instantiations.designer.gwt.SmartGWT",1309495573304
stopped,bundle,com.instantiations.designer.gwt.UiBinder,8.0.0.r36x201009160831,"com.instantiations.designer.gwt.UiBinder",1309495573304
stopped,bundle,com.instantiations.designer.gwt,8.0.0.r36x201009160831,"com.instantiations.designer.gwt",1309495573304
stopped,bundle,com.instantiations.j2ee,8.0.0.r36x201009140724,"com.instantiations.j2ee",1309495573304
stopped,bundle,org.eclipse.ant.ui,3.5.0.v20100427,"org.eclipse.ant.ui",1309495573306
activated,perspective,org.eclipse.debug.ui,,"org.eclipse.debug.ui.DebugPerspective",1309495593566
started,bundle,org.eclipse.osgi,3.6.1.R36x_v20100806,"org.eclipse.osgi",1309495593568
started,bundle,org.eclipse.equinox.simpleconfigurator,1.0.200.v20100503,"org.eclipse.equinox.simpleconfigurator",1309495593569
started,bundle,com.ibm.icu,4.2.1.v20100412,"com.ibm.icu",1309495593570
started,bundle,org.eclipse.compare.core,3.5.100.I20100526-0800,"org.eclipse.compare.core",1309495593571
started,bundle,org.eclipse.core.contenttype,3.4.100.v20100505-1235,"org.eclipse.core.contenttype",1309495593572
started,bundle,org.eclipse.core.databinding.observable,1.3.0.I20100601-0800,"org.eclipse.core.databinding.observable",1309495593574
started,bundle,org.eclipse.core.expressions,3.4.200.v20100505,"org.eclipse.core.expressions",1309495593575
started,bundle,org.eclipse.core.filebuffers,3.5.100.v20100520-0800,"org.eclipse.core.filebuffers",1309495593576
started,bundle,org.eclipse.core.filesystem,1.3.1.R36x_v20100727-0745,"org.eclipse.core.filesystem",1309495593578
started,bundle,org.eclipse.core.jobs,3.5.1.R36x_v20100824,"org.eclipse.core.jobs",1309495593578
started,bundle,org.eclipse.core.net,1.2.100.I20100511-0800,"org.eclipse.core.net",1309495593579
started,bundle,org.eclipse.core.resources,3.6.0.R36x_v20100825-0600,"org.eclipse.core.resources",1309495593581
started,bundle,org.eclipse.core.runtime,3.6.0.v20100505,"org.eclipse.core.runtime",1309495593582
started,bundle,org.eclipse.core.runtime.compatibility,3.2.100.v20100505,"org.eclipse.core.runtime.compatibility",1309495593584
started,bundle,org.eclipse.core.runtime.compatibility.auth,3.2.200.v20100517,"org.eclipse.core.runtime.compatibility.auth",1309495593585
started,bundle,org.eclipse.debug.core,3.6.0.v20100519,"org.eclipse.debug.core",1309495593589
started,bundle,org.eclipse.emf.common,2.6.0.v20100914-1218,"org.eclipse.emf.common",1309495593590
started,bundle,org.eclipse.emf.ecore,2.6.1.v20100914-1218,"org.eclipse.emf.ecore",1309495593591
started,bundle,org.eclipse.emf.ecore.xmi,2.5.0.v20100521-1846,"org.eclipse.emf.ecore.xmi",1309495593593
started,bundle,org.eclipse.epp.usagedata.gathering,1.3.0.R201005261100,"org.eclipse.epp.usagedata.gathering",1309495593593
started,bundle,org.eclipse.epp.usagedata.recording,1.3.0.R201005261100,"org.eclipse.epp.usagedata.recording",1309495593594
started,bundle,org.eclipse.equinox.app,1.3.1.R36x_v20100803,"org.eclipse.equinox.app",1309495593595
started,bundle,org.eclipse.equinox.common,3.6.0.v20100503,"org.eclipse.equinox.common",1309495593596
started,bundle,org.eclipse.equinox.ds,1.2.1.R36x_v20100803,"org.eclipse.equinox.ds",1309495593597
started,bundle,org.eclipse.equinox.event,1.2.0.v20100503,"org.eclipse.equinox.event",1309495593598
started,bundle,org.eclipse.equinox.frameworkadmin,2.0.0.v20100503,"org.eclipse.equinox.frameworkadmin",1309495593600
started,bundle,org.eclipse.equinox.p2.core,2.0.2.R36x_v20100804,"org.eclipse.equinox.p2.core",1309495593600
started,bundle,org.eclipse.equinox.p2.directorywatcher,1.0.202.R36x_v20100727,"org.eclipse.equinox.p2.directorywatcher",1309495593602
started,bundle,org.eclipse.equinox.p2.engine,2.0.0.v20100606,"org.eclipse.equinox.p2.engine",1309495593603
started,bundle,org.eclipse.equinox.p2.metadata,2.0.0.v20100601,"org.eclipse.equinox.p2.metadata",1309495593604
started,bundle,org.eclipse.equinox.p2.metadata.repository,1.1.0.v20100513,"org.eclipse.equinox.p2.metadata.repository",1309495593605
started,bundle,org.eclipse.equinox.p2.operations,2.0.0.v20100510,"org.eclipse.equinox.p2.operations",1309495593606
started,bundle,org.eclipse.equinox.p2.reconciler.dropins,1.1.0.v20100525,"org.eclipse.equinox.p2.reconciler.dropins",1309495593607
started,bundle,org.eclipse.equinox.p2.repository,2.0.1.R36x_v20100823,"org.eclipse.equinox.p2.repository",1309495593608
started,bundle,org.eclipse.equinox.p2.ui.sdk.scheduler,1.0.0.v20100507-1815,"org.eclipse.equinox.p2.ui.sdk.scheduler",1309495593609
started,bundle,org.eclipse.equinox.p2.updatechecker,1.1.101.R36x_v20100823,"org.eclipse.equinox.p2.updatechecker",1309495593609
started,bundle,org.eclipse.equinox.preferences,3.3.0.v20100503,"org.eclipse.equinox.preferences",1309495593611
started,bundle,org.eclipse.equinox.registry,3.5.0.v20100503,"org.eclipse.equinox.registry",1309495593612
started,bundle,org.eclipse.equinox.security,1.0.200.v20100503,"org.eclipse.equinox.security",1309495593614
started,bundle,org.eclipse.equinox.simpleconfigurator.manipulator,2.0.0.v20100503,"org.eclipse.equinox.simpleconfigurator.manipulator",1309495593615
started,bundle,org.eclipse.equinox.util,1.0.200.v20100503,"org.eclipse.equinox.util",1309495593616
started,bundle,org.eclipse.help,3.5.0.v20100524,"org.eclipse.help",1309495593618
started,bundle,org.eclipse.jdt.core,3.6.1.v_A68_R36x,"org.eclipse.jdt.core",1309495593619
started,bundle,org.eclipse.jdt.core.manipulation,1.3.0.v20100520-0800,"org.eclipse.jdt.core.manipulation",1309495593620
started,bundle,org.eclipse.jdt.launching,3.5.100.v20100526,"org.eclipse.jdt.launching",1309495593621
started,bundle,org.eclipse.jdt.ui,3.6.1.r361_v20100825-0800,"org.eclipse.jdt.ui",1309495593625
started,bundle,org.eclipse.jface,3.6.1.M20100825-0800,"org.eclipse.jface",1309495593630
started,bundle,org.eclipse.jst.common.project.facet.core,1.4.102.v201008182136,"org.eclipse.jst.common.project.facet.core",1309495593635
started,bundle,org.eclipse.jst.ws.jaxrs.core,1.0.200.v201008201800,"org.eclipse.jst.ws.jaxrs.core",1309495593636
started,bundle,org.eclipse.jst.ws.jaxws.utils,1.0.0.v201004171919,"org.eclipse.jst.ws.jaxws.utils",1309495593637
started,bundle,org.eclipse.mylyn.bugzilla.core,3.4.2.v20100902-0100-e3x,"org.eclipse.mylyn.bugzilla.core",1309495593638
started,bundle,org.eclipse.mylyn.bugzilla.ui,3.4.2.v20100909-0100-e3x,"org.eclipse.mylyn.bugzilla.ui",1309495593640
started,bundle,org.eclipse.mylyn.commons.net,3.4.1.v20100625-2100-e3x,"org.eclipse.mylyn.commons.net",1309495593640
started,bundle,org.eclipse.mylyn.commons.ui,3.4.0.v20100608-0100-e3x,"org.eclipse.mylyn.commons.ui",1309495593641
started,bundle,org.eclipse.mylyn.context.core,3.4.1.v20100909-0100-e3x,"org.eclipse.mylyn.context.core",1309495593642
started,bundle,org.eclipse.mylyn.context.ui,3.4.1.v20100909-0100-e3x,"org.eclipse.mylyn.context.ui",1309495593651
started,bundle,org.eclipse.mylyn.monitor.ui,3.4.0.v20100608-0100-e3x,"org.eclipse.mylyn.monitor.ui",1309495593652
started,bundle,org.eclipse.mylyn.tasks.ui,3.4.2.v20100902-0100-e3x,"org.eclipse.mylyn.tasks.ui",1309495593654
started,bundle,org.eclipse.mylyn.team.ui,3.4.2.v20100909-0100-e3x,"org.eclipse.mylyn.team.ui",1309495593655
started,bundle,org.eclipse.pde,3.6.1.v201009090800,"org.eclipse.pde",1309495593657
started,bundle,org.eclipse.pde.core,3.6.1.v20100902_r361,"org.eclipse.pde.core",1309495593659
started,bundle,org.eclipse.pde.launching,3.6.0.v20100601,"org.eclipse.pde.launching",1309495593660
started,bundle,org.eclipse.pde.ui,3.6.1.v20100810_r361,"org.eclipse.pde.ui",1309495593664
started,bundle,org.eclipse.search,3.6.0.v20100520-0800,"org.eclipse.search",1309495593668
started,bundle,org.eclipse.team.core,3.5.100.R36x_v20100825-0800,"org.eclipse.team.core",1309495593670
started,bundle,org.eclipse.ui,3.6.1.M20100826-1330,"org.eclipse.ui",1309495593673
started,bundle,org.eclipse.ui.editors,3.6.1.r361_v20100825-0800,"org.eclipse.ui.editors",1309495593673
started,bundle,org.eclipse.ui.forms,3.5.2.r36_v20100702,"org.eclipse.ui.forms",1309495593674
started,bundle,org.eclipse.ui.ide,3.6.1.M20100825-0800,"org.eclipse.ui.ide",1309495593677
started,bundle,org.eclipse.ui.net,1.2.100.I20100505-1245,"org.eclipse.ui.net",1309495593679
started,bundle,org.eclipse.ui.views,3.5.0.I20100527-0800,"org.eclipse.ui.views",1309495593680
started,bundle,org.eclipse.ui.views.log,1.0.100.v20100423,"org.eclipse.ui.views.log",1309495593682
started,bundle,org.eclipse.ui.workbench,3.6.1.M20100826-1330,"org.eclipse.ui.workbench",1309495593686
started,bundle,org.eclipse.ui.workbench.texteditor,3.6.1.r361_v20100714-0800,"org.eclipse.ui.workbench.texteditor",1309495593688
started,bundle,org.eclipse.update.configurator,3.3.100.v20100512,"org.eclipse.update.configurator",1309495593690
started,bundle,org.eclipse.update.core,3.2.402.R36x_v20100629,"org.eclipse.update.core",1309495593692
started,bundle,org.eclipse.update.scheduler,3.2.300.v20100512,"org.eclipse.update.scheduler",1309495593693
started,bundle,org.eclipse.wst.common.project.facet.core,1.4.102.v201008170019,"org.eclipse.wst.common.project.facet.core",1309495593694
started,bundle,org.eclipse.wst.web,1.1.401.v201007151900,"org.eclipse.wst.web",1309495593696
started,bundle,com.instantiations.designer.core,8.0.0.r36x201009160631,"com.instantiations.designer.core",1309495593699
started,bundle,com.instantiations.designer.core.lib,8.0.0.r36x201009160631,"com.instantiations.designer.core.lib",1309495593709
started,bundle,com.instantiations.eclipse.ui,8.0.0.r36x201009131432,"com.instantiations.eclipse.ui",1309495593713
os,sysinfo,,,"win32",1309495593718
arch,sysinfo,,,"x86",1309495593719
ws,sysinfo,,,"win32",1309495593719
locale,sysinfo,,,"en_US",1309495593719
processors,sysinfo,,,"2",1309495593719
java.runtime.name,sysinfo,,,"Java(TM) SE Runtime Environment",1309495593719
java.runtime.version,sysinfo,,,"1.6.0_24-b07",1309495593719
java.specification.name,sysinfo,,,"Java Platform API Specification",1309495593719
java.specification.vendor,sysinfo,,,"Sun Microsystems Inc.",1309495593719
java.specification.version,sysinfo,,,"1.6",1309495593719
java.vendor,sysinfo,,,"Sun Microsystems Inc.",1309495593719
java.version,sysinfo,,,"1.6.0_24",1309495593719
java.vm.info,sysinfo,,,"mixed mode, sharing",1309495593719
java.vm.name,sysinfo,,,"Java HotSpot(TM) Client VM",1309495593719
java.vm.specification.name,sysinfo,,,"Java Virtual Machine Specification",1309495593719
java.vm.specification.vendor,sysinfo,,,"Sun Microsystems Inc.",1309495593719
java.vm.specification.version,sysinfo,,,"1.0",1309495593719
java.vm.vendor,sysinfo,,,"Sun Microsystems Inc.",1309495593719
java.vm.version,sysinfo,,,"19.1-b02",1309495593719
started,bundle,com.instantiations.designer.gwt,8.0.0.r36x201009160831,"com.instantiations.designer.gwt",1309495593796
started,bundle,com.instantiations.designer.rcp,8.0.0.r36x201009160649,"com.instantiations.designer.rcp",1309495593798
started,bundle,com.instantiations.designer.swt,8.0.0.r36x201009160641,"com.instantiations.designer.swt",1309495593810
started,bundle,com.instantiations.designer.swing,8.0.0.r36x201009160643,"com.instantiations.designer.swing",1309495593812
started,bundle,org.eclipse.jsch.core,1.1.200.I20100505-1245,"org.eclipse.jsch.core",1309495593885
started,bundle,com.instantiations.designer.core.xml,8.0.0.r36x201009160634,"com.instantiations.designer.core.xml",1309495593888
started,bundle,org.eclipse.team.cvs.core,3.3.300.I20100526-0800,"org.eclipse.team.cvs.core",1309495593890
started,bundle,org.eclipse.team.ui,3.5.101.R36x_v20100825-0800,"org.eclipse.team.ui",1309495593934
started,bundle,org.eclipse.ui.console,3.5.0.v20100526,"org.eclipse.ui.console",1309495593999
started,bundle,com.instantiations.designer.gwt.ExtGWT,8.0.0.r36x201009160831,"com.instantiations.designer.gwt.ExtGWT",1309495594057
started,bundle,com.instantiations.designer.gwt.SmartGWT,8.0.0.r36x201009160831,"com.instantiations.designer.gwt.SmartGWT",1309495594108
started,bundle,com.instantiations.designer.gwt.UiBinder,8.0.0.r36x201009160831,"com.instantiations.designer.gwt.UiBinder",1309495594110
started,bundle,com.instantiations.eclipse.debug,6.0.0.r36x201009131414,"com.instantiations.eclipse.debug",1309495594130
started,bundle,com.instantiations.eclipse.startup,6.0.0.r36x201009131414,"com.instantiations.eclipse.startup",1309495594131
started,bundle,com.instantiations.eclipse.usageprofiler,6.0.0.r36x201009131414,"com.instantiations.eclipse.usageprofiler",1309495594132
started,bundle,org.eclipse.team.cvs.ui,3.3.301.R36x_v20100825-0800,"org.eclipse.team.cvs.ui",1309495594135
started,bundle,com.instantiations.eclipse.util,6.0.0.r36x201009131414,"com.instantiations.eclipse.util",1309495594176
started,bundle,com.instantiations.eclipse.usageprofiler.ui,6.0.0.r36x201009131414,"com.instantiations.eclipse.usageprofiler.ui",1309495594234
started,bundle,com.instantiations.j2ee,8.0.0.r36x201009140724,"com.instantiations.j2ee",1309495594236
opened,view,org.eclipse.jdt.ui,3.6.1.r361_v20100825-0800,"org.eclipse.jdt.ui.PackageExplorer",1309495610562
activated,view,org.eclipse.jdt.ui,3.6.1.r361_v20100825-0800,"org.eclipse.jdt.ui.PackageExplorer",1309495610680
started,bundle,org.tigris.subversion.clientadapter,1.6.12,"org.tigris.subversion.clientadapter",1309495610685
started,bundle,org.tigris.subversion.subclipse.core,1.6.13,"org.tigris.subversion.subclipse.core",1309495610723
started,bundle,org.eclipse.compare,3.5.100.I20100526-0800,"org.eclipse.compare",1309495610757
started,bundle,org.tigris.subversion.subclipse.ui,1.6.13,"org.tigris.subversion.subclipse.ui",1309495610802
activated,perspective,org.eclipse.pde.ui,3.6.1.v20100810_r361,"org.eclipse.pde.ui.PDEPerspective",1309495613426
started,bundle,org.eclipse.debug.ui,3.6.1.v20100901_r361,"org.eclipse.debug.ui",1309495626623
started,bundle,org.eclipse.wst.server.core,1.1.204.v20100908,"org.eclipse.wst.server.core",1309495626873
started,bundle,org.eclipse.wst.server.ui,1.1.205.v20100908,"org.eclipse.wst.server.ui",1309495627307
started,bundle,org.eclipse.jdt.debug,3.6.1.v20100715_r361,"org.eclipse.jdt.debug",1309495627345
started,bundle,org.eclipse.jdt.debug.ui,3.5.0.v20100602-0830,"org.eclipse.jdt.debug.ui",1309495627436
started,bundle,org.eclipse.wst.common.frameworks,1.2.0.v201003040800,"org.eclipse.wst.common.frameworks",1309495627456
started,bundle,org.eclipse.wst.common.emf,1.2.1.v201008260500,"org.eclipse.wst.common.emf",1309495627478
started,bundle,org.eclipse.jem.util,2.1.2.v201008120100,"org.eclipse.jem.util",1309495627486
started,bundle,org.eclipse.wst.common.emfworkbench.integration,1.2.2.v201008242000,"org.eclipse.wst.common.emfworkbench.integration",1309495627492
started,bundle,org.eclipse.wst.common.core,1.2.0.v200908252030,"org.eclipse.wst.common.core",1309495627523
started,bundle,org.eclipse.wst.common.modulecore,1.2.3.v201008242000,"org.eclipse.wst.common.modulecore",1309495627528
started,bundle,org.eclipse.jst.j2ee.core,1.2.2.v201008120100,"org.eclipse.jst.j2ee.core",1309495627536
started,bundle,org.eclipse.jem,2.0.400.v201005110200,"org.eclipse.jem",1309495627554
started,bundle,org.eclipse.wst.common.frameworks.ui,1.2.0.v201004080500,"org.eclipse.wst.common.frameworks.ui",1309495627584
started,bundle,org.eclipse.wst.xml.core,1.1.502.v201009010342,"org.eclipse.wst.xml.core",1309495627589
started,bundle,org.eclipse.wst.validation,1.2.200.v201005271900,"org.eclipse.wst.validation",1309495627604
started,bundle,org.eclipse.jst.j2ee,1.1.402.v201009151730,"org.eclipse.jst.j2ee",1309495627636
started,bundle,org.eclipse.jst.server.core,1.2.101.v20100421,"org.eclipse.jst.server.core",1309495627645
started,bundle,org.eclipse.jst.jee,1.0.301.v201007151900,"org.eclipse.jst.jee",1309495627670
started,bundle,org.eclipse.core.variables,3.2.400.v20100505,"org.eclipse.core.variables",1309495627943
deactivated,workbench,org.eclipse.ui.workbench,3.6.1.M20100826-1330,"",1309495629986
opened,view,org.eclipse.ui.console,3.5.0.v20100526,"org.eclipse.ui.console.ConsoleView",1309495630089
activated,view,org.eclipse.ui.console,3.5.0.v20100526,"org.eclipse.ui.console.ConsoleView",1309495630183
activated,workbench,org.eclipse.ui.workbench,3.6.1.M20100826-1330,"",1309495633721
opened,view,org.eclipse.ui.views.log,1.0.100.v20100423,"org.eclipse.pde.runtime.LogView",1309495634004
activated,view,org.eclipse.ui.views.log,1.0.100.v20100423,"org.eclipse.pde.runtime.LogView",1309495634061
deactivated,workbench,org.eclipse.ui.workbench,3.6.1.M20100826-1330,"",1309495634074
activated,workbench,org.eclipse.ui.workbench,3.6.1.M20100826-1330,"",1309495634193
activated,view,org.eclipse.jdt.ui,3.6.1.r361_v20100825-0800,"org.eclipse.jdt.ui.PackageExplorer",1309495645415
started,bundle,org.eclipse.wst.ws.service.policy.ui,1.0.202.v201004211732,"org.eclipse.wst.ws.service.policy.ui",1309495645862
started,bundle,org.eclipse.wst.ws.service.policy,1.0.203.v201004211732,"org.eclipse.wst.ws.service.policy",1309495645865
started,bundle,org.eclipse.wst.command.env,1.0.409.v201004211805,"org.eclipse.wst.command.env",1309495645883
started,bundle,org.eclipse.wst.ws,1.1.203.v201004211805,"org.eclipse.wst.ws",1309495645884
started,bundle,org.eclipse.ltk.core.refactoring,3.5.100.v20100526-0800,"org.eclipse.ltk.core.refactoring",1309495645960
started,bundle,org.eclipse.ltk.ui.refactoring,3.5.0.v20100526-0800,"org.eclipse.ltk.ui.refactoring",1309495645966
executed,command,org.eclipse.ui,3.6.1.M20100826-1330,"org.eclipse.ui.file.refresh",1309495662824
deactivated,workbench,org.eclipse.ui.workbench,3.6.1.M20100826-1330,"",1309495664638
activated,workbench,org.eclipse.ui.workbench,3.6.1.M20100826-1330,"",1309495666080
deactivated,workbench,org.eclipse.ui.workbench,3.6.1.M20100826-1330,"",1309495668512
activated,workbench,org.eclipse.ui.workbench,3.6.1.M20100826-1330,"",1309495674765
deactivated,workbench,org.eclipse.ui.workbench,3.6.1.M20100826-1330,"",1309495674871
activated,workbench,org.eclipse.ui.workbench,3.6.1.M20100826-1330,"",1309495676029
started,bundle,org.eclipse.wst.jsdt.debug.ui,1.0.1.v201008170101,"org.eclipse.wst.jsdt.debug.ui",1309495681596
deactivated,workbench,org.eclipse.ui.workbench,3.6.1.M20100826-1330,"",1309495684038
activated,view,org.eclipse.ui.console,3.5.0.v20100526,"org.eclipse.ui.console.ConsoleView",1309495684134
activated,workbench,org.eclipse.ui.workbench,3.6.1.M20100826-1330,"",1309495685959
activated,view,org.eclipse.ui.views.log,1.0.100.v20100423,"org.eclipse.pde.runtime.LogView",1309495686036
deactivated,workbench,org.eclipse.ui.workbench,3.6.1.M20100826-1330,"",1309495686046
activated,workbench,org.eclipse.ui.workbench,3.6.1.M20100826-1330,"",1309495686138
activated,view,org.eclipse.jdt.ui,3.6.1.r361_v20100825-0800,"org.eclipse.jdt.ui.PackageExplorer",1309495689862
deactivated,workbench,org.eclipse.ui.workbench,3.6.1.M20100826-1330,"",1309495715077
activated,workbench,org.eclipse.ui.workbench,3.6.1.M20100826-1330,"",1309495750018
activated,editor,org.eclipse.pde.ui,3.6.1.v20100810_r361,"org.eclipse.pde.ui.manifestEditor",1309495751176
activated,view,org.eclipse.jdt.ui,3.6.1.r361_v20100825-0800,"org.eclipse.jdt.ui.PackageExplorer",1309495752008
deactivated,workbench,org.eclipse.ui.workbench,3.6.1.M20100826-1330,"",1309495788106
activated,workbench,org.eclipse.ui.workbench,3.6.1.M20100826-1330,"",1309495789370
deactivated,workbench,org.eclipse.ui.workbench,3.6.1.M20100826-1330,"",1309495790672
deactivated,workbench,org.eclipse.ui.workbench,3.6.1.M20100826-1330,"",1309495818062
activated,workbench,org.eclipse.ui.workbench,3.6.1.M20100826-1330,"",1309495865618
activated,editor,org.eclipse.pde.ui,3.6.1.v20100810_r361,"org.eclipse.pde.ui.manifestEditor",1309495875864
deactivated,workbench,org.eclipse.ui.workbench,3.6.1.M20100826-1330,"",1309495879137
activated,workbench,org.eclipse.ui.workbench,3.6.1.M20100826-1330,"",1309495882128
started,bundle,org.eclipse.pde.build,3.6.1.R36x_v20100823,"org.eclipse.pde.build",1309495884180
deactivated,workbench,org.eclipse.ui.workbench,3.6.1.M20100826-1330,"",1309495886732
activated,workbench,org.eclipse.ui.workbench,3.6.1.M20100826-1330,"",1309495888053
activated,view,org.eclipse.jdt.ui,3.6.1.r361_v20100825-0800,"org.eclipse.jdt.ui.PackageExplorer",1309495908903
deactivated,workbench,org.eclipse.ui.workbench,3.6.1.M20100826-1330,"",1309495918067
activated,workbench,org.eclipse.ui.workbench,3.6.1.M20100826-1330,"",1309495920472
executed,command,org.eclipse.ui,3.6.1.M20100826-1330,"org.eclipse.ui.file.import",1309495920490
executed,command,org.eclipse.ui,3.6.1.M20100826-1330,"org.eclipse.ui.file.import",1309495920490
deactivated,workbench,org.eclipse.ui.workbench,3.6.1.M20100826-1330,"",1309495922899
started,bundle,com.instantiations.designer.os,8.0.0.r36x201009160631,"com.instantiations.designer.os",1309495923985
