what,kind,bundleId,bundleVersion,description,time
started,bundle,org.eclipse.equinox.common,3.6.0.v20100503,"org.eclipse.equinox.common",1309320031569
started,bundle,org.eclipse.equinox.ds,1.2.1.R36x_v20100803,"org.eclipse.equinox.ds",1309320031570
started,bundle,org.eclipse.equinox.event,1.2.0.v20100503,"org.eclipse.equinox.event",1309320031572
started,bundle,org.eclipse.equinox.frameworkadmin,2.0.0.v20100503,"org.eclipse.equinox.frameworkadmin",1309320031581
started,bundle,org.eclipse.equinox.p2.core,2.0.2.R36x_v20100804,"org.eclipse.equinox.p2.core",1309320031588
started,bundle,org.eclipse.equinox.p2.directorywatcher,1.0.202.R36x_v20100727,"org.eclipse.equinox.p2.directorywatcher",1309320031590
started,bundle,org.eclipse.equinox.p2.engine,2.0.0.v20100606,"org.eclipse.equinox.p2.engine",1309320031592
started,bundle,org.eclipse.equinox.p2.metadata,2.0.0.v20100601,"org.eclipse.equinox.p2.metadata",1309320031594
started,bundle,org.eclipse.equinox.p2.metadata.repository,1.1.0.v20100513,"org.eclipse.equinox.p2.metadata.repository",1309320031595
started,bundle,org.eclipse.equinox.p2.operations,2.0.0.v20100510,"org.eclipse.equinox.p2.operations",1309320031597
started,bundle,org.eclipse.equinox.p2.reconciler.dropins,1.1.0.v20100525,"org.eclipse.equinox.p2.reconciler.dropins",1309320031598
started,bundle,org.eclipse.equinox.p2.repository,2.0.1.R36x_v20100823,"org.eclipse.equinox.p2.repository",1309320031600
started,bundle,org.eclipse.equinox.p2.ui.sdk.scheduler,1.0.0.v20100507-1815,"org.eclipse.equinox.p2.ui.sdk.scheduler",1309320031602
started,bundle,org.eclipse.equinox.p2.updatechecker,1.1.101.R36x_v20100823,"org.eclipse.equinox.p2.updatechecker",1309320031603
started,bundle,org.eclipse.equinox.preferences,3.3.0.v20100503,"org.eclipse.equinox.preferences",1309320031605
started,bundle,org.eclipse.equinox.registry,3.5.0.v20100503,"org.eclipse.equinox.registry",1309320031608
started,bundle,org.eclipse.equinox.security,1.0.200.v20100503,"org.eclipse.equinox.security",1309320031610
started,bundle,org.eclipse.equinox.simpleconfigurator.manipulator,2.0.0.v20100503,"org.eclipse.equinox.simpleconfigurator.manipulator",1309320031612
started,bundle,org.eclipse.equinox.util,1.0.200.v20100503,"org.eclipse.equinox.util",1309320031614
started,bundle,org.eclipse.help,3.5.0.v20100524,"org.eclipse.help",1309320031615
started,bundle,org.eclipse.jdt.apt.core,3.3.401.R36_v20100727-0110,"org.eclipse.jdt.apt.core",1309320031617
started,bundle,org.eclipse.jdt.apt.pluggable.core,1.0.301.R36_v20100727-0110,"org.eclipse.jdt.apt.pluggable.core",1309320031619
started,bundle,org.eclipse.jdt.core,3.6.1.v_A68_R36x,"org.eclipse.jdt.core",1309320031623
started,bundle,org.eclipse.jdt.core.manipulation,1.3.0.v20100520-0800,"org.eclipse.jdt.core.manipulation",1309320031625
started,bundle,org.eclipse.jdt.debug,3.6.1.v20100715_r361,"org.eclipse.jdt.debug",1309320031630
started,bundle,org.eclipse.jdt.debug.ui,3.5.0.v20100602-0830,"org.eclipse.jdt.debug.ui",1309320031630
started,bundle,org.eclipse.jdt.launching,3.5.100.v20100526,"org.eclipse.jdt.launching",1309320031632
started,bundle,org.eclipse.jdt.ui,3.6.1.r361_v20100825-0800,"org.eclipse.jdt.ui",1309320031632
started,bundle,org.eclipse.jface,3.6.1.M20100825-0800,"org.eclipse.jface",1309320031634
started,bundle,org.eclipse.jsch.core,1.1.200.I20100505-1245,"org.eclipse.jsch.core",1309320031635
started,bundle,org.eclipse.jst.common.project.facet.core,1.4.102.v201008182136,"org.eclipse.jst.common.project.facet.core",1309320031637
started,bundle,org.eclipse.jst.ws.jaxrs.core,1.0.200.v201008201800,"org.eclipse.jst.ws.jaxrs.core",1309320031639
started,bundle,org.eclipse.jst.ws.jaxws.utils,1.0.0.v201004171919,"org.eclipse.jst.ws.jaxws.utils",1309320031641
started,bundle,org.eclipse.ltk.core.refactoring,3.5.100.v20100526-0800,"org.eclipse.ltk.core.refactoring",1309320031643
started,bundle,org.eclipse.ltk.ui.refactoring,3.5.0.v20100526-0800,"org.eclipse.ltk.ui.refactoring",1309320031645
started,bundle,org.eclipse.mylyn.bugzilla.core,3.4.2.v20100902-0100-e3x,"org.eclipse.mylyn.bugzilla.core",1309320031646
started,bundle,org.eclipse.mylyn.bugzilla.ui,3.4.2.v20100909-0100-e3x,"org.eclipse.mylyn.bugzilla.ui",1309320031648
started,bundle,org.eclipse.mylyn.commons.net,3.4.1.v20100625-2100-e3x,"org.eclipse.mylyn.commons.net",1309320031648
started,bundle,org.eclipse.mylyn.commons.ui,3.4.0.v20100608-0100-e3x,"org.eclipse.mylyn.commons.ui",1309320031650
started,bundle,org.eclipse.mylyn.context.core,3.4.1.v20100909-0100-e3x,"org.eclipse.mylyn.context.core",1309320031652
started,bundle,org.eclipse.mylyn.context.ui,3.4.1.v20100909-0100-e3x,"org.eclipse.mylyn.context.ui",1309320031654
started,bundle,org.eclipse.mylyn.monitor.ui,3.4.0.v20100608-0100-e3x,"org.eclipse.mylyn.monitor.ui",1309320031655
started,bundle,org.eclipse.mylyn.tasks.ui,3.4.2.v20100902-0100-e3x,"org.eclipse.mylyn.tasks.ui",1309320031657
started,bundle,org.eclipse.mylyn.team.ui,3.4.2.v20100909-0100-e3x,"org.eclipse.mylyn.team.ui",1309320031658
started,bundle,org.eclipse.pde,3.6.1.v201009090800,"org.eclipse.pde",1309320031660
started,bundle,org.eclipse.pde.core,3.6.1.v20100902_r361,"org.eclipse.pde.core",1309320031662
started,bundle,org.eclipse.team.core,3.5.100.R36x_v20100825-0800,"org.eclipse.team.core",1309320031664
started,bundle,org.eclipse.team.cvs.core,3.3.300.I20100526-0800,"org.eclipse.team.cvs.core",1309320031665
started,bundle,org.eclipse.team.cvs.ui,3.3.301.R36x_v20100825-0800,"org.eclipse.team.cvs.ui",1309320031667
started,bundle,org.eclipse.team.ui,3.5.101.R36x_v20100825-0800,"org.eclipse.team.ui",1309320031669
started,bundle,org.eclipse.ui,3.6.1.M20100826-1330,"org.eclipse.ui",1309320031671
started,bundle,org.eclipse.ui.console,3.5.0.v20100526,"org.eclipse.ui.console",1309320031673
started,bundle,org.eclipse.ui.editors,3.6.1.r361_v20100825-0800,"org.eclipse.ui.editors",1309320031673
started,bundle,org.eclipse.ui.forms,3.5.2.r36_v20100702,"org.eclipse.ui.forms",1309320031675
started,bundle,org.eclipse.ui.ide,3.6.1.M20100825-0800,"org.eclipse.ui.ide",1309320031679
started,bundle,org.eclipse.ui.net,1.2.100.I20100505-1245,"org.eclipse.ui.net",1309320031680
started,bundle,org.eclipse.ui.views,3.5.0.I20100527-0800,"org.eclipse.ui.views",1309320031683
started,bundle,org.eclipse.ui.workbench,3.6.1.M20100826-1330,"org.eclipse.ui.workbench",1309320031686
started,bundle,org.eclipse.ui.workbench.texteditor,3.6.1.r361_v20100714-0800,"org.eclipse.ui.workbench.texteditor",1309320031688
started,bundle,org.eclipse.update.configurator,3.3.100.v20100512,"org.eclipse.update.configurator",1309320031690
started,bundle,org.eclipse.update.core,3.2.402.R36x_v20100629,"org.eclipse.update.core",1309320031692
started,bundle,org.eclipse.update.scheduler,3.2.300.v20100512,"org.eclipse.update.scheduler",1309320031694
started,bundle,org.eclipse.wst.common.project.facet.core,1.4.102.v201008170019,"org.eclipse.wst.common.project.facet.core",1309320031696
started,bundle,org.eclipse.wst.web,1.1.401.v201007151900,"org.eclipse.wst.web",1309320031697
started,bundle,com.instantiations.common.core,6.0.0.r36x201009131414,"com.instantiations.common.core",1309320031699
started,bundle,com.instantiations.designer.core,8.0.0.r36x201009160631,"com.instantiations.designer.core",1309320031700
started,bundle,com.instantiations.designer.core.databinding,8.0.0.r36x201009160631,"com.instantiations.designer.core.databinding",1309320031701
started,bundle,com.instantiations.designer.core.lib,8.0.0.r36x201009160631,"com.instantiations.designer.core.lib",1309320031706
started,bundle,com.instantiations.designer.core.xml,8.0.0.r36x201009160634,"com.instantiations.designer.core.xml",1309320031707
started,bundle,com.instantiations.designer.gwt,8.0.0.r36x201009160831,"com.instantiations.designer.gwt",1309320031708
started,bundle,com.instantiations.designer.gwt.ExtGWT,8.0.0.r36x201009160831,"com.instantiations.designer.gwt.ExtGWT",1309320031709
started,bundle,com.instantiations.designer.gwt.SmartGWT,8.0.0.r36x201009160831,"com.instantiations.designer.gwt.SmartGWT",1309320031710
started,bundle,com.instantiations.designer.gwt.UiBinder,8.0.0.r36x201009160831,"com.instantiations.designer.gwt.UiBinder",1309320031711
started,bundle,com.instantiations.designer.gxt.databinding,8.0.0.r36x201009160831,"com.instantiations.designer.gxt.databinding",1309320031713
started,bundle,com.instantiations.designer.rcp,8.0.0.r36x201009160649,"com.instantiations.designer.rcp",1309320031715
started,bundle,com.instantiations.designer.rcp.databinding,8.0.0.r36x201009160649,"com.instantiations.designer.rcp.databinding",1309320031717
started,bundle,com.instantiations.designer.swing,8.0.0.r36x201009160643,"com.instantiations.designer.swing",1309320031719
started,bundle,com.instantiations.designer.swing.databinding,8.0.0.r36x201009160643,"com.instantiations.designer.swing.databinding",1309320031721
started,bundle,com.instantiations.designer.swt,8.0.0.r36x201009160641,"com.instantiations.designer.swt",1309320031722
started,bundle,com.instantiations.eclipse.debug,6.0.0.r36x201009131414,"com.instantiations.eclipse.debug",1309320031723
started,bundle,com.instantiations.eclipse.startup,6.0.0.r36x201009131414,"com.instantiations.eclipse.startup",1309320031724
started,bundle,com.instantiations.eclipse.ui,8.0.0.r36x201009131432,"com.instantiations.eclipse.ui",1309320031728
started,bundle,com.instantiations.eclipse.usageprofiler,6.0.0.r36x201009131414,"com.instantiations.eclipse.usageprofiler",1309320031729
os,sysinfo,,,"win32",1309320031803
arch,sysinfo,,,"x86",1309320031803
ws,sysinfo,,,"win32",1309320031803
locale,sysinfo,,,"en_US",1309320031803
started,bundle,com.instantiations.eclipse.util,6.0.0.r36x201009131414,"com.instantiations.eclipse.util",1309320031827
processors,sysinfo,,,"2",1309320031828
java.runtime.name,sysinfo,,,"Java(TM) SE Runtime Environment",1309320031828
java.runtime.version,sysinfo,,,"1.6.0_24-b07",1309320031828
java.specification.name,sysinfo,,,"Java Platform API Specification",1309320031828
java.specification.vendor,sysinfo,,,"Sun Microsystems Inc.",1309320031828
java.specification.version,sysinfo,,,"1.6",1309320031828
java.vendor,sysinfo,,,"Sun Microsystems Inc.",1309320031828
java.version,sysinfo,,,"1.6.0_24",1309320031828
java.vm.info,sysinfo,,,"mixed mode, sharing",1309320031828
java.vm.name,sysinfo,,,"Java HotSpot(TM) Client VM",1309320031828
java.vm.specification.name,sysinfo,,,"Java Virtual Machine Specification",1309320031828
java.vm.specification.vendor,sysinfo,,,"Sun Microsystems Inc.",1309320031828
java.vm.specification.version,sysinfo,,,"1.0",1309320031828
java.vm.vendor,sysinfo,,,"Sun Microsystems Inc.",1309320031828
java.vm.version,sysinfo,,,"19.1-b02",1309320031828
started,bundle,com.instantiations.eclipse.usageprofiler.ui,6.0.0.r36x201009131414,"com.instantiations.eclipse.usageprofiler.ui",1309320031836
started,bundle,com.instantiations.j2ee,8.0.0.r36x201009140724,"com.instantiations.j2ee",1309320031844
started,bundle,org.eclipse.wst.server.core,1.1.204.v20100908,"org.eclipse.wst.server.core",1309320032046
started,bundle,org.eclipse.wst.server.ui,1.1.205.v20100908,"org.eclipse.wst.server.ui",1309320032092
started,bundle,org.eclipse.wst.common.frameworks,1.2.0.v201003040800,"org.eclipse.wst.common.frameworks",1309320032247
started,bundle,org.eclipse.wst.common.emf,1.2.1.v201008260500,"org.eclipse.wst.common.emf",1309320032249
started,bundle,org.eclipse.jem.util,2.1.2.v201008120100,"org.eclipse.jem.util",1309320032267
started,bundle,org.eclipse.wst.common.emfworkbench.integration,1.2.2.v201008242000,"org.eclipse.wst.common.emfworkbench.integration",1309320032268
started,bundle,org.eclipse.wst.jsdt.debug.ui,1.0.1.v201008170101,"org.eclipse.wst.jsdt.debug.ui",1309320032269
started,bundle,org.eclipse.wst.common.core,1.2.0.v200908252030,"org.eclipse.wst.common.core",1309320032317
started,bundle,org.eclipse.wst.common.modulecore,1.2.3.v201008242000,"org.eclipse.wst.common.modulecore",1309320032323
started,bundle,org.eclipse.jst.j2ee.core,1.2.2.v201008120100,"org.eclipse.jst.j2ee.core",1309320032330
started,bundle,org.eclipse.jem,2.0.400.v201005110200,"org.eclipse.jem",1309320032349
started,bundle,org.eclipse.wst.common.frameworks.ui,1.2.0.v201004080500,"org.eclipse.wst.common.frameworks.ui",1309320032377
started,bundle,org.eclipse.wst.xml.core,1.1.502.v201009010342,"org.eclipse.wst.xml.core",1309320032381
started,bundle,org.eclipse.wst.validation,1.2.200.v201005271900,"org.eclipse.wst.validation",1309320032395
started,bundle,org.eclipse.jst.j2ee,1.1.402.v201009151730,"org.eclipse.jst.j2ee",1309320032811
started,bundle,org.eclipse.jst.server.core,1.2.101.v20100421,"org.eclipse.jst.server.core",1309320032818
started,bundle,org.eclipse.jst.jee,1.0.301.v201007151900,"org.eclipse.jst.jee",1309320032843
started,bundle,org.eclipse.pde.launching,3.6.0.v20100601,"org.eclipse.pde.launching",1309320032861
started,bundle,org.eclipse.ui.views.log,1.0.100.v20100423,"org.eclipse.ui.views.log",1309320032865
started,bundle,org.eclipse.pde.ui,3.6.1.v20100810_r361,"org.eclipse.pde.ui",1309320032868
deactivated,workbench,org.eclipse.ui.workbench,3.6.1.M20100826-1330,"",1309320038097
opened,view,org.eclipse.ui.console,3.5.0.v20100526,"org.eclipse.ui.console.ConsoleView",1309320040451
activated,workbench,org.eclipse.ui.workbench,3.6.1.M20100826-1330,"",1309320040482
activated,view,org.eclipse.ui.console,3.5.0.v20100526,"org.eclipse.ui.console.ConsoleView",1309320040500
opened,editor,org.eclipse.jdt.ui,3.6.1.r361_v20100825-0800,"org.eclipse.jdt.ui.CompilationUnitEditor",1309320089413
started,bundle,com.instantiations.designer.xwt,8.0.0.r36x201009160656,"com.instantiations.designer.xwt",1309320089476
activated,editor,org.eclipse.jdt.ui,3.6.1.r361_v20100825-0800,"org.eclipse.jdt.ui.CompilationUnitEditor",1309320089499
started,bundle,org.eclipse.jdt.junit,3.6.1.r361_v20100825-0800,"org.eclipse.jdt.junit",1309320089706
executed,command,org.eclipse.ui,3.6.1.M20100826-1330,"org.eclipse.ui.edit.delete",1309320111872
started,bundle,org.eclipse.mylyn.ide.ui,3.4.0.v20100608-0100-e3x,"org.eclipse.mylyn.ide.ui",1309320121231
started,bundle,org.eclipse.jst.ws.jaxws.ui,1.0.1.v201008232129,"org.eclipse.jst.ws.jaxws.ui",1309320121268
started,bundle,org.eclipse.mylyn.java.ui,3.4.0.v20100608-0100-e3x,"org.eclipse.mylyn.java.ui",1309320121289
started,bundle,org.eclipse.pde.api.tools,1.0.202.v20100820_r361,"org.eclipse.pde.api.tools",1309320121871
started,bundle,org.eclipse.pde.api.tools.ui,1.0.201.v20100820_r361,"org.eclipse.pde.api.tools.ui",1309320121886
executed,command,org.eclipse.ui,3.6.1.M20100826-1330,"org.eclipse.ui.edit.text.contentAssist.proposals",1309320122661
executed,command,org.eclipse.ui,3.6.1.M20100826-1330,"org.eclipse.ui.edit.text.contentAssist.proposals",1309320135182
executed,command,org.eclipse.ui,3.6.1.M20100826-1330,"org.eclipse.ui.edit.text.contentAssist.proposals",1309320146633
deactivated,workbench,org.eclipse.ui.workbench,3.6.1.M20100826-1330,"",1309320160957
activated,workbench,org.eclipse.ui.workbench,3.6.1.M20100826-1330,"",1309320172717
executed,command,org.eclipse.ui,3.6.1.M20100826-1330,"org.eclipse.ui.edit.text.contentAssist.proposals",1309320176941
executed,command,org.eclipse.ui,3.6.1.M20100826-1330,"org.eclipse.ui.edit.undo",1309320180234
executed,command,org.eclipse.ui,3.6.1.M20100826-1330,"org.eclipse.ui.edit.undo",1309320180768
started,bundle,org.eclipse.mylyn.java.tasks,3.4.0.v20100608-0100-e3x,"org.eclipse.mylyn.java.tasks",1309320181576
executed,command,org.eclipse.ui,3.6.1.M20100826-1330,"org.eclipse.ui.edit.redo",1309320183954
executed,command,org.eclipse.ui,3.6.1.M20100826-1330,"org.eclipse.ui.edit.text.contentAssist.proposals",1309320188553
executed,command,org.eclipse.ui,3.6.1.M20100826-1330,"org.eclipse.ui.edit.text.contentAssist.proposals",1309320200570
executed,command,org.eclipse.ui,3.6.1.M20100826-1330,"org.eclipse.ui.edit.text.contentAssist.proposals",1309320202318
deactivated,workbench,org.eclipse.ui.workbench,3.6.1.M20100826-1330,"",1309320225946
activated,workbench,org.eclipse.ui.workbench,3.6.1.M20100826-1330,"",1309320226106
opened,editor,org.eclipse.jdt.ui,3.6.1.r361_v20100825-0800,"org.eclipse.jdt.ui.CompilationUnitEditor",1309320231191
activated,editor,org.eclipse.jdt.ui,3.6.1.r361_v20100825-0800,"org.eclipse.jdt.ui.CompilationUnitEditor",1309320231246
activated,editor,org.eclipse.jdt.ui,3.6.1.r361_v20100825-0800,"org.eclipse.jdt.ui.CompilationUnitEditor",1309320236474
closed,editor,org.eclipse.jdt.ui,3.6.1.r361_v20100825-0800,"org.eclipse.jdt.ui.CompilationUnitEditor",1309320236475
activated,editor,com.instantiations.designer.core,8.0.0.r36x201009160631,"com.instantiations.designer.core.guiEditor",1309320245224
deactivated,workbench,org.eclipse.ui.workbench,3.6.1.M20100826-1330,"",1309320248575
executed,command,org.eclipse.ui,3.6.1.M20100826-1330,"org.eclipse.ui.edit.findReplace",1309320248608
activated,workbench,org.eclipse.ui.workbench,3.6.1.M20100826-1330,"",1309320259598
executed,command,org.eclipse.ui,3.6.1.M20100826-1330,"org.eclipse.ui.edit.copy",1309320262603
executed,command,org.eclipse.ui,3.6.1.M20100826-1330,"org.eclipse.ui.edit.copy",1309320262841
executed,command,org.eclipse.ui,3.6.1.M20100826-1330,"org.eclipse.ui.edit.copy",1309320263051
deactivated,workbench,org.eclipse.ui.workbench,3.6.1.M20100826-1330,"",1309320263669
activated,workbench,org.eclipse.ui.workbench,3.6.1.M20100826-1330,"",1309320263801
activated,editor,org.eclipse.jdt.ui,3.6.1.r361_v20100825-0800,"org.eclipse.jdt.ui.CompilationUnitEditor",1309320265833
executed,command,org.eclipse.ui,3.6.1.M20100826-1330,"org.eclipse.ui.edit.paste",1309320269848
executed,command,org.eclipse.ui,3.6.1.M20100826-1330,"org.eclipse.ui.edit.delete",1309320274742
deactivated,workbench,org.eclipse.ui.workbench,3.6.1.M20100826-1330,"",1309320277519
activated,workbench,org.eclipse.ui.workbench,3.6.1.M20100826-1330,"",1309320277564
executed,command,org.eclipse.ui,3.6.1.M20100826-1330,"org.eclipse.ui.edit.delete",1309320281638
executed,command,org.eclipse.ui,3.6.1.M20100826-1330,"org.eclipse.ui.edit.text.contentAssist.proposals",1309320313752
executed,command,org.eclipse.ui.workbench.texteditor,3.6.1.r361_v20100714-0800,"org.eclipse.ui.edit.text.goto.lineEnd",1309320320104
executed,command,org.eclipse.ui,3.6.1.M20100826-1330,"org.eclipse.ui.file.save",1309320336043
deactivated,workbench,org.eclipse.ui.workbench,3.6.1.M20100826-1330,"",1309320340915
activated,workbench,org.eclipse.ui.workbench,3.6.1.M20100826-1330,"",1309320345583
activated,view,org.eclipse.ui.console,3.5.0.v20100526,"org.eclipse.ui.console.ConsoleView",1309320345618
deactivated,workbench,org.eclipse.ui.workbench,3.6.1.M20100826-1330,"",1309320356699
activated,workbench,org.eclipse.ui.workbench,3.6.1.M20100826-1330,"",1309320358627
deactivated,workbench,org.eclipse.ui.workbench,3.6.1.M20100826-1330,"",1309320359940
activated,workbench,org.eclipse.ui.workbench,3.6.1.M20100826-1330,"",1309320361293
activated,editor,org.eclipse.jdt.ui,3.6.1.r361_v20100825-0800,"org.eclipse.jdt.ui.CompilationUnitEditor",1309320371916
executed,command,org.eclipse.ui,3.6.1.M20100826-1330,"org.eclipse.ui.edit.text.contentAssist.proposals",1309320377131
executed,command,org.eclipse.ui,3.6.1.M20100826-1330,"org.eclipse.ui.file.save",1309320383653
deactivated,workbench,org.eclipse.ui.workbench,3.6.1.M20100826-1330,"",1309320388214
activated,workbench,org.eclipse.ui.workbench,3.6.1.M20100826-1330,"",1309320390322
activated,view,org.eclipse.ui.console,3.5.0.v20100526,"org.eclipse.ui.console.ConsoleView",1309320390356
activated,editor,org.eclipse.jdt.ui,3.6.1.r361_v20100825-0800,"org.eclipse.jdt.ui.CompilationUnitEditor",1309320402511
executed,command,org.eclipse.ui,3.6.1.M20100826-1330,"org.eclipse.ui.edit.text.contentAssist.proposals",1309320412752
executed,command,org.eclipse.ui,3.6.1.M20100826-1330,"org.eclipse.ui.file.save",1309320427378
deactivated,workbench,org.eclipse.ui.workbench,3.6.1.M20100826-1330,"",1309320463237
activated,workbench,org.eclipse.ui.workbench,3.6.1.M20100826-1330,"",1309320468213
executed,command,org.eclipse.ui,3.6.1.M20100826-1330,"org.eclipse.ui.file.save",1309320537253
deactivated,workbench,org.eclipse.ui.workbench,3.6.1.M20100826-1330,"",1309320542341
activated,workbench,org.eclipse.ui.workbench,3.6.1.M20100826-1330,"",1309320546110
activated,view,org.eclipse.ui.console,3.5.0.v20100526,"org.eclipse.ui.console.ConsoleView",1309320546138
activated,editor,org.eclipse.jdt.ui,3.6.1.r361_v20100825-0800,"org.eclipse.jdt.ui.CompilationUnitEditor",1309320784231
started,bundle,org.tigris.subversion.clientadapter,1.6.12,"org.tigris.subversion.clientadapter",1309320786757
opened,view,org.eclipse.jdt.ui,3.6.1.r361_v20100825-0800,"org.eclipse.jdt.ui.PackageExplorer",1309320786799
started,bundle,org.tigris.subversion.subclipse.core,1.6.13,"org.tigris.subversion.subclipse.core",1309320786806
started,bundle,org.eclipse.compare,3.5.100.I20100526-0800,"org.eclipse.compare",1309320786829
activated,view,org.eclipse.jdt.ui,3.6.1.r361_v20100825-0800,"org.eclipse.jdt.ui.PackageExplorer",1309320786868
started,bundle,org.tigris.subversion.subclipse.ui,1.6.13,"org.tigris.subversion.subclipse.ui",1309320786877
deactivated,workbench,org.eclipse.ui.workbench,3.6.1.M20100826-1330,"",1309320816819
activated,workbench,org.eclipse.ui.workbench,3.6.1.M20100826-1330,"",1309320900038
deactivated,workbench,org.eclipse.ui.workbench,3.6.1.M20100826-1330,"",1309320901240
deactivated,workbench,org.eclipse.ui.workbench,3.6.1.M20100826-1330,"",1309321023706
activated,workbench,org.eclipse.ui.workbench,3.6.1.M20100826-1330,"",1309321235926
deactivated,workbench,org.eclipse.ui.workbench,3.6.1.M20100826-1330,"",1309321237133
deactivated,workbench,org.eclipse.ui.workbench,3.6.1.M20100826-1330,"",1309321305464
deactivated,workbench,org.eclipse.ui.workbench,3.6.1.M20100826-1330,"",1309321383903
deactivated,workbench,org.eclipse.ui.workbench,3.6.1.M20100826-1330,"",1309321388145
deactivated,workbench,org.eclipse.ui.workbench,3.6.1.M20100826-1330,"",1309322912293
deactivated,workbench,org.eclipse.ui.workbench,3.6.1.M20100826-1330,"",1309322993971
activated,workbench,org.eclipse.ui.workbench,3.6.1.M20100826-1330,"",1309323038707
deactivated,workbench,org.eclipse.ui.workbench,3.6.1.M20100826-1330,"",1309323040599
activated,workbench,org.eclipse.ui.workbench,3.6.1.M20100826-1330,"",1309323057165
deactivated,workbench,org.eclipse.ui.workbench,3.6.1.M20100826-1330,"",1309323057266
activated,workbench,org.eclipse.ui.workbench,3.6.1.M20100826-1330,"",1309323058689
started,bundle,org.eclipse.wst.jsdt.debug.core,1.0.1.v201008170101,"org.eclipse.wst.jsdt.debug.core",1309323058755
activated,editor,org.eclipse.jdt.ui,3.6.1.r361_v20100825-0800,"org.eclipse.jdt.ui.CompilationUnitEditor",1309323058793
closed,workbench,org.eclipse.ui.workbench,3.6.1.M20100826-1330,"",1309323059239
stopped,bundle,org.eclipse.jst.j2ee.xdoclet.runtime,1.1.300.v201004280700,"org.eclipse.jst.j2ee.xdoclet.runtime",1309323060856
stopped,bundle,org.eclipse.jst.j2ee.ejb.annotations.xdoclet,1.2.100.v201003112036,"org.eclipse.jst.j2ee.ejb.annotations.xdoclet",1309323061026
stopped,bundle,org.eclipse.jst.server.generic.jboss,1.6.1.v200904151730,"org.eclipse.jst.server.generic.jboss",1309323061059
stopped,bundle,org.eclipse.jst.server.generic.jonas,1.5.205.v200805140145,"org.eclipse.jst.server.generic.jonas",1309323061104
stopped,bundle,org.eclipse.jst.server.generic.oc4j,1.5.206.v20090812,"org.eclipse.jst.server.generic.oc4j",1309323061156
activated,perspective,org.eclipse.debug.ui,,"org.eclipse.debug.ui.DebugPerspective",1309325951671
started,bundle,org.eclipse.osgi,3.6.1.R36x_v20100806,"org.eclipse.osgi",1309325951673
started,bundle,org.eclipse.equinox.simpleconfigurator,1.0.200.v20100503,"org.eclipse.equinox.simpleconfigurator",1309325951675
started,bundle,com.ibm.icu,4.2.1.v20100412,"com.ibm.icu",1309325951677
started,bundle,org.eclipse.compare.core,3.5.100.I20100526-0800,"org.eclipse.compare.core",1309325951678
started,bundle,org.eclipse.core.contenttype,3.4.100.v20100505-1235,"org.eclipse.core.contenttype",1309325951679
started,bundle,org.eclipse.core.databinding.observable,1.3.0.I20100601-0800,"org.eclipse.core.databinding.observable",1309325951682
started,bundle,org.eclipse.core.expressions,3.4.200.v20100505,"org.eclipse.core.expressions",1309325951683
started,bundle,org.eclipse.core.filebuffers,3.5.100.v20100520-0800,"org.eclipse.core.filebuffers",1309325951684
started,bundle,org.eclipse.core.filesystem,1.3.1.R36x_v20100727-0745,"org.eclipse.core.filesystem",1309325951686
started,bundle,org.eclipse.core.jobs,3.5.1.R36x_v20100824,"org.eclipse.core.jobs",1309325951688
started,bundle,org.eclipse.core.net,1.2.100.I20100511-0800,"org.eclipse.core.net",1309325951688
started,bundle,org.eclipse.core.resources,3.6.0.R36x_v20100825-0600,"org.eclipse.core.resources",1309325951690
started,bundle,org.eclipse.core.runtime,3.6.0.v20100505,"org.eclipse.core.runtime",1309325951692
started,bundle,org.eclipse.core.runtime.compatibility,3.2.100.v20100505,"org.eclipse.core.runtime.compatibility",1309325951694
started,bundle,org.eclipse.core.runtime.compatibility.auth,3.2.200.v20100517,"org.eclipse.core.runtime.compatibility.auth",1309325951696
started,bundle,org.eclipse.debug.core,3.6.0.v20100519,"org.eclipse.debug.core",1309325951697
started,bundle,org.eclipse.emf.common,2.6.0.v20100914-1218,"org.eclipse.emf.common",1309325951699
started,bundle,org.eclipse.emf.ecore,2.6.1.v20100914-1218,"org.eclipse.emf.ecore",1309325951702
started,bundle,org.eclipse.emf.ecore.xmi,2.5.0.v20100521-1846,"org.eclipse.emf.ecore.xmi",1309325951703
started,bundle,org.eclipse.epp.usagedata.gathering,1.3.0.R201005261100,"org.eclipse.epp.usagedata.gathering",1309325951704
started,bundle,org.eclipse.epp.usagedata.recording,1.3.0.R201005261100,"org.eclipse.epp.usagedata.recording",1309325951705
started,bundle,org.eclipse.equinox.app,1.3.1.R36x_v20100803,"org.eclipse.equinox.app",1309325951706
started,bundle,org.eclipse.equinox.common,3.6.0.v20100503,"org.eclipse.equinox.common",1309325951707
started,bundle,org.eclipse.equinox.ds,1.2.1.R36x_v20100803,"org.eclipse.equinox.ds",1309325951709
